# MagicaVoxel @ Ephtracy

# group
o 

# material
mtllib middleAgedGnome.mtl
usemtl palette

# normals
vn -1 0 0
vn 1 0 0
vn 0 0 1
vn 0 0 -1
vn 0 -1 0
vn 0 1 0

# texcoords
vt 0.00976563 0.5
vt 0.0292969 0.5
vt 0.0566406 0.5
vt 0.0605469 0.5
vt 0.142578 0.5
vt 0.181641 0.5
vt 0.208984 0.5
vt 0.255859 0.5
vt 0.306641 0.5
vt 0.587891 0.5
vt 0.775391 0.5
vt 0.841797 0.5
vt 0.853516 0.5
vt 0.958984 0.5
vt 0.962891 0.5
vt 0.990234 0.5
vt 0.994141 0.5

# verts
v 1.2 4.2 -4.3
v 1.2 4.2 -4.9
v 1.2 4.3 -4.3
v 1.2 4.3 -4.9
v 1.2 5.7 -4.3
v 1.2 5.7 -4.9
v 1.3 4 -4.4
v 1.3 4 -4.8
v 1.3 4.2 -4.4
v 1.3 4.2 -4.8
v 1.8 2 -3.6
v 1.8 2 -5
v 1.8 2.2 -3.6
v 1.8 2.2 -4.2
v 1.8 2.7 -4.2
v 1.8 2.7 -5
v 1.8 5.7 -4.2
v 1.8 5.7 -4.3
v 1.8 5.7 -4.9
v 1.8 6.3 -4.2
v 1.8 6.3 -4.9
v 1.9 2.2 -3.7
v 1.9 2.2 -4.2
v 1.9 2.3 -3.7
v 1.9 2.3 -4.2
v 1.9 2.7 -4.3
v 1.9 2.7 -4.9
v 1.9 4.3 -4.3
v 1.9 4.3 -4.9
v 1.9 4.6 -4.3
v 1.9 4.6 -4.9
v 1.9 5.1 -4.3
v 1.9 5.1 -4.9
v 1.9 5.7 -3.9
v 1.9 5.7 -4.2
v 1.9 5.8 -3.9
v 1.9 5.8 -4
v 1.9 6.3 -4
v 1.9 6.3 -4.2
v 1.9 6.3 -4.9
v 1.9 6.6 -4.2
v 1.9 6.6 -4.9
v 2 2.3 -3.8
v 2 2.3 -4.2
v 2 2.4 -3.8
v 2 2.4 -4.2
v 2 5.7 -4.9
v 2 5.7 -5.1
v 2 5.8 -3.9
v 2 5.8 -4
v 2 6 -3.9
v 2 6 -4
v 2 6.1 -3.9
v 2 6.1 -4
v 2 6.3 -4
v 2 6.3 -4.2
v 2 6.5 -3.9
v 2 6.5 -4
v 2 6.6 -4
v 2 6.6 -4.2
v 2 6.6 -4.3
v 2 6.6 -4.8
v 2 6.6 -4.9
v 2 6.6 -5.1
v 2 6.7 -4.3
v 2 6.7 -4.8
v 2.1 5.6 -4.9
v 2.1 5.6 -5.1
v 2.1 5.7 -3.8
v 2.1 5.7 -3.9
v 2.1 5.7 -4.9
v 2.1 5.7 -5.1
v 2.1 5.7 -5.2
v 2.1 6 -3.8
v 2.1 6 -3.9
v 2.1 6 -4
v 2.1 6.1 -3.8
v 2.1 6.1 -3.9
v 2.1 6.1 -4
v 2.1 6.5 -3.8
v 2.1 6.5 -3.9
v 2.1 6.5 -4
v 2.1 6.6 -3.9
v 2.1 6.6 -4
v 2.1 6.6 -4.1
v 2.1 6.6 -4.3
v 2.1 6.6 -4.8
v 2.1 6.6 -5
v 2.1 6.6 -5.1
v 2.1 6.6 -5.2
v 2.1 6.7 -4.1
v 2.1 6.7 -4.3
v 2.1 6.7 -4.8
v 2.1 6.7 -5
v 2.1 6.8 -4.3
v 2.1 6.8 -4.8
v 2.2 5.5 -4.9
v 2.2 5.5 -5.1
v 2.2 5.6 -4.9
v 2.2 5.6 -5.1
v 2.2 5.7 -3.7
v 2.2 5.7 -3.8
v 2.2 5.7 -5.2
v 2.2 5.7 -5.3
v 2.2 6 -3.7
v 2.2 6 -3.8
v 2.2 6 -3.9
v 2.2 6.1 -3.8
v 2.2 6.1 -3.9
v 2.2 6.2 -3.7
v 2.2 6.2 -3.8
v 2.2 6.5 -3.7
v 2.2 6.5 -3.8
v 2.2 6.5 -3.9
v 2.2 6.6 -3.8
v 2.2 6.6 -3.9
v 2.2 6.6 -4.1
v 2.2 6.6 -5
v 2.2 6.6 -5.2
v 2.2 6.6 -5.3
v 2.2 6.7 -3.9
v 2.2 6.7 -4.1
v 2.2 6.7 -4.3
v 2.2 6.7 -4.8
v 2.2 6.7 -5
v 2.2 6.7 -5.2
v 2.2 6.8 -4.1
v 2.2 6.8 -4.3
v 2.2 6.8 -4.8
v 2.2 6.8 -5
v 2.2 6.9 -4.3
v 2.2 6.9 -4.8
v 2.3 5.6 -5.1
v 2.3 5.6 -5.3
v 2.3 5.7 -3.6
v 2.3 5.7 -3.7
v 2.3 5.7 -5.1
v 2.3 5.7 -5.3
v 2.3 5.7 -5.4
v 2.3 6 -3.6
v 2.3 6 -3.7
v 2.3 6 -3.8
v 2.3 6.2 -3.7
v 2.3 6.2 -3.8
v 2.3 6.4 -3.6
v 2.3 6.4 -3.7
v 2.3 6.5 -3.6
v 2.3 6.5 -3.7
v 2.3 6.5 -3.8
v 2.3 6.6 -3.7
v 2.3 6.6 -3.8
v 2.3 6.6 -5.3
v 2.3 6.6 -5.4
v 2.3 6.7 -4
v 2.3 6.7 -4.1
v 2.3 6.7 -5
v 2.3 6.7 -5.1
v 2.3 6.8 -4
v 2.3 6.8 -4.1
v 2.3 6.8 -4.3
v 2.3 6.8 -4.8
v 2.3 6.8 -5
v 2.3 6.8 -5.1
v 2.3 6.9 -4.1
v 2.3 6.9 -4.3
v 2.3 6.9 -4.8
v 2.3 6.9 -5
v 2.3 7 -4.3
v 2.3 7 -4.8
v 2.4 4.2 -4.2
v 2.4 4.2 -4.3
v 2.4 4.3 -4.3
v 2.4 4.6 -4.3
v 2.4 4.7 -4.2
v 2.4 4.7 -4.3
v 2.4 5.5 -5.1
v 2.4 5.5 -5.2
v 2.4 5.6 -3.6
v 2.4 5.6 -4.3
v 2.4 5.6 -5.1
v 2.4 5.6 -5.2
v 2.4 5.7 -3.6
v 2.4 5.7 -4.3
v 2.4 6.4 -3.5
v 2.4 6.4 -3.6
v 2.4 6.5 -3.5
v 2.4 6.5 -3.6
v 2.4 6.6 -3.8
v 2.4 6.6 -3.9
v 2.4 6.6 -5.2
v 2.4 6.6 -5.3
v 2.4 6.7 -3.8
v 2.4 6.7 -3.9
v 2.4 6.7 -4
v 2.4 6.7 -5.1
v 2.4 6.7 -5.2
v 2.4 6.7 -5.3
v 2.4 6.8 -3.9
v 2.4 6.8 -4
v 2.4 6.8 -4.1
v 2.4 6.8 -5
v 2.4 6.8 -5.1
v 2.4 6.8 -5.2
v 2.4 6.9 -4
v 2.4 6.9 -4.1
v 2.4 6.9 -4.2
v 2.4 6.9 -4.3
v 2.4 6.9 -4.8
v 2.4 6.9 -4.9
v 2.4 6.9 -5
v 2.4 6.9 -5.1
v 2.4 7 -4.2
v 2.4 7 -4.3
v 2.4 7 -4.8
v 2.4 7 -4.9
v 2.4 7.1 -4.3
v 2.4 7.1 -4.8
v 2.5 5.5 -3.6
v 2.5 5.5 -4.3
v 2.5 5.6 -3.5
v 2.5 5.6 -3.6
v 2.5 5.6 -4.3
v 2.5 5.7 -5.4
v 2.5 5.7 -5.5
v 2.5 6 -3.5
v 2.5 6 -3.6
v 2.5 6 -3.7
v 2.5 6.1 -3.5
v 2.5 6.1 -3.6
v 2.5 6.4 -3.5
v 2.5 6.4 -3.6
v 2.5 6.4 -3.7
v 2.5 6.5 -3.6
v 2.5 6.5 -3.7
v 2.5 6.6 -3.6
v 2.5 6.6 -3.7
v 2.5 6.6 -5.4
v 2.5 6.6 -5.5
v 2.5 6.9 -4.1
v 2.5 6.9 -4.2
v 2.5 6.9 -4.9
v 2.5 6.9 -5
v 2.5 7 -4.1
v 2.5 7 -4.2
v 2.5 7 -4.3
v 2.5 7 -4.8
v 2.5 7 -4.9
v 2.5 7 -5
v 2.5 7.1 -4.2
v 2.5 7.1 -4.3
v 2.5 7.1 -4.4
v 2.5 7.1 -4.7
v 2.5 7.1 -4.8
v 2.5 7.1 -4.9
v 2.5 7.3 -4.4
v 2.5 7.3 -4.7
v 2.6 6.6 -3.7
v 2.6 6.6 -3.8
v 2.6 6.6 -5.3
v 2.6 6.6 -5.4
v 2.6 6.7 -3.7
v 2.6 6.7 -3.8
v 2.6 6.7 -3.9
v 2.6 6.7 -5.2
v 2.6 6.7 -5.3
v 2.6 6.7 -5.4
v 2.6 6.8 -3.8
v 2.6 6.8 -3.9
v 2.6 6.8 -4
v 2.6 6.8 -5.1
v 2.6 6.8 -5.2
v 2.6 6.8 -5.3
v 2.6 6.9 -3.9
v 2.6 6.9 -4
v 2.6 6.9 -4.1
v 2.6 6.9 -5
v 2.6 6.9 -5.1
v 2.6 6.9 -5.2
v 2.6 7 -4
v 2.6 7 -4.1
v 2.6 7 -4.2
v 2.6 7 -4.9
v 2.6 7 -5
v 2.6 7 -5.1
v 2.6 7.1 -4.1
v 2.6 7.1 -4.2
v 2.6 7.1 -4.3
v 2.6 7.1 -4.4
v 2.6 7.1 -4.7
v 2.6 7.1 -4.8
v 2.6 7.1 -4.9
v 2.6 7.1 -5
v 2.6 7.3 -4.3
v 2.6 7.3 -4.4
v 2.6 7.3 -4.7
v 2.6 7.3 -4.8
v 2.6 7.5 -4.4
v 2.6 7.5 -4.7
v 2.7 4.3 -4.2
v 2.7 4.3 -4.3
v 2.7 4.6 -4.2
v 2.7 4.6 -4.3
v 2.7 6 -3.4
v 2.7 6 -3.5
v 2.7 6 -3.6
v 2.7 6.1 -3.5
v 2.7 6.1 -3.6
v 2.7 6.2 -3.4
v 2.7 6.2 -3.5
v 2.7 7.1 -4.2
v 2.7 7.1 -4.3
v 2.7 7.1 -4.8
v 2.7 7.1 -4.9
v 2.7 7.3 -4.2
v 2.7 7.3 -4.3
v 2.7 7.3 -4.4
v 2.7 7.3 -4.7
v 2.7 7.3 -4.8
v 2.7 7.3 -4.9
v 2.7 7.5 -4.3
v 2.7 7.5 -4.4
v 2.7 7.5 -4.7
v 2.7 7.5 -4.8
v 2.7 7.6 -4.4
v 2.7 7.6 -4.5
v 2.7 7.7 -4.7
v 2.7 7.7 -4.9
v 2.7 7.8 -4.5
v 2.7 7.8 -4.6
v 2.7 7.8 -4.9
v 2.7 7.8 -5
v 2.7 7.9 -4.6
v 2.7 7.9 -4.8
v 2.7 7.9 -5
v 2.7 7.9 -5.1
v 2.7 8 -4.8
v 2.7 8 -4.9
v 2.7 8.1 -4.9
v 2.7 8.1 -5.1
v 2.8 6 -3.3
v 2.8 6 -3.4
v 2.8 6.1 -3.3
v 2.8 6.1 -3.4
v 2.9 6.2 -3.5
v 2.9 6.2 -3.6
v 2.9 6.4 -3.5
v 2.9 6.4 -3.6
v 2.9 6.5 -3.5
v 2.9 6.5 -3.6
v 3 4.5 -4.2
v 3 4.5 -4.3
v 3 4.6 -4.2
v 3 4.6 -4.3
v 3.1 4.4 -4.2
v 3.1 4.4 -4.3
v 3.1 4.5 -4.2
v 3.1 4.5 -4.3
v 3.2 2 -3.6
v 3.2 2 -5
v 3.2 2.2 -3.6
v 3.2 2.2 -4.2
v 3.2 2.7 -4.2
v 3.2 2.7 -5
v 3.2 4.3 -4.2
v 3.2 4.3 -4.3
v 3.2 4.4 -4.2
v 3.2 4.4 -4.3
v 3.3 2.2 -3.7
v 3.3 2.2 -4.2
v 3.3 2.3 -3.7
v 3.3 2.3 -4.2
v 3.3 2.7 -4.3
v 3.3 2.7 -4.9
v 3.3 3.9 -4.3
v 3.3 3.9 -4.9
v 3.3 6.2 -3.6
v 3.3 6.2 -3.7
v 3.3 6.4 -3.6
v 3.3 6.4 -3.7
v 3.4 2.3 -3.8
v 3.4 2.3 -4.2
v 3.4 2.4 -3.8
v 3.4 2.4 -4.2
v 4 4.2 -4.3
v 4 4.2 -4.9
v 4 4.3 -4.3
v 4 4.3 -4.9
v 4 5.1 -4.3
v 4 5.1 -4.9
v 4.1 4 -4.4
v 4.1 4 -4.7
v 4.1 4.2 -4.4
v 4.1 4.2 -4.7
v 1.6 4 -4.4
v 1.6 4 -4.8
v 1.6 4.2 -4.4
v 1.6 4.2 -4.8
v 1.7 4.2 -4.3
v 1.7 4.2 -4.9
v 1.7 4.3 -4.3
v 1.7 4.3 -4.9
v 1.7 5.1 -4.3
v 1.7 5.1 -4.9
v 2.3 2.3 -3.8
v 2.3 2.3 -4.2
v 2.3 2.4 -3.8
v 2.3 2.4 -4.2
v 2.4 2.2 -3.7
v 2.4 2.2 -4.2
v 2.4 2.3 -3.7
v 2.4 2.3 -4.2
v 2.4 2.7 -4.3
v 2.4 2.7 -4.9
v 2.4 3.9 -4.3
v 2.4 3.9 -4.9
v 2.5 2 -3.6
v 2.5 2 -5
v 2.5 2.2 -3.6
v 2.5 2.2 -4.2
v 2.5 2.7 -4.2
v 2.5 2.7 -5
v 2.5 4.3 -4.2
v 2.5 4.3 -4.3
v 2.5 4.6 -4.2
v 2.5 4.6 -4.3
v 2.8 4.3 -4.2
v 2.8 4.3 -4.3
v 2.8 4.6 -4.2
v 2.8 4.6 -4.3
v 2.8 6.2 -3.5
v 2.8 6.2 -3.6
v 2.8 6.4 -3.5
v 2.8 6.4 -3.6
v 2.8 6.5 -3.5
v 2.8 6.5 -3.6
v 2.9 6 -3.3
v 2.9 6 -3.4
v 2.9 6.1 -3.3
v 2.9 6.1 -3.4
v 3 4.6 -4.2
v 3 4.6 -4.3
v 3 4.7 -4.2
v 3 4.7 -4.3
v 3 6 -3.4
v 3 6 -3.5
v 3 6 -3.6
v 3 6.1 -3.5
v 3 6.1 -3.6
v 3 6.2 -3.4
v 3 6.2 -3.5
v 3 7.1 -4.2
v 3 7.1 -4.3
v 3 7.1 -4.8
v 3 7.1 -4.9
v 3 7.3 -4.2
v 3 7.3 -4.3
v 3 7.3 -4.4
v 3 7.3 -4.7
v 3 7.3 -4.8
v 3 7.3 -4.9
v 3 7.5 -4.3
v 3 7.5 -4.4
v 3 7.5 -4.7
v 3 7.5 -4.8
v 3 7.6 -4.4
v 3 7.6 -4.5
v 3 7.7 -4.7
v 3 7.7 -4.9
v 3 7.8 -4.5
v 3 7.8 -4.6
v 3 7.8 -4.9
v 3 7.8 -5
v 3 7.9 -4.6
v 3 7.9 -4.8
v 3 7.9 -5
v 3 7.9 -5.1
v 3 8 -4.8
v 3 8 -4.9
v 3 8.1 -4.9
v 3 8.1 -5.1
v 3.1 4.5 -4.2
v 3.1 4.5 -4.3
v 3.1 4.6 -4.2
v 3.1 4.6 -4.3
v 3.1 6.6 -3.7
v 3.1 6.6 -3.8
v 3.1 6.6 -5.3
v 3.1 6.6 -5.4
v 3.1 6.7 -3.7
v 3.1 6.7 -3.8
v 3.1 6.7 -3.9
v 3.1 6.7 -5.2
v 3.1 6.7 -5.3
v 3.1 6.7 -5.4
v 3.1 6.8 -3.8
v 3.1 6.8 -3.9
v 3.1 6.8 -4
v 3.1 6.8 -5.1
v 3.1 6.8 -5.2
v 3.1 6.8 -5.3
v 3.1 6.9 -3.9
v 3.1 6.9 -4
v 3.1 6.9 -4.1
v 3.1 6.9 -5
v 3.1 6.9 -5.1
v 3.1 6.9 -5.2
v 3.1 7 -4
v 3.1 7 -4.1
v 3.1 7 -4.2
v 3.1 7 -4.9
v 3.1 7 -5
v 3.1 7 -5.1
v 3.1 7.1 -4.1
v 3.1 7.1 -4.2
v 3.1 7.1 -4.3
v 3.1 7.1 -4.4
v 3.1 7.1 -4.7
v 3.1 7.1 -4.8
v 3.1 7.1 -4.9
v 3.1 7.1 -5
v 3.1 7.3 -4.3
v 3.1 7.3 -4.4
v 3.1 7.3 -4.7
v 3.1 7.3 -4.8
v 3.1 7.5 -4.4
v 3.1 7.5 -4.7
v 3.2 4.4 -4.2
v 3.2 4.4 -4.3
v 3.2 4.5 -4.2
v 3.2 4.5 -4.3
v 3.2 5.5 -3.6
v 3.2 5.5 -4.3
v 3.2 5.6 -3.5
v 3.2 5.6 -3.6
v 3.2 5.6 -4.3
v 3.2 5.7 -5.4
v 3.2 5.7 -5.5
v 3.2 6 -3.5
v 3.2 6 -3.6
v 3.2 6 -3.7
v 3.2 6.1 -3.5
v 3.2 6.1 -3.6
v 3.2 6.4 -3.5
v 3.2 6.4 -3.6
v 3.2 6.4 -3.7
v 3.2 6.5 -3.6
v 3.2 6.5 -3.7
v 3.2 6.6 -3.6
v 3.2 6.6 -3.7
v 3.2 6.6 -5.4
v 3.2 6.6 -5.5
v 3.2 6.9 -4.1
v 3.2 6.9 -4.2
v 3.2 6.9 -4.9
v 3.2 6.9 -5
v 3.2 7 -4.1
v 3.2 7 -4.2
v 3.2 7 -4.3
v 3.2 7 -4.8
v 3.2 7 -4.9
v 3.2 7 -5
v 3.2 7.1 -4.2
v 3.2 7.1 -4.3
v 3.2 7.1 -4.4
v 3.2 7.1 -4.7
v 3.2 7.1 -4.8
v 3.2 7.1 -4.9
v 3.2 7.3 -4.4
v 3.2 7.3 -4.7
v 3.3 4.2 -4.2
v 3.3 4.2 -4.3
v 3.3 4.3 -4.3
v 3.3 4.4 -4.2
v 3.3 4.4 -4.3
v 3.3 5.6 -3.6
v 3.3 5.6 -4.3
v 3.3 5.7 -3.6
v 3.3 5.7 -4.3
v 3.3 6.4 -3.5
v 3.3 6.4 -3.6
v 3.3 6.5 -3.5
v 3.3 6.5 -3.6
v 3.3 6.6 -3.8
v 3.3 6.6 -3.9
v 3.3 6.6 -5.2
v 3.3 6.6 -5.3
v 3.3 6.7 -3.8
v 3.3 6.7 -3.9
v 3.3 6.7 -4
v 3.3 6.7 -5.1
v 3.3 6.7 -5.2
v 3.3 6.7 -5.3
v 3.3 6.8 -3.9
v 3.3 6.8 -4
v 3.3 6.8 -4.1
v 3.3 6.8 -5
v 3.3 6.8 -5.1
v 3.3 6.8 -5.2
v 3.3 6.9 -4
v 3.3 6.9 -4.1
v 3.3 6.9 -4.2
v 3.3 6.9 -4.3
v 3.3 6.9 -4.8
v 3.3 6.9 -4.9
v 3.3 6.9 -5
v 3.3 6.9 -5.1
v 3.3 7 -4.2
v 3.3 7 -4.3
v 3.3 7 -4.8
v 3.3 7 -4.9
v 3.3 7.1 -4.3
v 3.3 7.1 -4.8
v 3.4 5.5 -5.1
v 3.4 5.5 -5.2
v 3.4 5.6 -5.1
v 3.4 5.6 -5.2
v 3.4 5.7 -3.6
v 3.4 5.7 -3.7
v 3.4 5.7 -5.3
v 3.4 5.7 -5.4
v 3.4 6 -3.6
v 3.4 6 -3.7
v 3.4 6 -3.8
v 3.4 6.1 -3.7
v 3.4 6.1 -3.8
v 3.4 6.2 -3.6
v 3.4 6.2 -3.7
v 3.4 6.5 -3.6
v 3.4 6.5 -3.7
v 3.4 6.5 -3.8
v 3.4 6.6 -3.7
v 3.4 6.6 -3.8
v 3.4 6.6 -5.3
v 3.4 6.6 -5.4
v 3.4 6.7 -4
v 3.4 6.7 -4.1
v 3.4 6.7 -5
v 3.4 6.7 -5.1
v 3.4 6.8 -4
v 3.4 6.8 -4.1
v 3.4 6.8 -4.3
v 3.4 6.8 -4.8
v 3.4 6.8 -5
v 3.4 6.8 -5.1
v 3.4 6.9 -4.1
v 3.4 6.9 -4.3
v 3.4 6.9 -4.8
v 3.4 6.9 -5
v 3.4 7 -4.3
v 3.4 7 -4.8
v 3.5 5.5 -4.9
v 3.5 5.5 -5.1
v 3.5 5.6 -4.9
v 3.5 5.6 -5.1
v 3.5 5.6 -5.3
v 3.5 5.7 -5.1
v 3.5 5.7 -5.2
v 3.5 5.7 -5.3
v 3.5 5.8 -3.7
v 3.5 5.8 -3.8
v 3.5 6 -3.7
v 3.5 6 -3.8
v 3.5 6.1 -3.7
v 3.5 6.1 -3.8
v 3.5 6.5 -3.7
v 3.5 6.5 -3.8
v 3.5 6.5 -3.9
v 3.5 6.6 -3.8
v 3.5 6.6 -3.9
v 3.5 6.6 -4.1
v 3.5 6.6 -5
v 3.5 6.6 -5.2
v 3.5 6.6 -5.3
v 3.5 6.7 -3.9
v 3.5 6.7 -4.1
v 3.5 6.7 -4.3
v 3.5 6.7 -4.8
v 3.5 6.7 -5
v 3.5 6.7 -5.2
v 3.5 6.8 -4.1
v 3.5 6.8 -4.3
v 3.5 6.8 -4.8
v 3.5 6.8 -5
v 3.5 6.9 -4.3
v 3.5 6.9 -4.8
v 3.6 5.6 -4.9
v 3.6 5.6 -5.1
v 3.6 5.7 -3.7
v 3.6 5.7 -3.9
v 3.6 5.7 -4.9
v 3.6 5.7 -5.1
v 3.6 5.7 -5.2
v 3.6 5.8 -3.7
v 3.6 5.8 -3.8
v 3.6 6.5 -3.8
v 3.6 6.5 -3.9
v 3.6 6.5 -4
v 3.6 6.6 -3.9
v 3.6 6.6 -4
v 3.6 6.6 -4.1
v 3.6 6.6 -4.3
v 3.6 6.6 -4.8
v 3.6 6.6 -5
v 3.6 6.6 -5.1
v 3.6 6.6 -5.2
v 3.6 6.7 -4.1
v 3.6 6.7 -4.3
v 3.6 6.7 -4.8
v 3.6 6.7 -5
v 3.6 6.8 -4.3
v 3.6 6.8 -4.8
v 3.7 2.3 -3.8
v 3.7 2.3 -4.2
v 3.7 2.4 -3.8
v 3.7 2.4 -4.2
v 3.7 5.7 -3.9
v 3.7 5.7 -4
v 3.7 5.7 -4.9
v 3.7 5.7 -5.1
v 3.7 6.3 -4
v 3.7 6.3 -4.2
v 3.7 6.3 -4.9
v 3.7 6.5 -3.9
v 3.7 6.5 -4
v 3.7 6.6 -4
v 3.7 6.6 -4.2
v 3.7 6.6 -4.3
v 3.7 6.6 -4.8
v 3.7 6.6 -4.9
v 3.7 6.6 -5.1
v 3.7 6.7 -4.3
v 3.7 6.7 -4.8
v 3.8 2.2 -3.7
v 3.8 2.2 -4.2
v 3.8 2.3 -3.7
v 3.8 2.3 -4.2
v 3.8 2.7 -4.3
v 3.8 2.7 -4.9
v 3.8 4.3 -4.3
v 3.8 4.3 -4.9
v 3.8 4.6 -4.3
v 3.8 4.6 -4.4
v 3.8 4.6 -4.8
v 3.8 4.6 -4.9
v 3.8 5.1 -4.3
v 3.8 5.1 -4.4
v 3.8 5.1 -4.8
v 3.8 5.1 -4.9
v 3.8 5.7 -4
v 3.8 5.7 -4.3
v 3.8 5.7 -4.9
v 3.8 6.3 -4
v 3.8 6.3 -4.2
v 3.8 6.3 -4.9
v 3.8 6.6 -4.2
v 3.8 6.6 -4.9
v 3.9 2 -3.6
v 3.9 2 -5
v 3.9 2.2 -3.6
v 3.9 2.2 -4.2
v 3.9 2.7 -4.2
v 3.9 2.7 -5
v 4.4 4 -4.4
v 4.4 4 -4.7
v 4.4 4.2 -4.4
v 4.4 4.2 -4.7
v 4.5 4.2 -4.3
v 4.5 4.2 -4.9
v 4.5 4.3 -4.3
v 4.5 4.3 -4.9
v 4.5 5.7 -4.3
v 4.5 5.7 -4.9
v 2.8 6 -3.3
v 2.8 6.1 -3.3
v 2.9 6 -3.3
v 2.9 6.1 -3.3
v 2.7 6 -3.4
v 2.7 6.2 -3.4
v 2.8 6 -3.4
v 2.8 6.1 -3.4
v 2.9 6 -3.4
v 2.9 6.1 -3.4
v 3 6 -3.4
v 3 6.2 -3.4
v 2.4 6.4 -3.5
v 2.4 6.5 -3.5
v 2.5 5.6 -3.5
v 2.5 6 -3.5
v 2.5 6.1 -3.5
v 2.5 6.4 -3.5
v 2.6 5.8 -3.5
v 2.6 5.9 -3.5
v 2.6 6.2 -3.5
v 2.6 6.4 -3.5
v 2.7 6 -3.5
v 2.7 6.1 -3.5
v 2.7 6.2 -3.5
v 2.7 6.4 -3.5
v 2.8 6 -3.5
v 2.8 6.2 -3.5
v 2.8 6.4 -3.5
v 2.8 6.5 -3.5
v 2.9 6 -3.5
v 2.9 6.2 -3.5
v 2.9 6.4 -3.5
v 2.9 6.5 -3.5
v 3 6 -3.5
v 3 6.1 -3.5
v 3 6.2 -3.5
v 3 6.4 -3.5
v 3.1 5.8 -3.5
v 3.1 5.9 -3.5
v 3.1 6.2 -3.5
v 3.1 6.4 -3.5
v 3.2 5.6 -3.5
v 3.2 6 -3.5
v 3.2 6.1 -3.5
v 3.2 6.4 -3.5
v 3.3 6.4 -3.5
v 3.3 6.5 -3.5
v 1.8 2 -3.6
v 1.8 2.2 -3.6
v 2.3 5.7 -3.6
v 2.3 6 -3.6
v 2.3 6.4 -3.6
v 2.3 6.5 -3.6
v 2.4 5.6 -3.6
v 2.4 5.7 -3.6
v 2.4 6.4 -3.6
v 2.4 6.5 -3.6
v 2.5 2 -3.6
v 2.5 2.2 -3.6
v 2.5 5.5 -3.6
v 2.5 5.6 -3.6
v 2.5 6 -3.6
v 2.5 6.1 -3.6
v 2.5 6.5 -3.6
v 2.5 6.6 -3.6
v 2.7 6 -3.6
v 2.7 6.1 -3.6
v 2.8 6.2 -3.6
v 2.8 6.4 -3.6
v 2.8 6.5 -3.6
v 2.9 6.2 -3.6
v 2.9 6.4 -3.6
v 2.9 6.5 -3.6
v 3 6 -3.6
v 3 6.1 -3.6
v 3.2 2 -3.6
v 3.2 2.2 -3.6
v 3.2 5.5 -3.6
v 3.2 5.6 -3.6
v 3.2 6 -3.6
v 3.2 6.1 -3.6
v 3.2 6.5 -3.6
v 3.2 6.6 -3.6
v 3.3 5.6 -3.6
v 3.3 5.7 -3.6
v 3.3 6.2 -3.6
v 3.3 6.4 -3.6
v 3.3 6.5 -3.6
v 3.4 5.7 -3.6
v 3.4 6 -3.6
v 3.4 6.2 -3.6
v 3.4 6.5 -3.6
v 3.9 2 -3.6
v 3.9 2.2 -3.6
v 1.9 2.2 -3.7
v 1.9 2.3 -3.7
v 2.2 5.7 -3.7
v 2.2 6 -3.7
v 2.2 6.2 -3.7
v 2.2 6.5 -3.7
v 2.3 5.7 -3.7
v 2.3 6 -3.7
v 2.3 6.2 -3.7
v 2.3 6.4 -3.7
v 2.3 6.5 -3.7
v 2.3 6.6 -3.7
v 2.4 2.2 -3.7
v 2.4 2.3 -3.7
v 2.4 6.4 -3.7
v 2.4 6.5 -3.7
v 2.5 6 -3.7
v 2.5 6.4 -3.7
v 2.5 6.5 -3.7
v 2.5 6.6 -3.7
v 2.6 6.6 -3.7
v 2.6 6.7 -3.7
v 3.1 6.6 -3.7
v 3.1 6.7 -3.7
v 3.2 6 -3.7
v 3.2 6.4 -3.7
v 3.2 6.5 -3.7
v 3.2 6.6 -3.7
v 3.3 2.2 -3.7
v 3.3 2.3 -3.7
v 3.3 6 -3.7
v 3.3 6.2 -3.7
v 3.3 6.4 -3.7
v 3.3 6.5 -3.7
v 3.4 5.7 -3.7
v 3.4 6 -3.7
v 3.4 6.1 -3.7
v 3.4 6.2 -3.7
v 3.4 6.5 -3.7
v 3.4 6.6 -3.7
v 3.5 5.8 -3.7
v 3.5 6 -3.7
v 3.5 6.1 -3.7
v 3.5 6.5 -3.7
v 3.6 5.7 -3.7
v 3.6 5.8 -3.7
v 3.8 2.2 -3.7
v 3.8 2.3 -3.7
v 2 2.3 -3.8
v 2 2.4 -3.8
v 2.1 5.7 -3.8
v 2.1 6 -3.8
v 2.1 6.1 -3.8
v 2.1 6.5 -3.8
v 2.2 5.7 -3.8
v 2.2 6 -3.8
v 2.2 6.1 -3.8
v 2.2 6.2 -3.8
v 2.2 6.5 -3.8
v 2.2 6.6 -3.8
v 2.3 2.3 -3.8
v 2.3 2.4 -3.8
v 2.3 6 -3.8
v 2.3 6.2 -3.8
v 2.3 6.5 -3.8
v 2.3 6.6 -3.8
v 2.4 6.6 -3.8
v 2.4 6.7 -3.8
v 2.6 6.6 -3.8
v 2.6 6.7 -3.8
v 2.6 6.8 -3.8
v 3.1 6.6 -3.8
v 3.1 6.7 -3.8
v 3.1 6.8 -3.8
v 3.3 6.6 -3.8
v 3.3 6.7 -3.8
v 3.4 2.3 -3.8
v 3.4 2.4 -3.8
v 3.4 6 -3.8
v 3.4 6.1 -3.8
v 3.4 6.5 -3.8
v 3.4 6.6 -3.8
v 3.5 5.8 -3.8
v 3.5 6 -3.8
v 3.5 6.1 -3.8
v 3.5 6.5 -3.8
v 3.5 6.6 -3.8
v 3.6 5.8 -3.8
v 3.6 6.5 -3.8
v 3.7 2.3 -3.8
v 3.7 2.4 -3.8
v 1.9 5.7 -3.9
v 1.9 5.8 -3.9
v 2 5.8 -3.9
v 2 6 -3.9
v 2 6.1 -3.9
v 2 6.5 -3.9
v 2.1 5.7 -3.9
v 2.1 6 -3.9
v 2.1 6.1 -3.9
v 2.1 6.5 -3.9
v 2.1 6.6 -3.9
v 2.2 6 -3.9
v 2.2 6.1 -3.9
v 2.2 6.5 -3.9
v 2.2 6.6 -3.9
v 2.2 6.7 -3.9
v 2.4 6.6 -3.9
v 2.4 6.7 -3.9
v 2.4 6.8 -3.9
v 2.6 6.7 -3.9
v 2.6 6.8 -3.9
v 2.6 6.9 -3.9
v 3.1 6.7 -3.9
v 3.1 6.8 -3.9
v 3.1 6.9 -3.9
v 3.3 6.6 -3.9
v 3.3 6.7 -3.9
v 3.3 6.8 -3.9
v 3.5 6.5 -3.9
v 3.5 6.6 -3.9
v 3.5 6.7 -3.9
v 3.6 5.7 -3.9
v 3.6 6.5 -3.9
v 3.6 6.6 -3.9
v 3.7 5.7 -3.9
v 3.7 6.5 -3.9
v 1.9 5.8 -4
v 1.9 6.3 -4
v 2 5.8 -4
v 2 6 -4
v 2 6.1 -4
v 2 6.3 -4
v 2 6.5 -4
v 2 6.6 -4
v 2.1 6 -4
v 2.1 6.1 -4
v 2.1 6.5 -4
v 2.1 6.6 -4
v 2.3 6.7 -4
v 2.3 6.8 -4
v 2.4 6.7 -4
v 2.4 6.8 -4
v 2.4 6.9 -4
v 2.6 6.8 -4
v 2.6 6.9 -4
v 2.6 7 -4
v 3.1 6.8 -4
v 3.1 6.9 -4
v 3.1 7 -4
v 3.3 6.7 -4
v 3.3 6.8 -4
v 3.3 6.9 -4
v 3.4 6.7 -4
v 3.4 6.8 -4
v 3.6 6.5 -4
v 3.6 6.6 -4
v 3.7 5.7 -4
v 3.7 6.3 -4
v 3.7 6.5 -4
v 3.7 6.6 -4
v 3.8 5.7 -4
v 3.8 6.3 -4
v 2.1 6.6 -4.1
v 2.1 6.7 -4.1
v 2.2 6.6 -4.1
v 2.2 6.7 -4.1
v 2.2 6.8 -4.1
v 2.3 6.7 -4.1
v 2.3 6.8 -4.1
v 2.3 6.9 -4.1
v 2.4 6.8 -4.1
v 2.4 6.9 -4.1
v 2.5 6.9 -4.1
v 2.5 7 -4.1
v 2.6 6.9 -4.1
v 2.6 7 -4.1
v 2.6 7.1 -4.1
v 3.1 6.9 -4.1
v 3.1 7 -4.1
v 3.1 7.1 -4.1
v 3.2 6.9 -4.1
v 3.2 7 -4.1
v 3.3 6.8 -4.1
v 3.3 6.9 -4.1
v 3.4 6.7 -4.1
v 3.4 6.8 -4.1
v 3.4 6.9 -4.1
v 3.5 6.6 -4.1
v 3.5 6.7 -4.1
v 3.5 6.8 -4.1
v 3.6 6.6 -4.1
v 3.6 6.7 -4.1
v 1.8 2.2 -4.2
v 1.8 2.7 -4.2
v 1.8 5.7 -4.2
v 1.8 6.3 -4.2
v 1.9 2.2 -4.2
v 1.9 2.3 -4.2
v 1.9 5.7 -4.2
v 1.9 6.3 -4.2
v 1.9 6.6 -4.2
v 2 2.3 -4.2
v 2 2.4 -4.2
v 2 6.3 -4.2
v 2 6.6 -4.2
v 2.3 2.3 -4.2
v 2.3 2.4 -4.2
v 2.4 2.2 -4.2
v 2.4 2.3 -4.2
v 2.4 4.2 -4.2
v 2.4 4.7 -4.2
v 2.4 6.9 -4.2
v 2.4 7 -4.2
v 2.5 2.2 -4.2
v 2.5 2.7 -4.2
v 2.5 4.3 -4.2
v 2.5 4.6 -4.2
v 2.5 6.9 -4.2
v 2.5 7 -4.2
v 2.5 7.1 -4.2
v 2.6 7 -4.2
v 2.6 7.1 -4.2
v 2.7 4.3 -4.2
v 2.7 4.6 -4.2
v 2.7 7.1 -4.2
v 2.7 7.3 -4.2
v 2.8 4.3 -4.2
v 2.8 4.6 -4.2
v 3 4.5 -4.2
v 3 4.6 -4.2
v 3 4.7 -4.2
v 3 7.1 -4.2
v 3 7.3 -4.2
v 3.1 4.4 -4.2
v 3.1 4.5 -4.2
v 3.1 4.6 -4.2
v 3.1 7 -4.2
v 3.1 7.1 -4.2
v 3.2 2.2 -4.2
v 3.2 2.7 -4.2
v 3.2 4.3 -4.2
v 3.2 4.4 -4.2
v 3.2 4.5 -4.2
v 3.2 6.9 -4.2
v 3.2 7 -4.2
v 3.2 7.1 -4.2
v 3.3 2.2 -4.2
v 3.3 2.3 -4.2
v 3.3 4.2 -4.2
v 3.3 4.4 -4.2
v 3.3 6.9 -4.2
v 3.3 7 -4.2
v 3.4 2.3 -4.2
v 3.4 2.4 -4.2
v 3.7 2.3 -4.2
v 3.7 2.4 -4.2
v 3.7 6.3 -4.2
v 3.7 6.6 -4.2
v 3.8 2.2 -4.2
v 3.8 2.3 -4.2
v 3.8 6.3 -4.2
v 3.8 6.6 -4.2
v 3.9 2.2 -4.2
v 3.9 2.7 -4.2
v 1.2 4.2 -4.3
v 1.2 4.3 -4.3
v 1.2 5.7 -4.3
v 1.7 4.2 -4.3
v 1.7 4.3 -4.3
v 1.7 5.1 -4.3
v 1.8 5.7 -4.3
v 1.9 2.7 -4.3
v 1.9 4.3 -4.3
v 1.9 4.6 -4.3
v 1.9 5.1 -4.3
v 2 5.6 -4.3
v 2 5.7 -4.3
v 2 6.6 -4.3
v 2 6.7 -4.3
v 2.1 5.5 -4.3
v 2.1 5.6 -4.3
v 2.1 6.6 -4.3
v 2.1 6.7 -4.3
v 2.1 6.8 -4.3
v 2.2 5.4 -4.3
v 2.2 5.5 -4.3
v 2.2 5.7 -4.3
v 2.2 6.7 -4.3
v 2.2 6.8 -4.3
v 2.2 6.9 -4.3
v 2.3 5.6 -4.3
v 2.3 5.7 -4.3
v 2.3 6.8 -4.3
v 2.3 6.9 -4.3
v 2.3 7 -4.3
v 2.4 2.7 -4.3
v 2.4 3.9 -4.3
v 2.4 4.2 -4.3
v 2.4 4.3 -4.3
v 2.4 4.6 -4.3
v 2.4 4.7 -4.3
v 2.4 5.3 -4.3
v 2.4 5.4 -4.3
v 2.4 5.5 -4.3
v 2.4 5.6 -4.3
v 2.4 5.7 -4.3
v 2.4 6.9 -4.3
v 2.4 7 -4.3
v 2.4 7.1 -4.3
v 2.5 4.3 -4.3
v 2.5 4.6 -4.3
v 2.5 5.2 -4.3
v 2.5 5.3 -4.3
v 2.5 5.5 -4.3
v 2.5 5.6 -4.3
v 2.5 7 -4.3
v 2.5 7.1 -4.3
v 2.6 5.3 -4.3
v 2.6 5.4 -4.3
v 2.6 7.1 -4.3
v 2.6 7.3 -4.3
v 2.7 4.3 -4.3
v 2.7 4.6 -4.3
v 2.7 5.4 -4.3
v 2.7 5.5 -4.3
v 2.7 7.1 -4.3
v 2.7 7.3 -4.3
v 2.7 7.5 -4.3
v 2.8 4.3 -4.3
v 2.8 4.6 -4.3
v 2.8 5.4 -4.3
v 2.8 5.5 -4.3
v 2.9 5.4 -4.3
v 2.9 5.5 -4.3
v 3 4.5 -4.3
v 3 4.6 -4.3
v 3 4.7 -4.3
v 3 5.3 -4.3
v 3 5.4 -4.3
v 3 5.5 -4.3
v 3 7.1 -4.3
v 3 7.3 -4.3
v 3 7.5 -4.3
v 3.1 4.4 -4.3
v 3.1 4.5 -4.3
v 3.1 4.6 -4.3
v 3.1 5.2 -4.3
v 3.1 5.3 -4.3
v 3.1 7.1 -4.3
v 3.1 7.3 -4.3
v 3.2 4.3 -4.3
v 3.2 4.4 -4.3
v 3.2 4.5 -4.3
v 3.2 5.3 -4.3
v 3.2 5.4 -4.3
v 3.2 5.5 -4.3
v 3.2 5.6 -4.3
v 3.2 7 -4.3
v 3.2 7.1 -4.3
v 3.3 2.7 -4.3
v 3.3 3.9 -4.3
v 3.3 4.2 -4.3
v 3.3 4.3 -4.3
v 3.3 4.4 -4.3
v 3.3 5.6 -4.3
v 3.3 5.7 -4.3
v 3.3 6.9 -4.3
v 3.3 7 -4.3
v 3.3 7.1 -4.3
v 3.4 5.4 -4.3
v 3.4 5.5 -4.3
v 3.4 5.6 -4.3
v 3.4 5.7 -4.3
v 3.4 6.8 -4.3
v 3.4 6.9 -4.3
v 3.4 7 -4.3
v 3.5 5.5 -4.3
v 3.5 5.6 -4.3
v 3.5 5.7 -4.3
v 3.5 6.7 -4.3
v 3.5 6.8 -4.3
v 3.5 6.9 -4.3
v 3.6 5.6 -4.3
v 3.6 5.7 -4.3
v 3.6 6.6 -4.3
v 3.6 6.7 -4.3
v 3.6 6.8 -4.3
v 3.7 6.6 -4.3
v 3.7 6.7 -4.3
v 3.8 2.7 -4.3
v 3.8 4.3 -4.3
v 3.8 4.6 -4.3
v 3.8 5.1 -4.3
v 3.8 5.7 -4.3
v 4 4.2 -4.3
v 4 4.3 -4.3
v 4 5.1 -4.3
v 4.5 4.2 -4.3
v 4.5 4.3 -4.3
v 4.5 5.7 -4.3
v 1.3 4 -4.4
v 1.3 4.2 -4.4
v 1.6 4 -4.4
v 1.6 4.2 -4.4
v 2.5 7.1 -4.4
v 2.5 7.3 -4.4
v 2.6 7.1 -4.4
v 2.6 7.3 -4.4
v 2.6 7.5 -4.4
v 2.7 7.3 -4.4
v 2.7 7.5 -4.4
v 2.7 7.6 -4.4
v 3 7.3 -4.4
v 3 7.5 -4.4
v 3 7.6 -4.4
v 3.1 7.1 -4.4
v 3.1 7.3 -4.4
v 3.1 7.5 -4.4
v 3.2 7.1 -4.4
v 3.2 7.3 -4.4
v 4.1 4 -4.4
v 4.1 4.2 -4.4
v 4.4 4 -4.4
v 4.4 4.2 -4.4
v 2.7 7.6 -4.5
v 2.7 7.8 -4.5
v 3 7.6 -4.5
v 3 7.8 -4.5
v 2.7 7.8 -4.6
v 2.7 7.9 -4.6
v 3 7.8 -4.6
v 3 7.9 -4.6
v 2.7 7.9 -4.8
v 2.7 8 -4.8
v 3 7.9 -4.8
v 3 8 -4.8
v 2.7 8 -4.9
v 2.7 8.1 -4.9
v 3 8 -4.9
v 3 8.1 -4.9
v 2.5 7.1 -4.7
v 2.5 7.3 -4.7
v 2.6 7.1 -4.7
v 2.6 7.3 -4.7
v 2.6 7.5 -4.7
v 2.7 7.3 -4.7
v 2.7 7.5 -4.7
v 2.7 7.7 -4.7
v 3 7.3 -4.7
v 3 7.5 -4.7
v 3 7.7 -4.7
v 3.1 7.1 -4.7
v 3.1 7.3 -4.7
v 3.1 7.5 -4.7
v 3.2 7.1 -4.7
v 3.2 7.3 -4.7
v 4.1 4 -4.7
v 4.1 4.2 -4.7
v 4.4 4 -4.7
v 4.4 4.2 -4.7
v 1.3 4 -4.8
v 1.3 4.2 -4.8
v 1.6 4 -4.8
v 1.6 4.2 -4.8
v 2 6.6 -4.8
v 2 6.7 -4.8
v 2.1 6.6 -4.8
v 2.1 6.7 -4.8
v 2.1 6.8 -4.8
v 2.2 6.7 -4.8
v 2.2 6.8 -4.8
v 2.2 6.9 -4.8
v 2.3 6.8 -4.8
v 2.3 6.9 -4.8
v 2.3 7 -4.8
v 2.4 6.9 -4.8
v 2.4 7 -4.8
v 2.4 7.1 -4.8
v 2.5 7 -4.8
v 2.5 7.1 -4.8
v 2.6 7.1 -4.8
v 2.6 7.3 -4.8
v 2.7 7.1 -4.8
v 2.7 7.3 -4.8
v 2.7 7.5 -4.8
v 3 7.1 -4.8
v 3 7.3 -4.8
v 3 7.5 -4.8
v 3.1 7.1 -4.8
v 3.1 7.3 -4.8
v 3.2 7 -4.8
v 3.2 7.1 -4.8
v 3.3 6.9 -4.8
v 3.3 7 -4.8
v 3.3 7.1 -4.8
v 3.4 6.8 -4.8
v 3.4 6.9 -4.8
v 3.4 7 -4.8
v 3.5 6.7 -4.8
v 3.5 6.8 -4.8
v 3.5 6.9 -4.8
v 3.6 6.6 -4.8
v 3.6 6.7 -4.8
v 3.6 6.8 -4.8
v 3.7 6.6 -4.8
v 3.7 6.7 -4.8
v 1.2 4.2 -4.9
v 1.2 4.3 -4.9
v 1.2 5.7 -4.9
v 1.7 4.2 -4.9
v 1.7 4.3 -4.9
v 1.7 5.1 -4.9
v 1.8 5.7 -4.9
v 1.8 6.3 -4.9
v 1.9 2.7 -4.9
v 1.9 4.3 -4.9
v 1.9 4.6 -4.9
v 1.9 5.1 -4.9
v 1.9 5.7 -4.9
v 1.9 6.3 -4.9
v 1.9 6.6 -4.9
v 2 5.7 -4.9
v 2 6.6 -4.9
v 2.1 5.6 -4.9
v 2.1 5.7 -4.9
v 2.2 5.5 -4.9
v 2.2 5.6 -4.9
v 2.4 2.7 -4.9
v 2.4 3.9 -4.9
v 2.4 6.9 -4.9
v 2.4 7 -4.9
v 2.5 6.9 -4.9
v 2.5 7 -4.9
v 2.5 7.1 -4.9
v 2.6 7 -4.9
v 2.6 7.1 -4.9
v 2.7 7.1 -4.9
v 2.7 7.3 -4.9
v 2.7 7.7 -4.9
v 2.7 7.8 -4.9
v 3 7.1 -4.9
v 3 7.3 -4.9
v 3 7.7 -4.9
v 3 7.8 -4.9
v 3.1 7 -4.9
v 3.1 7.1 -4.9
v 3.2 6.9 -4.9
v 3.2 7 -4.9
v 3.2 7.1 -4.9
v 3.3 2.7 -4.9
v 3.3 3.9 -4.9
v 3.3 6.9 -4.9
v 3.3 7 -4.9
v 3.5 5.5 -4.9
v 3.5 5.6 -4.9
v 3.6 5.6 -4.9
v 3.6 5.7 -4.9
v 3.7 5.7 -4.9
v 3.7 6.3 -4.9
v 3.7 6.6 -4.9
v 3.8 2.7 -4.9
v 3.8 4.3 -4.9
v 3.8 4.6 -4.9
v 3.8 5.1 -4.9
v 3.8 5.7 -4.9
v 3.8 6.3 -4.9
v 3.8 6.6 -4.9
v 4 4.2 -4.9
v 4 4.3 -4.9
v 4 5.1 -4.9
v 4.5 4.2 -4.9
v 4.5 4.3 -4.9
v 4.5 5.7 -4.9
v 1.8 2 -5
v 1.8 2.7 -5
v 2.1 6.6 -5
v 2.1 6.7 -5
v 2.2 6.6 -5
v 2.2 6.7 -5
v 2.2 6.8 -5
v 2.3 6.7 -5
v 2.3 6.8 -5
v 2.3 6.9 -5
v 2.4 6.8 -5
v 2.4 6.9 -5
v 2.5 2 -5
v 2.5 2.7 -5
v 2.5 6.9 -5
v 2.5 7 -5
v 2.6 6.9 -5
v 2.6 7 -5
v 2.6 7.1 -5
v 2.7 7.8 -5
v 2.7 7.9 -5
v 3 7.8 -5
v 3 7.9 -5
v 3.1 6.9 -5
v 3.1 7 -5
v 3.1 7.1 -5
v 3.2 2 -5
v 3.2 2.7 -5
v 3.2 6.9 -5
v 3.2 7 -5
v 3.3 6.8 -5
v 3.3 6.9 -5
v 3.4 6.7 -5
v 3.4 6.8 -5
v 3.4 6.9 -5
v 3.5 6.6 -5
v 3.5 6.7 -5
v 3.5 6.8 -5
v 3.6 6.6 -5
v 3.6 6.7 -5
v 3.9 2 -5
v 3.9 2.7 -5
v 2 5.7 -5.1
v 2 6.6 -5.1
v 2.1 5.6 -5.1
v 2.1 5.7 -5.1
v 2.1 6.6 -5.1
v 2.2 5.5 -5.1
v 2.2 5.6 -5.1
v 2.3 5.6 -5.1
v 2.3 5.7 -5.1
v 2.3 6.7 -5.1
v 2.3 6.8 -5.1
v 2.4 5.5 -5.1
v 2.4 5.6 -5.1
v 2.4 6.7 -5.1
v 2.4 6.8 -5.1
v 2.4 6.9 -5.1
v 2.6 6.8 -5.1
v 2.6 6.9 -5.1
v 2.6 7 -5.1
v 2.7 7.9 -5.1
v 2.7 8.1 -5.1
v 3 7.9 -5.1
v 3 8.1 -5.1
v 3.1 6.8 -5.1
v 3.1 6.9 -5.1
v 3.1 7 -5.1
v 3.3 6.7 -5.1
v 3.3 6.8 -5.1
v 3.3 6.9 -5.1
v 3.4 5.5 -5.1
v 3.4 5.6 -5.1
v 3.4 6.7 -5.1
v 3.4 6.8 -5.1
v 3.5 5.5 -5.1
v 3.5 5.6 -5.1
v 3.5 5.7 -5.1
v 3.6 5.6 -5.1
v 3.6 5.7 -5.1
v 3.6 6.6 -5.1
v 3.7 5.7 -5.1
v 3.7 6.6 -5.1
v 2.1 5.7 -5.2
v 2.1 6.6 -5.2
v 2.2 5.7 -5.2
v 2.2 6.6 -5.2
v 2.2 6.7 -5.2
v 2.4 5.5 -5.2
v 2.4 5.6 -5.2
v 2.4 6.6 -5.2
v 2.4 6.7 -5.2
v 2.4 6.8 -5.2
v 2.6 6.7 -5.2
v 2.6 6.8 -5.2
v 2.6 6.9 -5.2
v 3.1 6.7 -5.2
v 3.1 6.8 -5.2
v 3.1 6.9 -5.2
v 3.3 6.6 -5.2
v 3.3 6.7 -5.2
v 3.3 6.8 -5.2
v 3.4 5.5 -5.2
v 3.4 5.6 -5.2
v 3.5 5.7 -5.2
v 3.5 6.6 -5.2
v 3.5 6.7 -5.2
v 3.6 5.7 -5.2
v 3.6 6.6 -5.2
v 2.2 5.7 -5.3
v 2.2 6.6 -5.3
v 2.3 5.6 -5.3
v 2.3 5.7 -5.3
v 2.3 6.6 -5.3
v 2.4 6.6 -5.3
v 2.4 6.7 -5.3
v 2.6 6.6 -5.3
v 2.6 6.7 -5.3
v 2.6 6.8 -5.3
v 3.1 6.6 -5.3
v 3.1 6.7 -5.3
v 3.1 6.8 -5.3
v 3.3 6.6 -5.3
v 3.3 6.7 -5.3
v 3.4 5.7 -5.3
v 3.4 6.6 -5.3
v 3.5 5.6 -5.3
v 3.5 5.7 -5.3
v 3.5 6.6 -5.3
v 2.3 5.7 -5.4
v 2.3 6.6 -5.4
v 2.5 5.7 -5.4
v 2.5 6.6 -5.4
v 2.6 6.6 -5.4
v 2.6 6.7 -5.4
v 3.1 6.6 -5.4
v 3.1 6.7 -5.4
v 3.2 5.7 -5.4
v 3.2 6.6 -5.4
v 3.4 5.7 -5.4
v 3.4 6.6 -5.4
v 2.5 5.7 -5.5
v 2.5 6.6 -5.5
v 3.2 5.7 -5.5
v 3.2 6.6 -5.5
v 1.8 2 -3.6
v 2.5 2 -3.6
v 3.2 2 -3.6
v 3.9 2 -3.6
v 1.8 2 -5
v 2.5 2 -5
v 3.2 2 -5
v 3.9 2 -5
v 2.4 3.9 -4.3
v 3.3 3.9 -4.3
v 2.4 3.9 -4.9
v 3.3 3.9 -4.9
v 1.3 4 -4.4
v 1.6 4 -4.4
v 4.1 4 -4.4
v 4.4 4 -4.4
v 4.1 4 -4.7
v 4.4 4 -4.7
v 1.3 4 -4.8
v 1.6 4 -4.8
v 2.4 4.2 -4.2
v 3.3 4.2 -4.2
v 1.2 4.2 -4.3
v 1.7 4.2 -4.3
v 2.4 4.2 -4.3
v 3.3 4.2 -4.3
v 4 4.2 -4.3
v 4.5 4.2 -4.3
v 1.3 4.2 -4.4
v 1.6 4.2 -4.4
v 4.1 4.2 -4.4
v 4.4 4.2 -4.4
v 4.1 4.2 -4.7
v 4.4 4.2 -4.7
v 1.3 4.2 -4.8
v 1.6 4.2 -4.8
v 1.2 4.2 -4.9
v 1.7 4.2 -4.9
v 4 4.2 -4.9
v 4.5 4.2 -4.9
v 3.1 4.4 -4.2
v 3.2 4.4 -4.2
v 3.1 4.4 -4.3
v 3.2 4.4 -4.3
v 3 4.5 -4.2
v 3.1 4.5 -4.2
v 3 4.5 -4.3
v 3.1 4.5 -4.3
v 2.5 4.6 -4.2
v 2.7 4.6 -4.2
v 2.8 4.6 -4.2
v 3 4.6 -4.2
v 2.5 4.6 -4.3
v 2.7 4.6 -4.3
v 2.8 4.6 -4.3
v 3 4.6 -4.3
v 1.7 5.1 -4.3
v 1.9 5.1 -4.3
v 3.8 5.1 -4.3
v 4 5.1 -4.3
v 3.8 5.1 -4.4
v 3.8 5.1 -4.8
v 1.7 5.1 -4.9
v 1.9 5.1 -4.9
v 3.8 5.1 -4.9
v 4 5.1 -4.9
v 2.5 5.5 -3.6
v 3.2 5.5 -3.6
v 2.5 5.5 -4.3
v 2.7 5.5 -4.3
v 2.8 5.5 -4.3
v 2.9 5.5 -4.3
v 3 5.5 -4.3
v 3.2 5.5 -4.3
v 2.2 5.5 -4.9
v 3.5 5.5 -4.9
v 2.2 5.5 -5.1
v 2.4 5.5 -5.1
v 3.4 5.5 -5.1
v 3.5 5.5 -5.1
v 2.4 5.5 -5.2
v 3.4 5.5 -5.2
v 2.5 5.6 -3.5
v 3.2 5.6 -3.5
v 2.4 5.6 -3.6
v 2.5 5.6 -3.6
v 3.2 5.6 -3.6
v 3.3 5.6 -3.6
v 2.4 5.6 -4.3
v 2.5 5.6 -4.3
v 3.2 5.6 -4.3
v 3.3 5.6 -4.3
v 2.1 5.6 -4.9
v 2.2 5.6 -4.9
v 3.5 5.6 -4.9
v 3.6 5.6 -4.9
v 2.1 5.6 -5.1
v 2.2 5.6 -5.1
v 2.3 5.6 -5.1
v 2.4 5.6 -5.1
v 3.4 5.6 -5.1
v 3.5 5.6 -5.1
v 3.6 5.6 -5.1
v 2.4 5.6 -5.2
v 3.4 5.6 -5.2
v 2.3 5.6 -5.3
v 3.5 5.6 -5.3
v 2.3 5.7 -3.6
v 2.4 5.7 -3.6
v 3.3 5.7 -3.6
v 3.4 5.7 -3.6
v 2.2 5.7 -3.7
v 2.3 5.7 -3.7
v 3.4 5.7 -3.7
v 3.6 5.7 -3.7
v 2.1 5.7 -3.8
v 2.2 5.7 -3.8
v 1.9 5.7 -3.9
v 2.1 5.7 -3.9
v 3.6 5.7 -3.9
v 3.7 5.7 -3.9
v 3.7 5.7 -4
v 3.8 5.7 -4
v 1.8 5.7 -4.2
v 1.9 5.7 -4.2
v 1.8 5.7 -4.3
v 2 5.7 -4.3
v 2.2 5.7 -4.3
v 2.3 5.7 -4.3
v 2.4 5.7 -4.3
v 3.3 5.7 -4.3
v 3.4 5.7 -4.3
v 3.5 5.7 -4.3
v 3.6 5.7 -4.3
v 3.8 5.7 -4.3
v 2 5.7 -4.9
v 2.1 5.7 -4.9
v 3.6 5.7 -4.9
v 3.7 5.7 -4.9
v 2 5.7 -5.1
v 2.1 5.7 -5.1
v 2.3 5.7 -5.1
v 3.5 5.7 -5.1
v 3.6 5.7 -5.1
v 3.7 5.7 -5.1
v 2.1 5.7 -5.2
v 2.2 5.7 -5.2
v 3.5 5.7 -5.2
v 3.6 5.7 -5.2
v 2.2 5.7 -5.3
v 2.3 5.7 -5.3
v 3.4 5.7 -5.3
v 2.3 5.7 -5.4
v 2.5 5.7 -5.4
v 3.2 5.7 -5.4
v 3.4 5.7 -5.4
v 2.5 5.7 -5.5
v 3.2 5.7 -5.5
v 2.8 6 -3.3
v 2.9 6 -3.3
v 2.7 6 -3.4
v 2.8 6 -3.4
v 2.9 6 -3.4
v 3 6 -3.4
v 2.7 6 -3.5
v 2.8 6 -3.5
v 2.9 6 -3.5
v 3 6 -3.5
v 2.5 6.1 -3.5
v 2.7 6.1 -3.5
v 3 6.1 -3.5
v 3.2 6.1 -3.5
v 2.5 6.1 -3.6
v 2.7 6.1 -3.6
v 3 6.1 -3.6
v 3.2 6.1 -3.6
v 3.4 6.1 -3.7
v 3.5 6.1 -3.7
v 2.1 6.1 -3.8
v 2.2 6.1 -3.8
v 3.4 6.1 -3.8
v 3.5 6.1 -3.8
v 2 6.1 -3.9
v 2.1 6.1 -3.9
v 2.2 6.1 -3.9
v 2 6.1 -4
v 2.1 6.1 -4
v 3.3 6.2 -3.6
v 3.4 6.2 -3.6
v 2.2 6.2 -3.7
v 2.3 6.2 -3.7
v 3.3 6.2 -3.7
v 3.4 6.2 -3.7
v 2.2 6.2 -3.8
v 2.3 6.2 -3.8
v 2.4 6.4 -3.5
v 2.5 6.4 -3.5
v 3.2 6.4 -3.5
v 3.3 6.4 -3.5
v 2.3 6.4 -3.6
v 2.4 6.4 -3.6
v 2.5 6.4 -3.6
v 3.2 6.4 -3.6
v 3.3 6.4 -3.6
v 2.3 6.4 -3.7
v 2.4 6.4 -3.7
v 2.5 6.4 -3.7
v 3.2 6.4 -3.7
v 3.3 6.4 -3.7
v 2.7 7.7 -4.7
v 3 7.7 -4.7
v 2.7 7.7 -4.9
v 3 7.7 -4.9
v 2.7 7.8 -4.9
v 3 7.8 -4.9
v 2.7 7.8 -5
v 3 7.8 -5
v 2.7 7.9 -5
v 3 7.9 -5
v 2.7 7.9 -5.1
v 3 7.9 -5.1
v 1.8 2.2 -3.6
v 2.5 2.2 -3.6
v 3.2 2.2 -3.6
v 3.9 2.2 -3.6
v 1.9 2.2 -3.7
v 2.4 2.2 -3.7
v 3.3 2.2 -3.7
v 3.8 2.2 -3.7
v 1.8 2.2 -4.2
v 1.9 2.2 -4.2
v 2.4 2.2 -4.2
v 2.5 2.2 -4.2
v 3.2 2.2 -4.2
v 3.3 2.2 -4.2
v 3.8 2.2 -4.2
v 3.9 2.2 -4.2
v 1.9 2.3 -3.7
v 2.4 2.3 -3.7
v 3.3 2.3 -3.7
v 3.8 2.3 -3.7
v 2 2.3 -3.8
v 2.3 2.3 -3.8
v 3.4 2.3 -3.8
v 3.7 2.3 -3.8
v 1.9 2.3 -4.2
v 2 2.3 -4.2
v 2.3 2.3 -4.2
v 2.4 2.3 -4.2
v 3.3 2.3 -4.2
v 3.4 2.3 -4.2
v 3.7 2.3 -4.2
v 3.8 2.3 -4.2
v 2 2.4 -3.8
v 2.3 2.4 -3.8
v 3.4 2.4 -3.8
v 3.7 2.4 -3.8
v 2 2.4 -4.2
v 2.3 2.4 -4.2
v 3.4 2.4 -4.2
v 3.7 2.4 -4.2
v 1.8 2.7 -4.2
v 2.5 2.7 -4.2
v 3.2 2.7 -4.2
v 3.9 2.7 -4.2
v 1.9 2.7 -4.3
v 2.4 2.7 -4.3
v 3.3 2.7 -4.3
v 3.8 2.7 -4.3
v 1.9 2.7 -4.9
v 2.4 2.7 -4.9
v 3.3 2.7 -4.9
v 3.8 2.7 -4.9
v 1.8 2.7 -5
v 2.5 2.7 -5
v 3.2 2.7 -5
v 3.9 2.7 -5
v 2.5 4.3 -4.2
v 2.7 4.3 -4.2
v 2.8 4.3 -4.2
v 3.2 4.3 -4.2
v 2.5 4.3 -4.3
v 2.7 4.3 -4.3
v 2.8 4.3 -4.3
v 3.2 4.3 -4.3
v 3.2 4.4 -4.2
v 3.3 4.4 -4.2
v 3.2 4.4 -4.3
v 3.3 4.4 -4.3
v 3.1 4.5 -4.2
v 3.2 4.5 -4.2
v 3.1 4.5 -4.3
v 3.2 4.5 -4.3
v 3 4.6 -4.2
v 3.1 4.6 -4.2
v 3 4.6 -4.3
v 3.1 4.6 -4.3
v 2.4 4.7 -4.2
v 3 4.7 -4.2
v 2.4 4.7 -4.3
v 3 4.7 -4.3
v 1.2 5.7 -4.3
v 1.8 5.7 -4.3
v 3.8 5.7 -4.3
v 4.5 5.7 -4.3
v 1.2 5.7 -4.9
v 1.8 5.7 -4.9
v 3.8 5.7 -4.9
v 4.5 5.7 -4.9
v 3.5 5.8 -3.7
v 3.6 5.8 -3.7
v 3.5 5.8 -3.8
v 3.6 5.8 -3.8
v 1.9 5.8 -3.9
v 2 5.8 -3.9
v 1.9 5.8 -4
v 2 5.8 -4
v 2.5 6 -3.5
v 2.7 6 -3.5
v 3 6 -3.5
v 3.2 6 -3.5
v 2.3 6 -3.6
v 2.5 6 -3.6
v 2.7 6 -3.6
v 3 6 -3.6
v 3.2 6 -3.6
v 3.4 6 -3.6
v 2.2 6 -3.7
v 2.3 6 -3.7
v 2.5 6 -3.7
v 3.2 6 -3.7
v 3.3 6 -3.7
v 3.4 6 -3.7
v 3.5 6 -3.7
v 2.1 6 -3.8
v 2.2 6 -3.8
v 2.3 6 -3.8
v 3.4 6 -3.8
v 3.5 6 -3.8
v 2 6 -3.9
v 2.1 6 -3.9
v 2.2 6 -3.9
v 2 6 -4
v 2.1 6 -4
v 2.8 6.1 -3.3
v 2.9 6.1 -3.3
v 2.8 6.1 -3.4
v 2.9 6.1 -3.4
v 2.7 6.2 -3.4
v 3 6.2 -3.4
v 2.7 6.2 -3.5
v 2.8 6.2 -3.5
v 2.9 6.2 -3.5
v 3 6.2 -3.5
v 2.8 6.2 -3.6
v 2.9 6.2 -3.6
v 1.9 6.3 -4
v 2 6.3 -4
v 3.7 6.3 -4
v 3.8 6.3 -4
v 1.8 6.3 -4.2
v 1.9 6.3 -4.2
v 2 6.3 -4.2
v 3.7 6.3 -4.2
v 3.8 6.3 -4.2
v 1.8 6.3 -4.9
v 1.9 6.3 -4.9
v 2.4 6.5 -3.5
v 2.8 6.5 -3.5
v 2.9 6.5 -3.5
v 3.3 6.5 -3.5
v 2.3 6.5 -3.6
v 2.4 6.5 -3.6
v 2.5 6.5 -3.6
v 2.8 6.5 -3.6
v 2.9 6.5 -3.6
v 3.2 6.5 -3.6
v 3.3 6.5 -3.6
v 3.4 6.5 -3.6
v 2.2 6.5 -3.7
v 2.3 6.5 -3.7
v 2.4 6.5 -3.7
v 2.5 6.5 -3.7
v 3.2 6.5 -3.7
v 3.3 6.5 -3.7
v 3.4 6.5 -3.7
v 3.5 6.5 -3.7
v 2.1 6.5 -3.8
v 2.2 6.5 -3.8
v 2.3 6.5 -3.8
v 3.4 6.5 -3.8
v 3.5 6.5 -3.8
v 3.6 6.5 -3.8
v 2 6.5 -3.9
v 2.1 6.5 -3.9
v 2.2 6.5 -3.9
v 3.5 6.5 -3.9
v 3.6 6.5 -3.9
v 3.7 6.5 -3.9
v 2 6.5 -4
v 2.1 6.5 -4
v 3.6 6.5 -4
v 3.7 6.5 -4
v 2.5 6.6 -3.6
v 3.2 6.6 -3.6
v 2.3 6.6 -3.7
v 2.5 6.6 -3.7
v 2.6 6.6 -3.7
v 3.1 6.6 -3.7
v 3.2 6.6 -3.7
v 3.4 6.6 -3.7
v 2.2 6.6 -3.8
v 2.3 6.6 -3.8
v 2.4 6.6 -3.8
v 2.6 6.6 -3.8
v 3.1 6.6 -3.8
v 3.3 6.6 -3.8
v 3.4 6.6 -3.8
v 3.5 6.6 -3.8
v 2.1 6.6 -3.9
v 2.2 6.6 -3.9
v 2.4 6.6 -3.9
v 3.3 6.6 -3.9
v 3.5 6.6 -3.9
v 3.6 6.6 -3.9
v 2 6.6 -4
v 2.1 6.6 -4
v 3.6 6.6 -4
v 3.7 6.6 -4
v 2.1 6.6 -4.1
v 2.2 6.6 -4.1
v 3.5 6.6 -4.1
v 3.6 6.6 -4.1
v 1.9 6.6 -4.2
v 2 6.6 -4.2
v 3.7 6.6 -4.2
v 3.8 6.6 -4.2
v 2 6.6 -4.3
v 2.1 6.6 -4.3
v 3.6 6.6 -4.3
v 3.7 6.6 -4.3
v 2 6.6 -4.8
v 2.1 6.6 -4.8
v 3.6 6.6 -4.8
v 3.7 6.6 -4.8
v 1.9 6.6 -4.9
v 2 6.6 -4.9
v 3.7 6.6 -4.9
v 3.8 6.6 -4.9
v 2.1 6.6 -5
v 2.2 6.6 -5
v 3.5 6.6 -5
v 3.6 6.6 -5
v 2 6.6 -5.1
v 2.1 6.6 -5.1
v 3.6 6.6 -5.1
v 3.7 6.6 -5.1
v 2.1 6.6 -5.2
v 2.2 6.6 -5.2
v 2.4 6.6 -5.2
v 3.3 6.6 -5.2
v 3.5 6.6 -5.2
v 3.6 6.6 -5.2
v 2.2 6.6 -5.3
v 2.3 6.6 -5.3
v 2.4 6.6 -5.3
v 2.6 6.6 -5.3
v 3.1 6.6 -5.3
v 3.3 6.6 -5.3
v 3.4 6.6 -5.3
v 3.5 6.6 -5.3
v 2.3 6.6 -5.4
v 2.5 6.6 -5.4
v 2.6 6.6 -5.4
v 3.1 6.6 -5.4
v 3.2 6.6 -5.4
v 3.4 6.6 -5.4
v 2.5 6.6 -5.5
v 3.2 6.6 -5.5
v 2.6 6.7 -3.7
v 3.1 6.7 -3.7
v 2.4 6.7 -3.8
v 2.6 6.7 -3.8
v 3.1 6.7 -3.8
v 3.3 6.7 -3.8
v 2.2 6.7 -3.9
v 2.4 6.7 -3.9
v 2.6 6.7 -3.9
v 3.1 6.7 -3.9
v 3.3 6.7 -3.9
v 3.5 6.7 -3.9
v 2.3 6.7 -4
v 2.4 6.7 -4
v 3.3 6.7 -4
v 3.4 6.7 -4
v 2.1 6.7 -4.1
v 2.2 6.7 -4.1
v 2.3 6.7 -4.1
v 3.4 6.7 -4.1
v 3.5 6.7 -4.1
v 3.6 6.7 -4.1
v 2 6.7 -4.3
v 2.1 6.7 -4.3
v 2.2 6.7 -4.3
v 3.5 6.7 -4.3
v 3.6 6.7 -4.3
v 3.7 6.7 -4.3
v 2 6.7 -4.8
v 2.1 6.7 -4.8
v 2.2 6.7 -4.8
v 3.5 6.7 -4.8
v 3.6 6.7 -4.8
v 3.7 6.7 -4.8
v 2.1 6.7 -5
v 2.2 6.7 -5
v 2.3 6.7 -5
v 3.4 6.7 -5
v 3.5 6.7 -5
v 3.6 6.7 -5
v 2.3 6.7 -5.1
v 2.4 6.7 -5.1
v 3.3 6.7 -5.1
v 3.4 6.7 -5.1
v 2.2 6.7 -5.2
v 2.4 6.7 -5.2
v 2.6 6.7 -5.2
v 3.1 6.7 -5.2
v 3.3 6.7 -5.2
v 3.5 6.7 -5.2
v 2.4 6.7 -5.3
v 2.6 6.7 -5.3
v 3.1 6.7 -5.3
v 3.3 6.7 -5.3
v 2.6 6.7 -5.4
v 3.1 6.7 -5.4
v 2.6 6.8 -3.8
v 3.1 6.8 -3.8
v 2.4 6.8 -3.9
v 2.6 6.8 -3.9
v 3.1 6.8 -3.9
v 3.3 6.8 -3.9
v 2.3 6.8 -4
v 2.4 6.8 -4
v 2.6 6.8 -4
v 3.1 6.8 -4
v 3.3 6.8 -4
v 3.4 6.8 -4
v 2.2 6.8 -4.1
v 2.3 6.8 -4.1
v 2.4 6.8 -4.1
v 3.3 6.8 -4.1
v 3.4 6.8 -4.1
v 3.5 6.8 -4.1
v 2.1 6.8 -4.3
v 2.2 6.8 -4.3
v 2.3 6.8 -4.3
v 3.4 6.8 -4.3
v 3.5 6.8 -4.3
v 3.6 6.8 -4.3
v 2.1 6.8 -4.8
v 2.2 6.8 -4.8
v 2.3 6.8 -4.8
v 3.4 6.8 -4.8
v 3.5 6.8 -4.8
v 3.6 6.8 -4.8
v 2.2 6.8 -5
v 2.3 6.8 -5
v 2.4 6.8 -5
v 3.3 6.8 -5
v 3.4 6.8 -5
v 3.5 6.8 -5
v 2.3 6.8 -5.1
v 2.4 6.8 -5.1
v 2.6 6.8 -5.1
v 3.1 6.8 -5.1
v 3.3 6.8 -5.1
v 3.4 6.8 -5.1
v 2.4 6.8 -5.2
v 2.6 6.8 -5.2
v 3.1 6.8 -5.2
v 3.3 6.8 -5.2
v 2.6 6.8 -5.3
v 3.1 6.8 -5.3
v 2.6 6.9 -3.9
v 3.1 6.9 -3.9
v 2.4 6.9 -4
v 2.6 6.9 -4
v 3.1 6.9 -4
v 3.3 6.9 -4
v 2.3 6.9 -4.1
v 2.4 6.9 -4.1
v 2.5 6.9 -4.1
v 2.6 6.9 -4.1
v 3.1 6.9 -4.1
v 3.2 6.9 -4.1
v 3.3 6.9 -4.1
v 3.4 6.9 -4.1
v 2.4 6.9 -4.2
v 2.5 6.9 -4.2
v 3.2 6.9 -4.2
v 3.3 6.9 -4.2
v 2.2 6.9 -4.3
v 2.3 6.9 -4.3
v 2.4 6.9 -4.3
v 3.3 6.9 -4.3
v 3.4 6.9 -4.3
v 3.5 6.9 -4.3
v 2.2 6.9 -4.8
v 2.3 6.9 -4.8
v 2.4 6.9 -4.8
v 3.3 6.9 -4.8
v 3.4 6.9 -4.8
v 3.5 6.9 -4.8
v 2.4 6.9 -4.9
v 2.5 6.9 -4.9
v 3.2 6.9 -4.9
v 3.3 6.9 -4.9
v 2.3 6.9 -5
v 2.4 6.9 -5
v 2.5 6.9 -5
v 2.6 6.9 -5
v 3.1 6.9 -5
v 3.2 6.9 -5
v 3.3 6.9 -5
v 3.4 6.9 -5
v 2.4 6.9 -5.1
v 2.6 6.9 -5.1
v 3.1 6.9 -5.1
v 3.3 6.9 -5.1
v 2.6 6.9 -5.2
v 3.1 6.9 -5.2
v 2.6 7 -4
v 3.1 7 -4
v 2.5 7 -4.1
v 2.6 7 -4.1
v 3.1 7 -4.1
v 3.2 7 -4.1
v 2.4 7 -4.2
v 2.5 7 -4.2
v 2.6 7 -4.2
v 3.1 7 -4.2
v 3.2 7 -4.2
v 3.3 7 -4.2
v 2.3 7 -4.3
v 2.4 7 -4.3
v 2.5 7 -4.3
v 3.2 7 -4.3
v 3.3 7 -4.3
v 3.4 7 -4.3
v 2.3 7 -4.8
v 2.4 7 -4.8
v 2.5 7 -4.8
v 3.2 7 -4.8
v 3.3 7 -4.8
v 3.4 7 -4.8
v 2.4 7 -4.9
v 2.5 7 -4.9
v 2.6 7 -4.9
v 3.1 7 -4.9
v 3.2 7 -4.9
v 3.3 7 -4.9
v 2.5 7 -5
v 2.6 7 -5
v 3.1 7 -5
v 3.2 7 -5
v 2.6 7 -5.1
v 3.1 7 -5.1
v 2.6 7.1 -4.1
v 3.1 7.1 -4.1
v 2.5 7.1 -4.2
v 2.6 7.1 -4.2
v 2.7 7.1 -4.2
v 3 7.1 -4.2
v 3.1 7.1 -4.2
v 3.2 7.1 -4.2
v 2.4 7.1 -4.3
v 2.5 7.1 -4.3
v 2.6 7.1 -4.3
v 2.7 7.1 -4.3
v 3 7.1 -4.3
v 3.1 7.1 -4.3
v 3.2 7.1 -4.3
v 3.3 7.1 -4.3
v 2.5 7.1 -4.4
v 2.6 7.1 -4.4
v 3.1 7.1 -4.4
v 3.2 7.1 -4.4
v 2.5 7.1 -4.7
v 2.6 7.1 -4.7
v 3.1 7.1 -4.7
v 3.2 7.1 -4.7
v 2.4 7.1 -4.8
v 2.5 7.1 -4.8
v 2.6 7.1 -4.8
v 2.7 7.1 -4.8
v 3 7.1 -4.8
v 3.1 7.1 -4.8
v 3.2 7.1 -4.8
v 3.3 7.1 -4.8
v 2.5 7.1 -4.9
v 2.6 7.1 -4.9
v 2.7 7.1 -4.9
v 3 7.1 -4.9
v 3.1 7.1 -4.9
v 3.2 7.1 -4.9
v 2.6 7.1 -5
v 3.1 7.1 -5
v 2.7 7.3 -4.2
v 3 7.3 -4.2
v 2.6 7.3 -4.3
v 2.7 7.3 -4.3
v 3 7.3 -4.3
v 3.1 7.3 -4.3
v 2.5 7.3 -4.4
v 2.6 7.3 -4.4
v 2.7 7.3 -4.4
v 3 7.3 -4.4
v 3.1 7.3 -4.4
v 3.2 7.3 -4.4
v 2.5 7.3 -4.7
v 2.6 7.3 -4.7
v 2.7 7.3 -4.7
v 3 7.3 -4.7
v 3.1 7.3 -4.7
v 3.2 7.3 -4.7
v 2.6 7.3 -4.8
v 2.7 7.3 -4.8
v 3 7.3 -4.8
v 3.1 7.3 -4.8
v 2.7 7.3 -4.9
v 3 7.3 -4.9
v 2.7 7.5 -4.3
v 3 7.5 -4.3
v 2.6 7.5 -4.4
v 2.7 7.5 -4.4
v 3 7.5 -4.4
v 3.1 7.5 -4.4
v 2.6 7.5 -4.7
v 2.7 7.5 -4.7
v 3 7.5 -4.7
v 3.1 7.5 -4.7
v 2.7 7.5 -4.8
v 3 7.5 -4.8
v 2.7 7.6 -4.4
v 3 7.6 -4.4
v 2.7 7.6 -4.5
v 3 7.6 -4.5
v 2.7 7.8 -4.5
v 3 7.8 -4.5
v 2.7 7.8 -4.6
v 3 7.8 -4.6
v 2.7 7.9 -4.6
v 3 7.9 -4.6
v 2.7 7.9 -4.8
v 3 7.9 -4.8
v 2.7 8 -4.8
v 3 8 -4.8
v 2.7 8 -4.9
v 3 8 -4.9
v 2.7 8.1 -4.9
v 3 8.1 -4.9
v 2.7 8.1 -5.1
v 3 8.1 -5.1

# faces
f 3/6/1 2/6/1 1/6/1
f 4/6/1 2/6/1 3/6/1
f 5/8/1 4/8/1 3/8/1
f 6/8/1 4/8/1 5/8/1
f 9/4/1 8/4/1 7/4/1
f 10/4/1 8/4/1 9/4/1
f 13/16/1 12/16/1 11/16/1
f 14/16/1 12/16/1 13/16/1
f 15/16/1 12/16/1 14/16/1
f 16/16/1 12/16/1 15/16/1
f 20/5/1 18/5/1 17/5/1
f 20/5/1 19/5/1 18/5/1
f 21/5/1 19/5/1 20/5/1
f 24/16/1 23/16/1 22/16/1
f 25/16/1 23/16/1 24/16/1
f 28/10/1 27/10/1 26/10/1
f 29/10/1 27/10/1 28/10/1
f 30/17/1 29/17/1 28/17/1
f 31/17/1 29/17/1 30/17/1
f 32/8/1 31/8/1 30/8/1
f 33/8/1 31/8/1 32/8/1
f 36/5/1 35/5/1 34/5/1
f 37/5/1 35/5/1 36/5/1
f 38/5/1 35/5/1 37/5/1
f 39/5/1 35/5/1 38/5/1
f 41/8/1 40/8/1 39/8/1
f 42/8/1 40/8/1 41/8/1
f 45/16/1 44/16/1 43/16/1
f 46/16/1 44/16/1 45/16/1
f 51/5/1 50/5/1 49/5/1
f 52/5/1 50/5/1 51/5/1
f 55/5/1 54/5/1 53/5/1
f 57/5/1 55/5/1 53/5/1
f 58/8/1 56/8/1 55/8/1
f 58/5/1 55/5/1 57/5/1
f 59/8/1 56/8/1 58/8/1
f 60/8/1 56/8/1 59/8/1
f 63/8/1 48/8/1 47/8/1
f 64/8/1 48/8/1 63/8/1
f 65/8/1 62/8/1 61/8/1
f 66/8/1 62/8/1 65/8/1
f 71/5/1 68/5/1 67/5/1
f 72/5/1 68/5/1 71/5/1
f 74/5/1 70/5/1 69/5/1
f 75/5/1 70/5/1 74/5/1
f 78/4/1 76/4/1 75/4/1
f 79/4/1 76/4/1 78/4/1
f 80/5/1 78/5/1 77/5/1
f 81/5/1 78/5/1 80/5/1
f 83/8/1 82/8/1 81/8/1
f 84/8/1 82/8/1 83/8/1
f 89/8/1 73/8/1 72/8/1
f 90/8/1 73/8/1 89/8/1
f 91/8/1 86/8/1 85/8/1
f 92/8/1 86/8/1 91/8/1
f 93/8/1 88/8/1 87/8/1
f 94/8/1 88/8/1 93/8/1
f 95/8/1 93/8/1 92/8/1
f 96/8/1 93/8/1 95/8/1
f 99/5/1 98/5/1 97/5/1
f 100/5/1 98/5/1 99/5/1
f 105/5/1 102/5/1 101/5/1
f 106/5/1 102/5/1 105/5/1
f 108/4/1 107/4/1 106/4/1
f 109/4/1 107/4/1 108/4/1
f 112/5/1 111/5/1 110/5/1
f 113/5/1 111/5/1 112/5/1
f 115/8/1 114/8/1 113/8/1
f 116/8/1 114/8/1 115/8/1
f 119/8/1 104/8/1 103/8/1
f 120/8/1 104/8/1 119/8/1
f 121/8/1 117/8/1 116/8/1
f 122/8/1 117/8/1 121/8/1
f 125/8/1 119/8/1 118/8/1
f 126/8/1 119/8/1 125/8/1
f 127/8/1 123/8/1 122/8/1
f 128/8/1 123/8/1 127/8/1
f 129/8/1 125/8/1 124/8/1
f 130/8/1 125/8/1 129/8/1
f 131/8/1 129/8/1 128/8/1
f 132/8/1 129/8/1 131/8/1
f 137/5/1 134/5/1 133/5/1
f 138/5/1 134/5/1 137/5/1
f 140/5/1 136/5/1 135/5/1
f 141/5/1 136/5/1 140/5/1
f 143/4/1 142/4/1 141/4/1
f 144/4/1 142/4/1 143/4/1
f 147/5/1 146/5/1 145/5/1
f 148/5/1 146/5/1 147/5/1
f 150/8/1 149/8/1 148/8/1
f 151/8/1 149/8/1 150/8/1
f 152/8/1 139/8/1 138/8/1
f 153/8/1 139/8/1 152/8/1
f 158/8/1 155/8/1 154/8/1
f 159/8/1 155/8/1 158/8/1
f 162/8/1 157/8/1 156/8/1
f 163/8/1 157/8/1 162/8/1
f 164/8/1 160/8/1 159/8/1
f 165/8/1 160/8/1 164/8/1
f 166/8/1 162/8/1 161/8/1
f 167/8/1 162/8/1 166/8/1
f 168/8/1 166/8/1 165/8/1
f 169/8/1 166/8/1 168/8/1
f 172/6/1 171/6/1 170/6/1
f 173/6/1 172/6/1 170/6/1
f 174/6/1 173/6/1 170/6/1
f 175/6/1 173/6/1 174/6/1
f 180/5/1 177/5/1 176/5/1
f 181/5/1 177/5/1 180/5/1
f 182/5/1 179/5/1 178/5/1
f 183/5/1 179/5/1 182/5/1
f 186/17/1 185/17/1 184/17/1
f 187/17/1 185/17/1 186/17/1
f 192/8/1 189/8/1 188/8/1
f 193/8/1 189/8/1 192/8/1
f 196/8/1 191/8/1 190/8/1
f 197/8/1 191/8/1 196/8/1
f 198/8/1 194/8/1 193/8/1
f 199/8/1 194/8/1 198/8/1
f 202/8/1 196/8/1 195/8/1
f 203/8/1 196/8/1 202/8/1
f 204/8/1 200/8/1 199/8/1
f 205/8/1 200/8/1 204/8/1
f 210/8/1 202/8/1 201/8/1
f 211/8/1 202/8/1 210/8/1
f 212/8/1 207/8/1 206/8/1
f 213/8/1 207/8/1 212/8/1
f 214/8/1 209/8/1 208/8/1
f 215/8/1 209/8/1 214/8/1
f 216/8/1 214/8/1 213/8/1
f 217/8/1 214/8/1 216/8/1
f 221/5/1 219/5/1 218/5/1
f 222/5/1 219/5/1 221/5/1
f 225/5/1 221/5/1 220/5/1
f 226/5/1 221/5/1 225/5/1
f 229/4/1 227/4/1 226/4/1
f 230/14/1 229/14/1 228/14/1
f 231/4/1 227/4/1 229/4/1
f 231/14/1 229/14/1 230/14/1
f 232/4/1 227/4/1 231/4/1
f 235/8/1 234/8/1 233/8/1
f 236/8/1 234/8/1 235/8/1
f 237/8/1 224/8/1 223/8/1
f 238/8/1 224/8/1 237/8/1
f 243/8/1 240/8/1 239/8/1
f 244/8/1 240/8/1 243/8/1
f 247/8/1 242/8/1 241/8/1
f 248/8/1 242/8/1 247/8/1
f 249/8/1 245/8/1 244/8/1
f 250/8/1 245/8/1 249/8/1
f 253/8/1 247/8/1 246/8/1
f 254/8/1 247/8/1 253/8/1
f 255/8/1 252/8/1 251/8/1
f 256/8/1 252/8/1 255/8/1
f 261/8/1 258/8/1 257/8/1
f 262/8/1 258/8/1 261/8/1
f 265/8/1 260/8/1 259/8/1
f 266/8/1 260/8/1 265/8/1
f 267/8/1 263/8/1 262/8/1
f 268/8/1 263/8/1 267/8/1
f 271/8/1 265/8/1 264/8/1
f 272/8/1 265/8/1 271/8/1
f 273/8/1 269/8/1 268/8/1
f 274/8/1 269/8/1 273/8/1
f 277/8/1 271/8/1 270/8/1
f 278/8/1 271/8/1 277/8/1
f 279/8/1 275/8/1 274/8/1
f 280/8/1 275/8/1 279/8/1
f 283/8/1 277/8/1 276/8/1
f 284/8/1 277/8/1 283/8/1
f 285/8/1 281/8/1 280/8/1
f 286/8/1 281/8/1 285/8/1
f 291/8/1 283/8/1 282/8/1
f 292/8/1 283/8/1 291/8/1
f 293/8/1 288/8/1 287/8/1
f 294/8/1 288/8/1 293/8/1
f 295/8/1 290/8/1 289/8/1
f 296/8/1 290/8/1 295/8/1
f 297/8/1 295/8/1 294/8/1
f 298/8/1 295/8/1 297/8/1
f 301/6/1 300/6/1 299/6/1
f 302/6/1 300/6/1 301/6/1
f 306/4/1 304/4/1 303/4/1
f 306/4/1 305/4/1 304/4/1
f 307/4/1 305/4/1 306/4/1
f 308/4/1 306/4/1 303/4/1
f 309/4/1 306/4/1 308/4/1
f 314/8/1 311/8/1 310/8/1
f 315/8/1 311/8/1 314/8/1
f 318/8/1 313/8/1 312/8/1
f 319/8/1 313/8/1 318/8/1
f 320/8/1 316/8/1 315/8/1
f 321/8/1 316/8/1 320/8/1
f 322/8/1 318/8/1 317/8/1
f 323/8/1 318/8/1 322/8/1
f 324/8/1 322/8/1 321/8/1
f 325/8/1 322/8/1 324/8/1
f 326/8/1 322/8/1 325/8/1
f 328/8/1 326/8/1 325/8/1
f 328/8/1 327/8/1 326/8/1
f 329/8/1 327/8/1 328/8/1
f 330/8/1 327/8/1 329/8/1
f 332/8/1 330/8/1 329/8/1
f 332/8/1 331/8/1 330/8/1
f 333/8/1 331/8/1 332/8/1
f 334/8/1 331/8/1 333/8/1
f 336/8/1 335/8/1 334/8/1
f 336/8/1 334/8/1 333/8/1
f 337/8/1 335/8/1 336/8/1
f 338/8/1 335/8/1 337/8/1
f 339/8/1 335/8/1 338/8/1
f 342/3/1 341/3/1 340/3/1
f 343/3/1 341/3/1 342/3/1
f 346/14/1 345/14/1 344/14/1
f 347/14/1 345/14/1 346/14/1
f 348/17/1 347/17/1 346/17/1
f 349/17/1 347/17/1 348/17/1
f 352/6/1 351/6/1 350/6/1
f 353/6/1 351/6/1 352/6/1
f 356/6/1 355/6/1 354/6/1
f 357/6/1 355/6/1 356/6/1
f 360/16/1 359/16/1 358/16/1
f 361/16/1 359/16/1 360/16/1
f 362/16/1 359/16/1 361/16/1
f 363/16/1 359/16/1 362/16/1
f 366/6/1 365/6/1 364/6/1
f 367/6/1 365/6/1 366/6/1
f 370/16/1 369/16/1 368/16/1
f 371/16/1 369/16/1 370/16/1
f 374/10/1 373/10/1 372/10/1
f 375/10/1 373/10/1 374/10/1
f 378/5/1 377/5/1 376/5/1
f 379/5/1 377/5/1 378/5/1
f 382/16/1 381/16/1 380/16/1
f 383/16/1 381/16/1 382/16/1
f 386/6/1 385/6/1 384/6/1
f 387/6/1 385/6/1 386/6/1
f 388/8/1 387/8/1 386/8/1
f 389/8/1 387/8/1 388/8/1
f 392/4/1 391/4/1 390/4/1
f 393/4/1 391/4/1 392/4/1
f 394/4/2 395/4/2 396/4/2
f 396/4/2 395/4/2 397/4/2
f 398/6/2 399/6/2 400/6/2
f 400/6/2 399/6/2 401/6/2
f 400/8/2 401/8/2 402/8/2
f 402/8/2 401/8/2 403/8/2
f 404/16/2 405/16/2 406/16/2
f 406/16/2 405/16/2 407/16/2
f 408/16/2 409/16/2 410/16/2
f 410/16/2 409/16/2 411/16/2
f 412/10/2 413/10/2 414/10/2
f 414/10/2 413/10/2 415/10/2
f 416/16/2 417/16/2 418/16/2
f 418/16/2 417/16/2 419/16/2
f 419/16/2 417/16/2 420/16/2
f 420/16/2 417/16/2 421/16/2
f 422/6/2 423/6/2 424/6/2
f 424/6/2 423/6/2 425/6/2
f 426/6/2 427/6/2 428/6/2
f 428/6/2 427/6/2 429/6/2
f 430/14/2 431/14/2 432/14/2
f 432/14/2 431/14/2 433/14/2
f 432/17/2 433/17/2 434/17/2
f 434/17/2 433/17/2 435/17/2
f 436/3/2 437/3/2 438/3/2
f 438/3/2 437/3/2 439/3/2
f 440/6/2 441/6/2 442/6/2
f 442/6/2 441/6/2 443/6/2
f 444/4/2 445/4/2 447/4/2
f 445/4/2 446/4/2 447/4/2
f 447/4/2 446/4/2 448/4/2
f 444/4/2 447/4/2 449/4/2
f 449/4/2 447/4/2 450/4/2
f 451/8/2 452/8/2 455/8/2
f 455/8/2 452/8/2 456/8/2
f 453/8/2 454/8/2 459/8/2
f 459/8/2 454/8/2 460/8/2
f 456/8/2 457/8/2 461/8/2
f 461/8/2 457/8/2 462/8/2
f 458/8/2 459/8/2 463/8/2
f 463/8/2 459/8/2 464/8/2
f 462/8/2 463/8/2 465/8/2
f 465/8/2 463/8/2 466/8/2
f 466/8/2 463/8/2 467/8/2
f 466/8/2 467/8/2 469/8/2
f 467/8/2 468/8/2 469/8/2
f 469/8/2 468/8/2 470/8/2
f 470/8/2 468/8/2 471/8/2
f 470/8/2 471/8/2 473/8/2
f 471/8/2 472/8/2 473/8/2
f 473/8/2 472/8/2 474/8/2
f 474/8/2 472/8/2 475/8/2
f 475/8/2 476/8/2 477/8/2
f 474/8/2 475/8/2 477/8/2
f 477/8/2 476/8/2 478/8/2
f 478/8/2 476/8/2 479/8/2
f 479/8/2 476/8/2 480/8/2
f 481/6/2 482/6/2 483/6/2
f 483/6/2 482/6/2 484/6/2
f 485/8/2 486/8/2 489/8/2
f 489/8/2 486/8/2 490/8/2
f 487/8/2 488/8/2 493/8/2
f 493/8/2 488/8/2 494/8/2
f 490/8/2 491/8/2 495/8/2
f 495/8/2 491/8/2 496/8/2
f 492/8/2 493/8/2 499/8/2
f 499/8/2 493/8/2 500/8/2
f 496/8/2 497/8/2 501/8/2
f 501/8/2 497/8/2 502/8/2
f 498/8/2 499/8/2 505/8/2
f 505/8/2 499/8/2 506/8/2
f 502/8/2 503/8/2 507/8/2
f 507/8/2 503/8/2 508/8/2
f 504/8/2 505/8/2 511/8/2
f 511/8/2 505/8/2 512/8/2
f 508/8/2 509/8/2 513/8/2
f 513/8/2 509/8/2 514/8/2
f 510/8/2 511/8/2 519/8/2
f 519/8/2 511/8/2 520/8/2
f 515/8/2 516/8/2 521/8/2
f 521/8/2 516/8/2 522/8/2
f 517/8/2 518/8/2 523/8/2
f 523/8/2 518/8/2 524/8/2
f 522/8/2 523/8/2 525/8/2
f 525/8/2 523/8/2 526/8/2
f 527/6/2 528/6/2 529/6/2
f 529/6/2 528/6/2 530/6/2
f 531/5/2 532/5/2 534/5/2
f 534/5/2 532/5/2 535/5/2
f 533/5/2 534/5/2 538/5/2
f 538/5/2 534/5/2 539/5/2
f 539/4/2 540/4/2 542/4/2
f 541/14/2 542/14/2 543/14/2
f 542/4/2 540/4/2 544/4/2
f 543/14/2 542/14/2 544/14/2
f 544/4/2 540/4/2 545/4/2
f 546/8/2 547/8/2 548/8/2
f 548/8/2 547/8/2 549/8/2
f 536/8/2 537/8/2 550/8/2
f 550/8/2 537/8/2 551/8/2
f 552/8/2 553/8/2 556/8/2
f 556/8/2 553/8/2 557/8/2
f 554/8/2 555/8/2 560/8/2
f 560/8/2 555/8/2 561/8/2
f 557/8/2 558/8/2 562/8/2
f 562/8/2 558/8/2 563/8/2
f 559/8/2 560/8/2 566/8/2
f 566/8/2 560/8/2 567/8/2
f 564/8/2 565/8/2 568/8/2
f 568/8/2 565/8/2 569/8/2
f 570/6/2 571/6/2 572/6/2
f 570/6/2 572/6/2 573/6/2
f 573/6/2 572/6/2 574/6/2
f 575/5/2 576/5/2 577/5/2
f 577/5/2 576/5/2 578/5/2
f 579/17/2 580/17/2 581/17/2
f 581/17/2 580/17/2 582/17/2
f 583/8/2 584/8/2 587/8/2
f 587/8/2 584/8/2 588/8/2
f 585/8/2 586/8/2 591/8/2
f 591/8/2 586/8/2 592/8/2
f 588/8/2 589/8/2 593/8/2
f 593/8/2 589/8/2 594/8/2
f 590/8/2 591/8/2 597/8/2
f 597/8/2 591/8/2 598/8/2
f 594/8/2 595/8/2 599/8/2
f 599/8/2 595/8/2 600/8/2
f 596/8/2 597/8/2 605/8/2
f 605/8/2 597/8/2 606/8/2
f 601/8/2 602/8/2 607/8/2
f 607/8/2 602/8/2 608/8/2
f 603/8/2 604/8/2 609/8/2
f 609/8/2 604/8/2 610/8/2
f 608/8/2 609/8/2 611/8/2
f 611/8/2 609/8/2 612/8/2
f 613/5/2 614/5/2 615/5/2
f 615/5/2 614/5/2 616/5/2
f 617/5/2 618/5/2 621/5/2
f 621/5/2 618/5/2 622/5/2
f 622/5/2 623/5/2 624/5/2
f 624/5/2 623/5/2 625/5/2
f 626/5/2 627/5/2 628/5/2
f 628/5/2 627/5/2 629/5/2
f 629/8/2 630/8/2 631/8/2
f 631/8/2 630/8/2 632/8/2
f 619/8/2 620/8/2 633/8/2
f 633/8/2 620/8/2 634/8/2
f 635/8/2 636/8/2 639/8/2
f 639/8/2 636/8/2 640/8/2
f 637/8/2 638/8/2 643/8/2
f 643/8/2 638/8/2 644/8/2
f 640/8/2 641/8/2 645/8/2
f 645/8/2 641/8/2 646/8/2
f 642/8/2 643/8/2 647/8/2
f 647/8/2 643/8/2 648/8/2
f 646/8/2 647/8/2 649/8/2
f 649/8/2 647/8/2 650/8/2
f 651/5/2 652/5/2 653/5/2
f 653/5/2 652/5/2 654/5/2
f 654/5/2 655/5/2 656/5/2
f 656/5/2 655/5/2 657/5/2
f 657/5/2 655/5/2 658/5/2
f 659/5/2 660/5/2 661/5/2
f 661/5/2 660/5/2 662/5/2
f 663/5/2 664/5/2 665/5/2
f 665/5/2 664/5/2 666/5/2
f 666/8/2 667/8/2 668/8/2
f 668/8/2 667/8/2 669/8/2
f 657/8/2 658/8/2 672/8/2
f 672/8/2 658/8/2 673/8/2
f 669/8/2 670/8/2 674/8/2
f 674/8/2 670/8/2 675/8/2
f 671/8/2 672/8/2 678/8/2
f 678/8/2 672/8/2 679/8/2
f 675/8/2 676/8/2 680/8/2
f 680/8/2 676/8/2 681/8/2
f 677/8/2 678/8/2 682/8/2
f 682/8/2 678/8/2 683/8/2
f 681/8/2 682/8/2 684/8/2
f 684/8/2 682/8/2 685/8/2
f 686/5/2 687/5/2 690/5/2
f 690/5/2 687/5/2 691/5/2
f 688/5/2 689/5/2 693/5/2
f 693/5/2 689/5/2 694/5/2
f 694/5/2 689/5/2 695/5/2
f 695/5/2 689/5/2 696/5/2
f 696/8/2 697/8/2 698/8/2
f 698/8/2 697/8/2 699/8/2
f 691/8/2 692/8/2 704/8/2
f 704/8/2 692/8/2 705/8/2
f 700/8/2 701/8/2 706/8/2
f 706/8/2 701/8/2 707/8/2
f 702/8/2 703/8/2 708/8/2
f 708/8/2 703/8/2 709/8/2
f 707/8/2 708/8/2 710/8/2
f 710/8/2 708/8/2 711/8/2
f 712/16/2 713/16/2 714/16/2
f 714/16/2 713/16/2 715/16/2
f 716/5/2 717/5/2 720/5/2
f 718/8/2 719/8/2 722/8/2
f 716/5/2 720/5/2 723/5/2
f 720/8/2 721/8/2 724/8/2
f 723/5/2 720/5/2 724/5/2
f 724/8/2 721/8/2 725/8/2
f 725/8/2 721/8/2 726/8/2
f 722/8/2 719/8/2 729/8/2
f 729/8/2 719/8/2 730/8/2
f 727/8/2 728/8/2 731/8/2
f 731/8/2 728/8/2 732/8/2
f 733/16/2 734/16/2 735/16/2
f 735/16/2 734/16/2 736/16/2
f 737/10/2 738/10/2 739/10/2
f 739/10/2 738/10/2 740/10/2
f 739/17/2 740/17/2 741/17/2
f 741/17/2 740/17/2 742/17/2
f 742/17/2 740/17/2 743/17/2
f 743/17/2 740/17/2 744/17/2
f 741/8/2 742/8/2 745/8/2
f 742/13/2 743/13/2 746/13/2
f 745/8/2 742/8/2 746/8/2
f 743/8/2 744/8/2 747/8/2
f 746/13/2 743/13/2 747/13/2
f 747/8/2 744/8/2 748/8/2
f 749/5/2 750/5/2 752/5/2
f 750/5/2 751/5/2 752/5/2
f 752/5/2 751/5/2 753/5/2
f 753/5/2 751/5/2 754/5/2
f 753/8/2 754/8/2 755/8/2
f 755/8/2 754/8/2 756/8/2
f 757/16/2 758/16/2 759/16/2
f 759/16/2 758/16/2 760/16/2
f 760/16/2 758/16/2 761/16/2
f 761/16/2 758/16/2 762/16/2
f 763/4/2 764/4/2 765/4/2
f 765/4/2 764/4/2 766/4/2
f 767/6/2 768/6/2 769/6/2
f 769/6/2 768/6/2 770/6/2
f 769/8/2 770/8/2 771/8/2
f 771/8/2 770/8/2 772/8/2
f 775/3/3 774/3/3 773/3/3
f 776/3/3 774/3/3 775/3/3
f 779/4/3 778/4/3 777/4/3
f 780/4/3 778/4/3 779/4/3
f 782/4/3 778/4/3 780/4/3
f 783/4/3 782/4/3 781/4/3
f 784/4/3 778/4/3 782/4/3
f 784/4/3 782/4/3 783/4/3
f 790/17/3 786/17/3 785/17/3
f 791/5/3 788/5/3 787/5/3
f 792/5/3 788/5/3 791/5/3
f 793/14/3 790/14/3 789/14/3
f 794/17/3 786/17/3 790/17/3
f 794/14/3 790/14/3 793/14/3
f 795/5/3 788/5/3 792/5/3
f 796/14/3 793/14/3 789/14/3
f 797/11/3 794/11/3 793/11/3
f 797/14/3 793/14/3 796/14/3
f 798/17/3 786/17/3 794/17/3
f 798/11/3 794/11/3 797/11/3
f 799/5/3 795/5/3 792/5/3
f 800/14/3 798/14/3 797/14/3
f 801/17/3 786/17/3 798/17/3
f 801/14/3 798/14/3 800/14/3
f 802/17/3 786/17/3 801/17/3
f 803/5/3 799/5/3 792/5/3
f 807/5/3 803/5/3 792/5/3
f 809/14/3 805/14/3 804/14/3
f 810/17/3 806/17/3 805/17/3
f 810/14/3 805/14/3 809/14/3
f 811/5/3 791/5/3 787/5/3
f 811/12/3 792/12/3 791/12/3
f 812/5/3 807/5/3 792/5/3
f 812/12/3 792/12/3 811/12/3
f 813/11/3 810/11/3 809/11/3
f 813/14/3 809/14/3 808/14/3
f 814/17/3 806/17/3 810/17/3
f 814/11/3 810/11/3 813/11/3
f 815/5/3 812/5/3 811/5/3
f 815/5/3 811/5/3 787/5/3
f 816/5/3 807/5/3 812/5/3
f 816/5/3 812/5/3 815/5/3
f 817/14/3 813/14/3 808/14/3
f 817/14/3 814/14/3 813/14/3
f 818/17/3 806/17/3 814/17/3
f 818/14/3 814/14/3 817/14/3
f 819/17/3 806/17/3 818/17/3
f 820/17/3 806/17/3 819/17/3
f 828/5/3 824/5/3 823/5/3
f 829/5/3 826/5/3 825/5/3
f 830/5/3 826/5/3 829/5/3
f 831/16/3 822/16/3 821/16/3
f 832/16/3 822/16/3 831/16/3
f 834/5/3 828/5/3 827/5/3
f 835/5/3 824/5/3 828/5/3
f 835/5/3 828/5/3 834/5/3
f 839/4/3 836/4/3 835/4/3
f 840/4/3 836/4/3 839/4/3
f 843/8/3 838/8/3 837/8/3
f 844/4/3 842/4/3 841/4/3
f 844/4/3 843/4/3 842/4/3
f 845/4/3 843/4/3 844/4/3
f 846/8/3 838/8/3 843/8/3
f 846/4/3 843/4/3 845/4/3
f 851/5/3 834/5/3 833/5/3
f 852/5/3 834/5/3 851/5/3
f 853/4/3 848/4/3 847/4/3
f 854/4/3 848/4/3 853/4/3
f 855/8/3 838/8/3 846/8/3
f 856/8/3 838/8/3 855/8/3
f 857/5/3 853/5/3 852/5/3
f 858/5/3 853/5/3 857/5/3
f 862/5/3 853/5/3 858/5/3
f 863/5/3 853/5/3 862/5/3
f 864/5/3 861/5/3 860/5/3
f 864/5/3 860/5/3 859/5/3
f 865/5/3 861/5/3 864/5/3
f 866/16/3 850/16/3 849/16/3
f 867/16/3 850/16/3 866/16/3
f 874/5/3 871/5/3 870/5/3
f 875/5/3 871/5/3 874/5/3
f 876/5/3 873/5/3 872/5/3
f 877/5/3 873/5/3 876/5/3
f 878/5/3 873/5/3 877/5/3
f 880/16/3 869/16/3 868/16/3
f 881/16/3 869/16/3 880/16/3
f 882/4/3 877/4/3 876/4/3
f 882/4/3 876/4/3 875/4/3
f 883/8/3 879/8/3 878/8/3
f 884/4/3 882/4/3 875/4/3
f 885/4/3 882/4/3 884/4/3
f 886/8/3 879/8/3 883/8/3
f 887/8/3 879/8/3 886/8/3
f 890/8/3 889/8/3 888/8/3
f 891/8/3 889/8/3 890/8/3
f 898/4/3 893/4/3 892/4/3
f 899/4/3 893/4/3 898/4/3
f 900/4/3 893/4/3 899/4/3
f 901/8/3 895/8/3 894/8/3
f 903/5/3 899/5/3 898/5/3
f 904/5/3 899/5/3 903/5/3
f 905/5/3 899/5/3 904/5/3
f 906/8/3 895/8/3 901/8/3
f 907/8/3 895/8/3 906/8/3
f 908/5/3 903/5/3 902/5/3
f 909/5/3 903/5/3 908/5/3
f 910/5/3 905/5/3 904/5/3
f 910/5/3 906/5/3 905/5/3
f 911/5/3 906/5/3 910/5/3
f 912/5/3 908/5/3 902/5/3
f 913/5/3 908/5/3 912/5/3
f 914/16/3 897/16/3 896/16/3
f 915/16/3 897/16/3 914/16/3
f 922/5/3 919/5/3 918/5/3
f 923/5/3 919/5/3 922/5/3
f 924/5/3 921/5/3 920/5/3
f 925/5/3 921/5/3 924/5/3
f 926/5/3 921/5/3 925/5/3
f 928/16/3 917/16/3 916/16/3
f 929/16/3 917/16/3 928/16/3
f 930/4/3 925/4/3 924/4/3
f 930/4/3 924/4/3 923/4/3
f 931/4/3 925/4/3 930/4/3
f 932/8/3 927/8/3 926/8/3
f 933/8/3 927/8/3 932/8/3
f 936/8/3 935/8/3 934/8/3
f 937/8/3 935/8/3 936/8/3
f 940/8/3 938/8/3 937/8/3
f 941/8/3 938/8/3 940/8/3
f 942/8/3 940/8/3 939/8/3
f 943/8/3 940/8/3 942/8/3
f 951/5/3 947/5/3 946/5/3
f 952/5/3 947/5/3 951/5/3
f 953/8/3 949/8/3 948/8/3
f 954/8/3 949/8/3 953/8/3
f 955/5/3 952/5/3 951/5/3
f 955/5/3 951/5/3 950/5/3
f 955/5/3 953/5/3 952/5/3
f 956/5/3 953/5/3 955/5/3
f 957/16/3 945/16/3 944/16/3
f 958/16/3 945/16/3 957/16/3
f 961/5/3 960/5/3 959/5/3
f 965/5/3 961/5/3 959/5/3
f 965/5/3 962/5/3 961/5/3
f 966/5/3 962/5/3 965/5/3
f 967/5/3 964/5/3 963/5/3
f 968/5/3 964/5/3 967/5/3
f 970/4/3 967/4/3 966/4/3
f 971/4/3 967/4/3 970/4/3
f 972/8/3 969/8/3 968/8/3
f 973/8/3 969/8/3 972/8/3
f 975/8/3 974/8/3 973/8/3
f 976/8/3 974/8/3 975/8/3
f 978/8/3 977/8/3 976/8/3
f 979/8/3 977/8/3 978/8/3
f 982/8/3 980/8/3 979/8/3
f 983/8/3 980/8/3 982/8/3
f 985/8/3 982/8/3 981/8/3
f 986/8/3 982/8/3 985/8/3
f 988/8/3 985/8/3 984/8/3
f 989/8/3 985/8/3 988/8/3
f 991/8/3 988/8/3 987/8/3
f 992/8/3 988/8/3 991/8/3
f 993/5/3 991/5/3 990/5/3
f 994/5/3 991/5/3 993/5/3
f 997/5/3 996/5/3 995/5/3
f 998/5/3 996/5/3 997/5/3
f 999/5/3 996/5/3 998/5/3
f 1000/5/3 996/5/3 999/5/3
f 1003/4/3 999/4/3 998/4/3
f 1004/4/3 999/4/3 1003/4/3
f 1005/8/3 1002/8/3 1001/8/3
f 1006/8/3 1002/8/3 1005/8/3
f 1009/8/3 1008/8/3 1007/8/3
f 1010/8/3 1008/8/3 1009/8/3
f 1012/8/3 1011/8/3 1010/8/3
f 1013/8/3 1011/8/3 1012/8/3
f 1016/8/3 1014/8/3 1013/8/3
f 1017/8/3 1014/8/3 1016/8/3
f 1019/8/3 1016/8/3 1015/8/3
f 1020/8/3 1016/8/3 1019/8/3
f 1021/8/3 1019/8/3 1018/8/3
f 1022/8/3 1019/8/3 1021/8/3
f 1027/8/3 1024/8/3 1023/8/3
f 1028/8/3 1024/8/3 1027/8/3
f 1029/5/3 1026/5/3 1025/5/3
f 1030/5/3 1026/5/3 1029/5/3
f 1033/8/3 1032/8/3 1031/8/3
f 1034/8/3 1032/8/3 1033/8/3
f 1036/8/3 1035/8/3 1034/8/3
f 1037/8/3 1035/8/3 1036/8/3
f 1039/8/3 1038/8/3 1037/8/3
f 1040/8/3 1038/8/3 1039/8/3
f 1043/8/3 1042/8/3 1041/8/3
f 1044/8/3 1042/8/3 1043/8/3
f 1047/8/3 1045/8/3 1044/8/3
f 1048/8/3 1045/8/3 1047/8/3
f 1049/8/3 1047/8/3 1046/8/3
f 1050/8/3 1047/8/3 1049/8/3
f 1054/8/3 1052/8/3 1051/8/3
f 1055/8/3 1052/8/3 1054/8/3
f 1057/8/3 1054/8/3 1053/8/3
f 1058/8/3 1054/8/3 1057/8/3
f 1059/8/3 1057/8/3 1056/8/3
f 1060/8/3 1057/8/3 1059/8/3
f 1065/16/3 1062/16/3 1061/16/3
f 1066/16/3 1062/16/3 1065/16/3
f 1067/5/3 1064/5/3 1063/5/3
f 1068/5/3 1064/5/3 1067/5/3
f 1070/16/3 1062/16/3 1066/16/3
f 1071/16/3 1062/16/3 1070/16/3
f 1072/8/3 1069/8/3 1068/8/3
f 1073/8/3 1069/8/3 1072/8/3
f 1075/16/3 1062/16/3 1071/16/3
f 1077/16/3 1075/16/3 1074/16/3
f 1082/16/3 1077/16/3 1076/16/3
f 1083/16/3 1062/16/3 1075/16/3
f 1083/16/3 1077/16/3 1082/16/3
f 1083/16/3 1075/16/3 1077/16/3
f 1084/6/3 1079/6/3 1078/6/3
f 1085/6/3 1079/6/3 1084/6/3
f 1086/8/3 1081/8/3 1080/8/3
f 1087/8/3 1081/8/3 1086/8/3
f 1089/8/3 1088/8/3 1087/8/3
f 1090/8/3 1088/8/3 1089/8/3
f 1091/6/3 1084/6/3 1078/6/3
f 1092/6/3 1079/6/3 1085/6/3
f 1095/6/3 1091/6/3 1078/6/3
f 1095/6/3 1092/6/3 1091/6/3
f 1096/6/3 1079/6/3 1092/6/3
f 1096/6/3 1092/6/3 1095/6/3
f 1098/6/3 1079/6/3 1096/6/3
f 1099/6/3 1079/6/3 1098/6/3
f 1100/8/3 1094/8/3 1093/8/3
f 1101/8/3 1094/8/3 1100/8/3
f 1103/6/3 1098/6/3 1097/6/3
f 1104/6/3 1098/6/3 1103/6/3
f 1109/6/3 1095/6/3 1078/6/3
f 1110/6/3 1103/6/3 1102/6/3
f 1111/6/3 1103/6/3 1110/6/3
f 1113/8/3 1106/8/3 1105/8/3
f 1114/8/3 1106/8/3 1113/8/3
f 1115/16/3 1108/16/3 1107/16/3
f 1116/16/3 1108/16/3 1115/16/3
f 1117/6/3 1109/6/3 1078/6/3
f 1117/6/3 1110/6/3 1109/6/3
f 1118/6/3 1110/6/3 1117/6/3
f 1119/8/3 1113/8/3 1112/8/3
f 1120/8/3 1113/8/3 1119/8/3
f 1121/16/3 1108/16/3 1116/16/3
f 1122/16/3 1108/16/3 1121/16/3
f 1124/16/3 1108/16/3 1122/16/3
f 1128/16/3 1124/16/3 1123/16/3
f 1129/8/3 1126/8/3 1125/8/3
f 1130/8/3 1126/8/3 1129/8/3
f 1131/16/3 1128/16/3 1127/16/3
f 1132/16/3 1108/16/3 1124/16/3
f 1132/16/3 1128/16/3 1131/16/3
f 1132/16/3 1124/16/3 1128/16/3
f 1136/6/3 1134/6/3 1133/6/3
f 1137/8/3 1135/8/3 1134/8/3
f 1137/6/3 1134/6/3 1136/6/3
f 1138/8/3 1135/8/3 1137/8/3
f 1139/8/3 1135/8/3 1138/8/3
f 1143/8/3 1139/8/3 1138/8/3
f 1144/8/3 1139/8/3 1143/8/3
f 1144/8/3 1143/8/3 1142/8/3
f 1145/8/3 1139/8/3 1144/8/3
f 1148/8/3 1144/8/3 1142/8/3
f 1149/17/3 1145/17/3 1144/17/3
f 1149/8/3 1144/8/3 1148/8/3
f 1150/8/3 1147/8/3 1146/8/3
f 1151/8/3 1147/8/3 1150/8/3
f 1153/8/3 1148/8/3 1142/8/3
f 1154/17/3 1149/17/3 1148/17/3
f 1154/8/3 1148/8/3 1153/8/3
f 1155/17/3 1145/17/3 1149/17/3
f 1155/17/3 1149/17/3 1154/17/3
f 1156/8/3 1152/8/3 1151/8/3
f 1157/8/3 1152/8/3 1156/8/3
f 1159/4/3 1155/4/3 1154/4/3
f 1160/4/3 1155/4/3 1159/4/3
f 1161/8/3 1158/8/3 1157/8/3
f 1162/8/3 1158/8/3 1161/8/3
f 1164/10/3 1141/10/3 1140/10/3
f 1165/10/3 1141/10/3 1164/10/3
f 1166/10/3 1141/10/3 1165/10/3
f 1167/17/3 1142/17/3 1141/17/3
f 1167/10/3 1141/10/3 1166/10/3
f 1168/8/3 1153/8/3 1142/8/3
f 1168/17/3 1142/17/3 1167/17/3
f 1169/8/3 1153/8/3 1168/8/3
f 1170/8/3 1153/8/3 1169/8/3
f 1171/17/3 1154/17/3 1153/17/3
f 1171/8/3 1153/8/3 1170/8/3
f 1172/4/3 1159/4/3 1154/4/3
f 1172/17/3 1154/17/3 1171/17/3
f 1173/17/3 1160/17/3 1159/17/3
f 1173/4/3 1159/4/3 1172/4/3
f 1174/17/3 1160/17/3 1173/17/3
f 1175/8/3 1163/8/3 1162/8/3
f 1176/8/3 1163/8/3 1175/8/3
f 1180/8/3 1170/8/3 1169/8/3
f 1181/17/3 1171/17/3 1170/17/3
f 1181/8/3 1170/8/3 1180/8/3
f 1182/4/3 1172/4/3 1171/4/3
f 1182/4/3 1173/4/3 1172/4/3
f 1183/4/3 1173/4/3 1182/4/3
f 1184/8/3 1177/8/3 1176/8/3
f 1185/8/3 1177/8/3 1184/8/3
f 1186/17/3 1171/17/3 1181/17/3
f 1186/17/3 1181/17/3 1180/17/3
f 1187/4/3 1182/4/3 1171/4/3
f 1187/17/3 1171/17/3 1186/17/3
f 1190/17/3 1179/17/3 1178/17/3
f 1191/17/3 1179/17/3 1190/17/3
f 1192/4/3 1182/4/3 1187/4/3
f 1192/4/3 1187/4/3 1186/4/3
f 1193/4/3 1182/4/3 1192/4/3
f 1194/8/3 1189/8/3 1188/8/3
f 1195/8/3 1189/8/3 1194/8/3
f 1199/17/3 1193/17/3 1192/17/3
f 1199/4/3 1192/4/3 1186/4/3
f 1200/17/3 1193/17/3 1199/17/3
f 1201/4/3 1199/4/3 1186/4/3
f 1201/4/3 1200/4/3 1199/4/3
f 1202/4/3 1200/4/3 1201/4/3
f 1203/17/3 1198/17/3 1197/17/3
f 1204/17/3 1198/17/3 1203/17/3
f 1205/8/3 1180/8/3 1169/8/3
f 1206/17/3 1186/17/3 1180/17/3
f 1206/4/3 1201/4/3 1186/4/3
f 1207/17/3 1202/17/3 1201/17/3
f 1207/4/3 1201/4/3 1206/4/3
f 1208/17/3 1202/17/3 1207/17/3
f 1210/8/3 1196/8/3 1195/8/3
f 1211/8/3 1196/8/3 1210/8/3
f 1212/17/3 1203/17/3 1197/17/3
f 1213/17/3 1203/17/3 1212/17/3
f 1214/8/3 1205/8/3 1204/8/3
f 1215/17/3 1207/17/3 1206/17/3
f 1215/8/3 1180/8/3 1205/8/3
f 1215/8/3 1205/8/3 1214/8/3
f 1215/17/3 1206/17/3 1180/17/3
f 1216/17/3 1207/17/3 1215/17/3
f 1217/8/3 1210/8/3 1209/8/3
f 1218/8/3 1210/8/3 1217/8/3
f 1219/17/3 1212/17/3 1197/17/3
f 1220/17/3 1212/17/3 1219/17/3
f 1221/17/3 1214/17/3 1213/17/3
f 1222/17/3 1207/17/3 1216/17/3
f 1222/8/3 1215/8/3 1214/8/3
f 1222/8/3 1216/8/3 1215/8/3
f 1223/4/3 1208/4/3 1207/4/3
f 1223/17/3 1207/17/3 1222/17/3
f 1224/4/3 1208/4/3 1223/4/3
f 1229/10/3 1166/10/3 1165/10/3
f 1230/10/3 1166/10/3 1229/10/3
f 1232/17/3 1221/17/3 1220/17/3
f 1233/4/3 1225/4/3 1224/4/3
f 1236/8/3 1227/8/3 1226/8/3
f 1237/8/3 1227/8/3 1236/8/3
f 1238/8/3 1223/8/3 1222/8/3
f 1238/17/3 1224/17/3 1223/17/3
f 1239/4/3 1233/4/3 1224/4/3
f 1239/17/3 1224/17/3 1238/17/3
f 1240/17/3 1234/17/3 1233/17/3
f 1240/4/3 1233/4/3 1239/4/3
f 1241/17/3 1234/17/3 1240/17/3
f 1243/8/3 1236/8/3 1235/8/3
f 1244/8/3 1236/8/3 1243/8/3
f 1245/8/3 1239/8/3 1238/8/3
f 1245/17/3 1240/17/3 1239/17/3
f 1246/4/3 1241/4/3 1240/4/3
f 1246/17/3 1240/17/3 1245/17/3
f 1247/4/3 1241/4/3 1246/4/3
f 1249/8/3 1243/8/3 1242/8/3
f 1250/8/3 1243/8/3 1249/8/3
f 1251/17/3 1247/17/3 1246/17/3
f 1251/8/3 1246/8/3 1245/8/3
f 1252/17/3 1247/17/3 1251/17/3
f 1254/8/3 1249/8/3 1248/8/3
f 1255/8/3 1249/8/3 1254/8/3
f 1256/8/3 1254/8/3 1253/8/3
f 1257/8/3 1254/8/3 1256/8/3
f 1258/10/3 1231/10/3 1230/10/3
f 1258/10/3 1229/10/3 1228/10/3
f 1258/10/3 1230/10/3 1229/10/3
f 1259/17/3 1232/17/3 1231/17/3
f 1259/10/3 1231/10/3 1258/10/3
f 1260/8/3 1222/8/3 1214/8/3
f 1260/17/3 1232/17/3 1259/17/3
f 1260/17/3 1214/17/3 1221/17/3
f 1260/8/3 1245/8/3 1238/8/3
f 1260/8/3 1251/8/3 1245/8/3
f 1260/17/3 1221/17/3 1232/17/3
f 1260/8/3 1252/8/3 1251/8/3
f 1260/8/3 1238/8/3 1222/8/3
f 1261/8/3 1252/8/3 1260/8/3
f 1262/8/3 1252/8/3 1261/8/3
f 1265/8/3 1262/8/3 1261/8/3
f 1266/6/3 1264/6/3 1263/6/3
f 1267/8/3 1265/8/3 1264/8/3
f 1267/6/3 1264/6/3 1266/6/3
f 1268/8/3 1262/8/3 1265/8/3
f 1268/8/3 1265/8/3 1267/8/3
f 1271/4/3 1270/4/3 1269/4/3
f 1272/4/3 1270/4/3 1271/4/3
f 1275/8/3 1274/8/3 1273/8/3
f 1276/8/3 1274/8/3 1275/8/3
f 1278/8/3 1277/8/3 1276/8/3
f 1279/8/3 1277/8/3 1278/8/3
f 1282/8/3 1280/8/3 1279/8/3
f 1283/8/3 1280/8/3 1282/8/3
f 1285/8/3 1282/8/3 1281/8/3
f 1286/8/3 1282/8/3 1285/8/3
f 1287/8/3 1285/8/3 1284/8/3
f 1288/8/3 1285/8/3 1287/8/3
f 1291/4/3 1290/4/3 1289/4/3
f 1292/4/3 1290/4/3 1291/4/3
f 1295/8/3 1294/8/3 1293/8/3
f 1296/8/3 1294/8/3 1295/8/3
f 1299/8/3 1298/8/3 1297/8/3
f 1300/8/3 1298/8/3 1299/8/3
f 1303/8/3 1302/8/3 1301/8/3
f 1304/8/3 1302/8/3 1303/8/3
f 1307/8/3 1306/8/3 1305/8/3
f 1308/8/3 1306/8/3 1307/8/3
f 1309/8/4 1310/8/4 1311/8/4
f 1311/8/4 1310/8/4 1312/8/4
f 1312/8/4 1313/8/4 1314/8/4
f 1314/8/4 1313/8/4 1315/8/4
f 1315/8/4 1316/8/4 1318/8/4
f 1318/8/4 1316/8/4 1319/8/4
f 1317/8/4 1318/8/4 1321/8/4
f 1321/8/4 1318/8/4 1322/8/4
f 1320/8/4 1321/8/4 1323/8/4
f 1323/8/4 1321/8/4 1324/8/4
f 1325/4/4 1326/4/4 1327/4/4
f 1327/4/4 1326/4/4 1328/4/4
f 1329/4/4 1330/4/4 1331/4/4
f 1331/4/4 1330/4/4 1332/4/4
f 1333/8/4 1334/8/4 1335/8/4
f 1335/8/4 1334/8/4 1336/8/4
f 1336/8/4 1337/8/4 1338/8/4
f 1338/8/4 1337/8/4 1339/8/4
f 1339/8/4 1340/8/4 1341/8/4
f 1341/8/4 1340/8/4 1342/8/4
f 1342/8/4 1343/8/4 1344/8/4
f 1344/8/4 1343/8/4 1345/8/4
f 1345/8/4 1346/8/4 1347/8/4
f 1347/8/4 1346/8/4 1348/8/4
f 1349/8/4 1350/8/4 1351/8/4
f 1351/8/4 1350/8/4 1352/8/4
f 1352/8/4 1353/8/4 1355/8/4
f 1355/8/4 1353/8/4 1356/8/4
f 1354/8/4 1355/8/4 1357/8/4
f 1357/8/4 1355/8/4 1358/8/4
f 1359/8/4 1360/8/4 1362/8/4
f 1362/8/4 1360/8/4 1363/8/4
f 1361/8/4 1362/8/4 1365/8/4
f 1365/8/4 1362/8/4 1366/8/4
f 1364/8/4 1365/8/4 1368/8/4
f 1368/8/4 1365/8/4 1369/8/4
f 1367/8/4 1368/8/4 1371/8/4
f 1371/8/4 1368/8/4 1372/8/4
f 1370/8/4 1371/8/4 1373/8/4
f 1373/8/4 1371/8/4 1374/8/4
f 1375/6/4 1376/6/4 1378/6/4
f 1376/8/4 1377/8/4 1379/8/4
f 1378/6/4 1376/6/4 1379/6/4
f 1379/8/4 1377/8/4 1380/8/4
f 1380/8/4 1377/8/4 1381/8/4
f 1380/8/4 1381/8/4 1386/8/4
f 1381/5/4 1382/5/4 1387/5/4
f 1386/8/4 1381/8/4 1387/8/4
f 1387/5/4 1382/5/4 1388/5/4
f 1385/8/4 1386/8/4 1390/8/4
f 1388/8/4 1389/8/4 1390/8/4
f 1387/8/4 1388/8/4 1390/8/4
f 1386/8/4 1387/8/4 1390/8/4
f 1390/8/4 1389/8/4 1391/8/4
f 1385/8/4 1390/8/4 1392/8/4
f 1392/8/4 1390/8/4 1393/8/4
f 1385/8/4 1392/8/4 1394/8/4
f 1394/8/4 1392/8/4 1395/8/4
f 1383/10/4 1384/10/4 1396/10/4
f 1396/10/4 1384/10/4 1397/10/4
f 1398/8/4 1399/8/4 1400/8/4
f 1400/8/4 1399/8/4 1401/8/4
f 1401/8/4 1402/8/4 1403/8/4
f 1403/8/4 1402/8/4 1404/8/4
f 1405/8/4 1406/8/4 1409/8/4
f 1409/8/4 1406/8/4 1410/8/4
f 1407/8/4 1408/8/4 1411/8/4
f 1411/8/4 1408/8/4 1412/8/4
f 1413/8/4 1414/8/4 1416/8/4
f 1416/8/4 1414/8/4 1417/8/4
f 1397/10/4 1384/10/4 1419/10/4
f 1415/8/4 1416/8/4 1420/8/4
f 1420/8/4 1416/8/4 1421/8/4
f 1385/8/4 1394/8/4 1422/8/4
f 1422/8/4 1423/8/4 1424/8/4
f 1424/8/4 1425/8/4 1426/8/4
f 1418/10/4 1419/10/4 1429/10/4
f 1384/17/4 1385/17/4 1430/17/4
f 1429/10/4 1419/10/4 1430/10/4
f 1419/10/4 1384/10/4 1430/10/4
f 1385/8/4 1422/8/4 1431/8/4
f 1430/17/4 1385/17/4 1431/17/4
f 1422/8/4 1424/8/4 1431/8/4
f 1424/8/4 1426/8/4 1431/8/4
f 1431/8/4 1426/8/4 1432/8/4
f 1426/5/4 1427/5/4 1433/5/4
f 1432/8/4 1426/8/4 1433/8/4
f 1427/8/4 1428/8/4 1434/8/4
f 1433/5/4 1427/5/4 1434/5/4
f 1434/8/4 1428/8/4 1435/8/4
f 1432/8/4 1433/8/4 1438/8/4
f 1436/6/4 1437/6/4 1439/6/4
f 1437/8/4 1438/8/4 1440/8/4
f 1439/6/4 1437/6/4 1440/6/4
f 1438/8/4 1433/8/4 1441/8/4
f 1440/8/4 1438/8/4 1441/8/4
f 1444/8/4 1445/8/4 1446/8/4
f 1446/8/4 1445/8/4 1447/8/4
f 1447/8/4 1448/8/4 1449/8/4
f 1449/8/4 1448/8/4 1450/8/4
f 1450/8/4 1451/8/4 1452/8/4
f 1452/8/4 1451/8/4 1453/8/4
f 1442/16/4 1443/16/4 1454/16/4
f 1454/16/4 1443/16/4 1455/16/4
f 1456/8/4 1457/8/4 1458/8/4
f 1458/8/4 1457/8/4 1459/8/4
f 1461/8/4 1462/8/4 1463/8/4
f 1463/8/4 1462/8/4 1464/8/4
f 1459/8/4 1460/8/4 1466/8/4
f 1466/8/4 1460/8/4 1467/8/4
f 1465/8/4 1466/8/4 1470/8/4
f 1470/8/4 1466/8/4 1471/8/4
f 1472/8/4 1473/8/4 1475/8/4
f 1475/8/4 1473/8/4 1476/8/4
f 1474/8/4 1475/8/4 1478/8/4
f 1478/8/4 1475/8/4 1479/8/4
f 1477/8/4 1478/8/4 1480/8/4
f 1480/8/4 1478/8/4 1481/8/4
f 1468/16/4 1469/16/4 1482/16/4
f 1482/16/4 1469/16/4 1483/16/4
f 1484/8/4 1485/8/4 1487/8/4
f 1487/8/4 1485/8/4 1488/8/4
f 1486/5/4 1487/5/4 1490/5/4
f 1490/5/4 1487/5/4 1491/5/4
f 1489/5/4 1490/5/4 1491/5/4
f 1491/5/4 1487/5/4 1492/5/4
f 1489/5/4 1491/5/4 1495/5/4
f 1495/5/4 1491/5/4 1496/5/4
f 1493/8/4 1494/8/4 1497/8/4
f 1497/8/4 1494/8/4 1498/8/4
f 1498/8/4 1499/8/4 1500/8/4
f 1500/8/4 1499/8/4 1501/8/4
f 1503/8/4 1504/8/4 1505/8/4
f 1505/8/4 1504/8/4 1506/8/4
f 1501/8/4 1502/8/4 1508/8/4
f 1508/8/4 1502/8/4 1509/8/4
f 1507/8/4 1508/8/4 1511/8/4
f 1511/8/4 1508/8/4 1512/8/4
f 1510/8/4 1511/8/4 1515/8/4
f 1515/8/4 1511/8/4 1516/8/4
f 1513/5/4 1514/5/4 1517/5/4
f 1517/5/4 1514/5/4 1518/5/4
f 1518/5/4 1519/5/4 1520/5/4
f 1520/5/4 1519/5/4 1521/5/4
f 1521/8/4 1522/8/4 1523/8/4
f 1523/8/4 1522/8/4 1524/8/4
f 1525/8/4 1526/8/4 1527/8/4
f 1527/8/4 1526/8/4 1528/8/4
f 1528/8/4 1529/8/4 1532/8/4
f 1532/8/4 1529/8/4 1533/8/4
f 1533/8/4 1534/8/4 1535/8/4
f 1535/8/4 1534/8/4 1536/8/4
f 1536/8/4 1537/8/4 1539/8/4
f 1539/8/4 1537/8/4 1540/8/4
f 1538/8/4 1539/8/4 1542/8/4
f 1542/8/4 1539/8/4 1543/8/4
f 1530/5/4 1531/5/4 1544/5/4
f 1544/5/4 1531/5/4 1545/5/4
f 1541/8/4 1542/8/4 1547/8/4
f 1547/8/4 1542/8/4 1548/8/4
f 1546/8/4 1547/8/4 1549/8/4
f 1549/8/4 1547/8/4 1550/8/4
f 1551/8/4 1552/8/4 1554/8/4
f 1554/8/4 1552/8/4 1555/8/4
f 1556/8/4 1557/8/4 1558/8/4
f 1558/8/4 1557/8/4 1559/8/4
f 1559/8/4 1560/8/4 1562/8/4
f 1562/8/4 1560/8/4 1563/8/4
f 1561/8/4 1562/8/4 1564/8/4
f 1564/8/4 1562/8/4 1565/8/4
f 1553/5/4 1554/5/4 1566/5/4
f 1553/5/4 1566/5/4 1568/5/4
f 1566/8/4 1567/8/4 1569/8/4
f 1568/5/4 1566/5/4 1569/5/4
f 1569/8/4 1567/8/4 1570/8/4
f 1571/8/4 1572/8/4 1573/8/4
f 1573/8/4 1572/8/4 1574/8/4
f 1575/8/4 1576/8/4 1577/8/4
f 1577/8/4 1576/8/4 1578/8/4
f 1579/8/4 1580/8/4 1581/8/4
f 1581/8/4 1580/8/4 1582/8/4
f 1583/8/4 1584/8/4 1585/8/4
f 1585/8/4 1584/8/4 1586/8/4
f 1591/16/5 1588/16/5 1587/16/5
f 1592/16/5 1588/16/5 1591/16/5
f 1593/16/5 1590/16/5 1589/16/5
f 1594/16/5 1590/16/5 1593/16/5
f 1597/10/5 1596/10/5 1595/10/5
f 1598/10/5 1596/10/5 1597/10/5
f 1603/4/5 1602/4/5 1601/4/5
f 1604/4/5 1602/4/5 1603/4/5
f 1605/4/5 1600/4/5 1599/4/5
f 1606/4/5 1600/4/5 1605/4/5
f 1611/6/5 1608/6/5 1607/6/5
f 1612/6/5 1608/6/5 1611/6/5
f 1615/6/5 1610/6/5 1609/6/5
f 1616/6/5 1610/6/5 1615/6/5
f 1617/6/5 1614/6/5 1613/6/5
f 1618/6/5 1614/6/5 1617/6/5
f 1619/6/5 1617/6/5 1613/6/5
f 1620/6/5 1614/6/5 1618/6/5
f 1621/6/5 1615/6/5 1609/6/5
f 1622/6/5 1610/6/5 1616/6/5
f 1623/6/5 1621/6/5 1609/6/5
f 1623/6/5 1622/6/5 1621/6/5
f 1624/6/5 1610/6/5 1622/6/5
f 1624/6/5 1622/6/5 1623/6/5
f 1625/6/5 1620/6/5 1619/6/5
f 1625/6/5 1619/6/5 1613/6/5
f 1626/6/5 1614/6/5 1620/6/5
f 1626/6/5 1620/6/5 1625/6/5
f 1629/6/5 1628/6/5 1627/6/5
f 1630/6/5 1628/6/5 1629/6/5
f 1633/6/5 1632/6/5 1631/6/5
f 1634/6/5 1632/6/5 1633/6/5
f 1639/6/5 1636/6/5 1635/6/5
f 1640/6/5 1636/6/5 1639/6/5
f 1641/6/5 1638/6/5 1637/6/5
f 1642/6/5 1638/6/5 1641/6/5
f 1647/8/5 1646/8/5 1645/8/5
f 1648/8/5 1646/8/5 1647/8/5
f 1649/8/5 1644/8/5 1643/8/5
f 1650/8/5 1644/8/5 1649/8/5
f 1651/8/5 1646/8/5 1648/8/5
f 1652/8/5 1646/8/5 1651/8/5
f 1655/5/5 1654/5/5 1653/5/5
f 1656/5/5 1654/5/5 1655/5/5
f 1657/5/5 1654/5/5 1656/5/5
f 1658/5/5 1654/5/5 1657/5/5
f 1659/5/5 1654/5/5 1658/5/5
f 1660/5/5 1654/5/5 1659/5/5
f 1663/5/5 1662/5/5 1661/5/5
f 1664/5/5 1662/5/5 1663/5/5
f 1665/5/5 1662/5/5 1664/5/5
f 1666/5/5 1662/5/5 1665/5/5
f 1667/5/5 1665/5/5 1664/5/5
f 1668/5/5 1665/5/5 1667/5/5
f 1672/5/5 1670/5/5 1669/5/5
f 1673/5/5 1670/5/5 1672/5/5
f 1675/5/5 1672/5/5 1671/5/5
f 1676/5/5 1672/5/5 1675/5/5
f 1677/5/5 1674/5/5 1673/5/5
f 1678/5/5 1674/5/5 1677/5/5
f 1683/5/5 1680/5/5 1679/5/5
f 1684/5/5 1680/5/5 1683/5/5
f 1688/5/5 1682/5/5 1681/5/5
f 1689/5/5 1682/5/5 1688/5/5
f 1690/5/5 1686/5/5 1685/5/5
f 1691/5/5 1688/5/5 1687/5/5
f 1692/5/5 1690/5/5 1685/5/5
f 1692/5/5 1691/5/5 1690/5/5
f 1693/5/5 1688/5/5 1691/5/5
f 1693/5/5 1691/5/5 1692/5/5
f 1699/5/5 1695/5/5 1694/5/5
f 1700/5/5 1697/5/5 1696/5/5
f 1703/5/5 1699/5/5 1698/5/5
f 1705/5/5 1703/5/5 1702/5/5
f 1706/5/5 1701/5/5 1700/5/5
f 1708/5/5 1707/5/5 1706/5/5
f 1711/5/5 1705/5/5 1704/5/5
f 1712/5/5 1711/5/5 1710/5/5
f 1713/5/5 1705/5/5 1711/5/5
f 1713/5/5 1711/5/5 1712/5/5
f 1714/5/5 1699/5/5 1703/5/5
f 1714/5/5 1705/5/5 1713/5/5
f 1714/5/5 1703/5/5 1705/5/5
f 1715/5/5 1695/5/5 1699/5/5
f 1715/5/5 1699/5/5 1714/5/5
f 1716/5/5 1695/5/5 1715/5/5
f 1717/5/5 1709/5/5 1708/5/5
f 1717/5/5 1700/5/5 1696/5/5
f 1717/5/5 1706/5/5 1700/5/5
f 1717/5/5 1708/5/5 1706/5/5
f 1718/5/5 1709/5/5 1717/5/5
f 1719/5/5 1709/5/5 1718/5/5
f 1720/5/5 1709/5/5 1719/5/5
f 1721/5/5 1709/5/5 1720/5/5
f 1726/8/5 1723/8/5 1722/8/5
f 1727/8/5 1723/8/5 1726/8/5
f 1730/8/5 1725/8/5 1724/8/5
f 1731/8/5 1725/8/5 1730/8/5
f 1732/8/5 1728/8/5 1727/8/5
f 1733/8/5 1728/8/5 1732/8/5
f 1734/8/5 1730/8/5 1729/8/5
f 1735/8/5 1730/8/5 1734/8/5
f 1736/8/5 1728/8/5 1733/8/5
f 1737/8/5 1728/8/5 1736/8/5
f 1739/8/5 1738/8/5 1737/8/5
f 1740/8/5 1738/8/5 1739/8/5
f 1741/8/5 1738/8/5 1740/8/5
f 1742/8/5 1738/8/5 1741/8/5
f 1743/8/5 1741/8/5 1740/8/5
f 1744/8/5 1741/8/5 1743/8/5
f 1748/3/5 1746/3/5 1745/3/5
f 1749/3/5 1746/3/5 1748/3/5
f 1751/4/5 1748/4/5 1747/4/5
f 1752/9/5 1749/9/5 1748/9/5
f 1752/4/5 1748/4/5 1751/4/5
f 1753/4/5 1750/4/5 1749/4/5
f 1753/9/5 1749/9/5 1752/9/5
f 1754/4/5 1750/4/5 1753/4/5
f 1759/14/5 1756/14/5 1755/14/5
f 1760/14/5 1756/14/5 1759/14/5
f 1761/14/5 1758/14/5 1757/14/5
f 1762/14/5 1758/14/5 1761/14/5
f 1767/5/5 1764/5/5 1763/5/5
f 1768/5/5 1764/5/5 1767/5/5
f 1770/5/5 1766/5/5 1765/5/5
f 1771/5/5 1766/5/5 1770/5/5
f 1772/5/5 1770/5/5 1769/5/5
f 1773/5/5 1770/5/5 1772/5/5
f 1778/5/5 1775/5/5 1774/5/5
f 1779/5/5 1775/5/5 1778/5/5
f 1780/5/5 1777/5/5 1776/5/5
f 1781/5/5 1777/5/5 1780/5/5
f 1787/17/5 1783/17/5 1782/17/5
f 1788/17/5 1783/17/5 1787/17/5
f 1789/17/5 1785/17/5 1784/17/5
f 1790/17/5 1785/17/5 1789/17/5
f 1791/5/5 1787/5/5 1786/5/5
f 1792/8/5 1788/8/5 1787/8/5
f 1792/5/5 1787/5/5 1791/5/5
f 1793/8/5 1788/8/5 1792/8/5
f 1794/8/5 1790/8/5 1789/8/5
f 1795/8/5 1790/8/5 1794/8/5
f 1798/8/5 1797/8/5 1796/8/5
f 1799/8/5 1797/8/5 1798/8/5
f 1802/8/5 1801/8/5 1800/8/5
f 1803/8/5 1801/8/5 1802/8/5
f 1806/8/5 1805/8/5 1804/8/5
f 1807/8/5 1805/8/5 1806/8/5
f 1808/16/6 1809/16/6 1812/16/6
f 1812/16/6 1809/16/6 1813/16/6
f 1810/16/6 1811/16/6 1814/16/6
f 1814/16/6 1811/16/6 1815/16/6
f 1808/16/6 1812/16/6 1816/16/6
f 1816/16/6 1812/16/6 1817/16/6
f 1813/16/6 1809/16/6 1818/16/6
f 1818/16/6 1809/16/6 1819/16/6
f 1810/16/6 1814/16/6 1820/16/6
f 1820/16/6 1814/16/6 1821/16/6
f 1815/16/6 1811/16/6 1822/16/6
f 1822/16/6 1811/16/6 1823/16/6
f 1824/16/6 1825/16/6 1828/16/6
f 1828/16/6 1825/16/6 1829/16/6
f 1826/16/6 1827/16/6 1830/16/6
f 1830/16/6 1827/16/6 1831/16/6
f 1824/16/6 1828/16/6 1832/16/6
f 1832/16/6 1828/16/6 1833/16/6
f 1829/16/6 1825/16/6 1834/16/6
f 1834/16/6 1825/16/6 1835/16/6
f 1826/16/6 1830/16/6 1836/16/6
f 1836/16/6 1830/16/6 1837/16/6
f 1831/16/6 1827/16/6 1838/16/6
f 1838/16/6 1827/16/6 1839/16/6
f 1840/16/6 1841/16/6 1844/16/6
f 1844/16/6 1841/16/6 1845/16/6
f 1842/16/6 1843/16/6 1846/16/6
f 1846/16/6 1843/16/6 1847/16/6
f 1848/16/6 1849/16/6 1852/16/6
f 1852/16/6 1849/16/6 1853/16/6
f 1850/16/6 1851/16/6 1854/16/6
f 1854/16/6 1851/16/6 1855/16/6
f 1848/16/6 1852/16/6 1856/16/6
f 1853/16/6 1849/16/6 1857/16/6
f 1850/16/6 1854/16/6 1858/16/6
f 1855/16/6 1851/16/6 1859/16/6
f 1848/16/6 1856/16/6 1860/16/6
f 1856/16/6 1857/16/6 1860/16/6
f 1857/16/6 1849/16/6 1861/16/6
f 1860/16/6 1857/16/6 1861/16/6
f 1858/16/6 1859/16/6 1862/16/6
f 1850/16/6 1858/16/6 1862/16/6
f 1859/16/6 1851/16/6 1863/16/6
f 1862/16/6 1859/16/6 1863/16/6
f 1864/6/6 1865/6/6 1868/6/6
f 1868/6/6 1865/6/6 1869/6/6
f 1866/6/6 1867/6/6 1870/6/6
f 1870/6/6 1867/6/6 1871/6/6
f 1872/6/6 1873/6/6 1874/6/6
f 1874/6/6 1873/6/6 1875/6/6
f 1876/6/6 1877/6/6 1878/6/6
f 1878/6/6 1877/6/6 1879/6/6
f 1880/6/6 1881/6/6 1882/6/6
f 1882/6/6 1881/6/6 1883/6/6
f 1884/6/6 1885/6/6 1886/6/6
f 1886/6/6 1885/6/6 1887/6/6
f 1888/8/6 1889/8/6 1892/8/6
f 1892/8/6 1889/8/6 1893/8/6
f 1890/8/6 1891/8/6 1894/8/6
f 1894/8/6 1891/8/6 1895/8/6
f 1896/5/6 1897/5/6 1898/5/6
f 1898/5/6 1897/5/6 1899/5/6
f 1900/5/6 1901/5/6 1902/5/6
f 1902/5/6 1901/5/6 1903/5/6
f 1904/5/6 1905/5/6 1909/5/6
f 1909/5/6 1905/5/6 1910/5/6
f 1906/5/6 1907/5/6 1911/5/6
f 1911/5/6 1907/5/6 1912/5/6
f 1908/5/6 1909/5/6 1915/5/6
f 1915/5/6 1909/5/6 1916/5/6
f 1912/5/6 1913/5/6 1917/5/6
f 1917/5/6 1913/5/6 1918/5/6
f 1918/5/6 1913/5/6 1919/5/6
f 1914/5/6 1915/5/6 1922/5/6
f 1922/5/6 1915/5/6 1923/5/6
f 1919/5/6 1920/5/6 1924/5/6
f 1924/5/6 1920/5/6 1925/5/6
f 1921/5/6 1922/5/6 1927/5/6
f 1927/5/6 1922/5/6 1928/5/6
f 1926/5/6 1927/5/6 1929/5/6
f 1929/5/6 1927/5/6 1930/5/6
f 1931/3/6 1932/3/6 1933/3/6
f 1933/3/6 1932/3/6 1934/3/6
f 1935/4/6 1936/4/6 1937/4/6
f 1937/4/6 1936/4/6 1938/4/6
f 1938/4/6 1936/4/6 1939/4/6
f 1939/4/6 1936/4/6 1940/4/6
f 1938/4/6 1939/4/6 1941/4/6
f 1941/4/6 1939/4/6 1942/4/6
f 1943/5/6 1944/5/6 1948/5/6
f 1948/5/6 1944/5/6 1949/5/6
f 1945/5/6 1946/5/6 1950/5/6
f 1950/5/6 1946/5/6 1951/5/6
f 1947/5/6 1948/5/6 1952/5/6
f 1952/5/6 1948/5/6 1953/5/6
f 1954/17/6 1955/17/6 1959/17/6
f 1959/17/6 1955/17/6 1960/17/6
f 1960/17/6 1955/17/6 1961/17/6
f 1956/17/6 1957/17/6 1962/17/6
f 1962/17/6 1957/17/6 1963/17/6
f 1963/17/6 1957/17/6 1964/17/6
f 1958/5/6 1959/5/6 1967/5/6
f 1959/8/6 1960/8/6 1968/8/6
f 1967/5/6 1959/5/6 1968/5/6
f 1968/8/6 1960/8/6 1969/8/6
f 1963/8/6 1964/8/6 1970/8/6
f 1964/5/6 1965/5/6 1971/5/6
f 1970/8/6 1964/8/6 1971/8/6
f 1971/5/6 1965/5/6 1972/5/6
f 1966/5/6 1967/5/6 1975/5/6
f 1975/5/6 1967/5/6 1976/5/6
f 1972/5/6 1973/5/6 1977/5/6
f 1977/5/6 1973/5/6 1978/5/6
f 1974/5/6 1975/5/6 1981/5/6
f 1981/5/6 1975/5/6 1982/5/6
f 1978/5/6 1979/5/6 1983/5/6
f 1983/5/6 1979/5/6 1984/5/6
f 1980/5/6 1981/5/6 1986/5/6
f 1986/5/6 1981/5/6 1987/5/6
f 1984/5/6 1985/5/6 1988/5/6
f 1988/5/6 1985/5/6 1989/5/6
f 1990/8/6 1991/8/6 1993/8/6
f 1993/8/6 1991/8/6 1994/8/6
f 1994/8/6 1991/8/6 1995/8/6
f 1995/8/6 1991/8/6 1996/8/6
f 1992/8/6 1993/8/6 1999/8/6
f 1993/8/6 1994/8/6 1999/8/6
f 1999/8/6 1994/8/6 2000/8/6
f 2000/8/6 1994/8/6 2001/8/6
f 1995/8/6 1996/8/6 2002/8/6
f 1996/8/6 1997/8/6 2002/8/6
f 2002/8/6 1997/8/6 2003/8/6
f 2003/8/6 1997/8/6 2004/8/6
f 1999/8/6 2000/8/6 2007/8/6
f 1998/8/6 1999/8/6 2007/8/6
f 2007/8/6 2000/8/6 2008/8/6
f 2004/8/6 2005/8/6 2009/8/6
f 2003/8/6 2004/8/6 2009/8/6
f 2009/8/6 2005/8/6 2010/8/6
f 2006/8/6 2007/8/6 2013/8/6
f 2010/8/6 2011/8/6 2014/8/6
f 2012/8/6 2013/8/6 2016/8/6
f 2013/8/6 2007/8/6 2016/8/6
f 2016/8/6 2007/8/6 2017/8/6
f 2014/8/6 2015/8/6 2018/8/6
f 2010/8/6 2014/8/6 2018/8/6
f 2018/8/6 2015/8/6 2019/8/6
f 2012/8/6 2016/8/6 2021/8/6
f 2019/8/6 2015/8/6 2022/8/6
f 2020/8/6 2021/8/6 2024/8/6
f 2021/8/6 2016/8/6 2024/8/6
f 2024/8/6 2016/8/6 2025/8/6
f 2022/8/6 2023/8/6 2026/8/6
f 2019/8/6 2022/8/6 2026/8/6
f 2026/8/6 2023/8/6 2027/8/6
f 2020/8/6 2024/8/6 2028/8/6
f 2027/8/6 2023/8/6 2031/8/6
f 2028/8/6 2029/8/6 2032/8/6
f 2020/8/6 2028/8/6 2032/8/6
f 2032/8/6 2029/8/6 2033/8/6
f 2030/8/6 2031/8/6 2034/8/6
f 2031/8/6 2023/8/6 2034/8/6
f 2034/8/6 2023/8/6 2035/8/6
f 2033/8/6 2029/8/6 2036/8/6
f 2030/8/6 2034/8/6 2039/8/6
f 2036/8/6 2037/8/6 2040/8/6
f 2033/8/6 2036/8/6 2040/8/6
f 2040/8/6 2037/8/6 2041/8/6
f 2038/8/6 2039/8/6 2042/8/6
f 2039/8/6 2034/8/6 2042/8/6
f 2042/8/6 2034/8/6 2043/8/6
f 2041/8/6 2037/8/6 2044/8/6
f 2044/8/6 2037/8/6 2045/8/6
f 2038/8/6 2042/8/6 2048/8/6
f 2048/8/6 2042/8/6 2049/8/6
f 2045/8/6 2046/8/6 2050/8/6
f 2050/8/6 2046/8/6 2051/8/6
f 2051/8/6 2046/8/6 2052/8/6
f 2047/8/6 2048/8/6 2055/8/6
f 2055/8/6 2048/8/6 2056/8/6
f 2056/8/6 2048/8/6 2057/8/6
f 2052/8/6 2053/8/6 2058/8/6
f 2051/8/6 2052/8/6 2058/8/6
f 2058/8/6 2053/8/6 2059/8/6
f 2059/8/6 2053/8/6 2060/8/6
f 2055/8/6 2056/8/6 2061/8/6
f 2054/8/6 2055/8/6 2061/8/6
f 2061/8/6 2056/8/6 2062/8/6
f 2062/8/6 2056/8/6 2063/8/6
f 2059/8/6 2060/8/6 2064/8/6
f 2061/8/6 2062/8/6 2064/8/6
f 2060/8/6 2061/8/6 2064/8/6
f 2064/8/6 2062/8/6 2065/8/6
f 2066/8/6 2067/8/6 2069/8/6
f 2069/8/6 2067/8/6 2070/8/6
f 2068/8/6 2069/8/6 2073/8/6
f 2073/8/6 2069/8/6 2074/8/6
f 2070/8/6 2071/8/6 2075/8/6
f 2075/8/6 2071/8/6 2076/8/6
f 2072/8/6 2073/8/6 2078/8/6
f 2078/8/6 2073/8/6 2079/8/6
f 2076/8/6 2077/8/6 2080/8/6
f 2080/8/6 2077/8/6 2081/8/6
f 2072/8/6 2078/8/6 2083/8/6
f 2083/8/6 2078/8/6 2084/8/6
f 2081/8/6 2077/8/6 2085/8/6
f 2085/8/6 2077/8/6 2086/8/6
f 2082/8/6 2083/8/6 2089/8/6
f 2089/8/6 2083/8/6 2090/8/6
f 2086/8/6 2087/8/6 2091/8/6
f 2091/8/6 2087/8/6 2092/8/6
f 2088/8/6 2089/8/6 2094/8/6
f 2094/8/6 2089/8/6 2095/8/6
f 2092/8/6 2093/8/6 2098/8/6
f 2098/8/6 2093/8/6 2099/8/6
f 2095/8/6 2096/8/6 2100/8/6
f 2100/8/6 2096/8/6 2101/8/6
f 2097/8/6 2098/8/6 2104/8/6
f 2104/8/6 2098/8/6 2105/8/6
f 2101/8/6 2102/8/6 2106/8/6
f 2103/8/6 2104/8/6 2109/8/6
f 2106/8/6 2107/8/6 2110/8/6
f 2101/8/6 2106/8/6 2110/8/6
f 2110/8/6 2107/8/6 2111/8/6
f 2108/8/6 2109/8/6 2114/8/6
f 2109/8/6 2104/8/6 2115/8/6
f 2114/8/6 2109/8/6 2115/8/6
f 2111/8/6 2112/8/6 2116/8/6
f 2116/8/6 2112/8/6 2117/8/6
f 2113/8/6 2114/8/6 2118/8/6
f 2118/8/6 2114/8/6 2119/8/6
f 2117/8/6 2118/8/6 2120/8/6
f 2120/8/6 2118/8/6 2121/8/6
f 2122/8/6 2123/8/6 2125/8/6
f 2125/8/6 2123/8/6 2126/8/6
f 2124/8/6 2125/8/6 2129/8/6
f 2129/8/6 2125/8/6 2130/8/6
f 2126/8/6 2127/8/6 2131/8/6
f 2131/8/6 2127/8/6 2132/8/6
f 2128/8/6 2129/8/6 2135/8/6
f 2135/8/6 2129/8/6 2136/8/6
f 2132/8/6 2133/8/6 2137/8/6
f 2137/8/6 2133/8/6 2138/8/6
f 2134/8/6 2135/8/6 2141/8/6
f 2141/8/6 2135/8/6 2142/8/6
f 2138/8/6 2139/8/6 2143/8/6
f 2143/8/6 2139/8/6 2144/8/6
f 2140/8/6 2141/8/6 2146/8/6
f 2146/8/6 2141/8/6 2147/8/6
f 2144/8/6 2145/8/6 2150/8/6
f 2150/8/6 2145/8/6 2151/8/6
f 2147/8/6 2148/8/6 2152/8/6
f 2152/8/6 2148/8/6 2153/8/6
f 2149/8/6 2150/8/6 2156/8/6
f 2156/8/6 2150/8/6 2157/8/6
f 2153/8/6 2154/8/6 2158/8/6
f 2158/8/6 2154/8/6 2159/8/6
f 2155/8/6 2156/8/6 2162/8/6
f 2162/8/6 2156/8/6 2163/8/6
f 2159/8/6 2160/8/6 2164/8/6
f 2164/8/6 2160/8/6 2165/8/6
f 2161/8/6 2162/8/6 2166/8/6
f 2166/8/6 2162/8/6 2167/8/6
f 2165/8/6 2166/8/6 2168/8/6
f 2168/8/6 2166/8/6 2169/8/6
f 2170/8/6 2171/8/6 2173/8/6
f 2173/8/6 2171/8/6 2174/8/6
f 2172/8/6 2173/8/6 2177/8/6
f 2177/8/6 2173/8/6 2178/8/6
f 2178/8/6 2173/8/6 2179/8/6
f 2174/8/6 2175/8/6 2180/8/6
f 2180/8/6 2175/8/6 2181/8/6
f 2181/8/6 2175/8/6 2182/8/6
f 2176/8/6 2177/8/6 2184/8/6
f 2177/8/6 2178/8/6 2184/8/6
f 2184/8/6 2178/8/6 2185/8/6
f 2182/8/6 2183/8/6 2186/8/6
f 2181/8/6 2182/8/6 2186/8/6
f 2186/8/6 2183/8/6 2187/8/6
f 2176/8/6 2184/8/6 2189/8/6
f 2189/8/6 2184/8/6 2190/8/6
f 2187/8/6 2183/8/6 2191/8/6
f 2191/8/6 2183/8/6 2192/8/6
f 2188/8/6 2189/8/6 2194/8/6
f 2194/8/6 2189/8/6 2195/8/6
f 2192/8/6 2193/8/6 2198/8/6
f 2198/8/6 2193/8/6 2199/8/6
f 2195/8/6 2196/8/6 2200/8/6
f 2197/8/6 2198/8/6 2203/8/6
f 2200/8/6 2201/8/6 2204/8/6
f 2195/8/6 2200/8/6 2204/8/6
f 2204/8/6 2201/8/6 2205/8/6
f 2205/8/6 2201/8/6 2206/8/6
f 2202/8/6 2203/8/6 2209/8/6
f 2203/8/6 2198/8/6 2210/8/6
f 2209/8/6 2203/8/6 2210/8/6
f 2210/8/6 2198/8/6 2211/8/6
f 2206/8/6 2207/8/6 2212/8/6
f 2205/8/6 2206/8/6 2212/8/6
f 2212/8/6 2207/8/6 2213/8/6
f 2208/8/6 2209/8/6 2214/8/6
f 2209/8/6 2210/8/6 2214/8/6
f 2214/8/6 2210/8/6 2215/8/6
f 2213/8/6 2214/8/6 2216/8/6
f 2216/8/6 2214/8/6 2217/8/6
f 2218/8/6 2219/8/6 2221/8/6
f 2221/8/6 2219/8/6 2222/8/6
f 2220/8/6 2221/8/6 2225/8/6
f 2225/8/6 2221/8/6 2226/8/6
f 2222/8/6 2223/8/6 2227/8/6
f 2227/8/6 2223/8/6 2228/8/6
f 2224/8/6 2225/8/6 2231/8/6
f 2231/8/6 2225/8/6 2232/8/6
f 2228/8/6 2229/8/6 2233/8/6
f 2233/8/6 2229/8/6 2234/8/6
f 2230/8/6 2231/8/6 2236/8/6
f 2236/8/6 2231/8/6 2237/8/6
f 2234/8/6 2235/8/6 2240/8/6
f 2240/8/6 2235/8/6 2241/8/6
f 2237/8/6 2238/8/6 2242/8/6
f 2242/8/6 2238/8/6 2243/8/6
f 2239/8/6 2240/8/6 2246/8/6
f 2246/8/6 2240/8/6 2247/8/6
f 2243/8/6 2244/8/6 2248/8/6
f 2248/8/6 2244/8/6 2249/8/6
f 2245/8/6 2246/8/6 2250/8/6
f 2250/8/6 2246/8/6 2251/8/6
f 2249/8/6 2250/8/6 2252/8/6
f 2252/8/6 2250/8/6 2253/8/6
f 2254/8/6 2255/8/6 2257/8/6
f 2257/8/6 2255/8/6 2258/8/6
f 2258/8/6 2255/8/6 2259/8/6
f 2259/8/6 2255/8/6 2260/8/6
f 2256/8/6 2257/8/6 2263/8/6
f 2257/8/6 2258/8/6 2263/8/6
f 2263/8/6 2258/8/6 2264/8/6
f 2264/8/6 2258/8/6 2265/8/6
f 2259/8/6 2260/8/6 2266/8/6
f 2260/8/6 2261/8/6 2266/8/6
f 2266/8/6 2261/8/6 2267/8/6
f 2267/8/6 2261/8/6 2268/8/6
f 2263/8/6 2264/8/6 2270/8/6
f 2262/8/6 2263/8/6 2270/8/6
f 2270/8/6 2264/8/6 2271/8/6
f 2268/8/6 2269/8/6 2272/8/6
f 2267/8/6 2268/8/6 2272/8/6
f 2272/8/6 2269/8/6 2273/8/6
f 2262/8/6 2270/8/6 2274/8/6
f 2273/8/6 2269/8/6 2277/8/6
f 2274/8/6 2275/8/6 2278/8/6
f 2262/8/6 2274/8/6 2278/8/6
f 2278/8/6 2275/8/6 2279/8/6
f 2279/8/6 2275/8/6 2280/8/6
f 2276/8/6 2277/8/6 2283/8/6
f 2277/8/6 2269/8/6 2284/8/6
f 2283/8/6 2277/8/6 2284/8/6
f 2284/8/6 2269/8/6 2285/8/6
f 2280/8/6 2281/8/6 2286/8/6
f 2279/8/6 2280/8/6 2286/8/6
f 2286/8/6 2281/8/6 2287/8/6
f 2287/8/6 2281/8/6 2288/8/6
f 2282/8/6 2283/8/6 2289/8/6
f 2283/8/6 2284/8/6 2289/8/6
f 2289/8/6 2284/8/6 2290/8/6
f 2290/8/6 2284/8/6 2291/8/6
f 2287/8/6 2288/8/6 2292/8/6
f 2289/8/6 2290/8/6 2292/8/6
f 2288/8/6 2289/8/6 2292/8/6
f 2292/8/6 2290/8/6 2293/8/6
f 2294/8/6 2295/8/6 2297/8/6
f 2297/8/6 2295/8/6 2298/8/6
f 2296/8/6 2297/8/6 2301/8/6
f 2301/8/6 2297/8/6 2302/8/6
f 2298/8/6 2299/8/6 2303/8/6
f 2303/8/6 2299/8/6 2304/8/6
f 2300/8/6 2301/8/6 2306/8/6
f 2306/8/6 2301/8/6 2307/8/6
f 2304/8/6 2305/8/6 2310/8/6
f 2310/8/6 2305/8/6 2311/8/6
f 2307/8/6 2308/8/6 2312/8/6
f 2312/8/6 2308/8/6 2313/8/6
f 2309/8/6 2310/8/6 2314/8/6
f 2314/8/6 2310/8/6 2315/8/6
f 2313/8/6 2314/8/6 2316/8/6
f 2316/8/6 2314/8/6 2317/8/6
f 2318/8/6 2319/8/6 2321/8/6
f 2321/8/6 2319/8/6 2322/8/6
f 2320/8/6 2321/8/6 2324/8/6
f 2324/8/6 2321/8/6 2325/8/6
f 2322/8/6 2323/8/6 2326/8/6
f 2326/8/6 2323/8/6 2327/8/6
f 2325/8/6 2326/8/6 2328/8/6
f 2328/8/6 2326/8/6 2329/8/6
f 2330/8/6 2331/8/6 2332/8/6
f 2332/8/6 2331/8/6 2333/8/6
f 2334/8/6 2335/8/6 2336/8/6
f 2336/8/6 2335/8/6 2337/8/6
f 2338/8/6 2339/8/6 2340/8/6
f 2340/8/6 2339/8/6 2341/8/6
f 2342/8/6 2343/8/6 2344/8/6
f 2344/8/6 2343/8/6 2345/8/6
f 2346/8/6 2347/8/6 2348/8/6
f 2348/8/6 2347/8/6 2349/8/6
