# MagicaVoxel @ Ephtracy

# group
o 

# material
mtllib lounge.mtl
usemtl palette

# normals
vn -1 0 0
vn 1 0 0
vn 0 0 1
vn 0 0 -1
vn 0 -1 0
vn 0 1 0

# texcoords
vt 0.341797 0.5
vt 0.958984 0.5
vt 0.990234 0.5
vt 0.994141 0.5

# verts
v 0 2 -1.9
v 0 2 -2.1
v 0 2 -3.8
v 0 2 -4
v 0 2.1 -1.9
v 0 2.1 -2.1
v 0 2.1 -3.8
v 0 2.1 -4
v 0 2.2 -2.1
v 0 2.2 -3.8
v 0 2.7 -1.9
v 0 2.7 -3.7
v 0 2.8 -3.7
v 0 2.8 -3.8
v 0 3 -3.8
v 0 3 -4
v 0.5 2 -1.9
v 0.5 2 -2.1
v 0.5 2 -3.8
v 0.5 2 -4
v 0.5 2.1 -1.9
v 0.5 2.1 -2.1
v 0.5 2.1 -3.8
v 0.5 2.1 -4
v 0.5 2.2 -1.9
v 0.5 2.2 -2.1
v 0.5 2.2 -3.8
v 0.5 2.2 -4
v 0.7 2 -3.1
v 0.7 2 -3.3
v 0.7 2.1 -3.1
v 0.7 2.1 -3.3
v 0.7 2.2 -3.1
v 0.7 2.2 -3.3
v 3.8 2 -3.1
v 3.8 2 -3.3
v 3.8 2 -3.8
v 3.8 2 -4
v 3.8 2.1 -3.1
v 3.8 2.1 -3.3
v 3.8 2.1 -3.8
v 3.8 2.1 -4
v 3.8 2.2 -3.1
v 3.8 2.2 -3.3
v 3.8 2.2 -3.8
v 3.8 2.2 -4
v 3.9 2.4 -3.1
v 3.9 2.4 -3.6
v 3.9 2.6 -3.1
v 3.9 2.6 -3.4
v 3.9 2.6 -3.6
v 3.9 2.6 -3.7
v 3.9 2.7 -3.4
v 3.9 2.7 -3.5
v 3.9 2.8 -3.5
v 3.9 2.8 -3.6
v 3.9 2.8 -3.7
v 3.9 2.8 -3.8
v 3.9 2.9 -3.6
v 3.9 2.9 -3.8
v 0.1 2.4 -1.9
v 0.1 2.4 -3.6
v 0.1 2.6 -3.6
v 0.1 2.6 -3.7
v 0.1 2.7 -1.9
v 0.1 2.7 -3.7
v 0.2 2 -1.9
v 0.2 2 -2.1
v 0.2 2 -3.8
v 0.2 2 -4
v 0.2 2.1 -1.9
v 0.2 2.1 -2.1
v 0.2 2.1 -3.8
v 0.2 2.1 -4
v 0.2 2.2 -1.9
v 0.2 2.2 -2.1
v 0.2 2.2 -3.8
v 0.2 2.2 -4
v 0.7 2 -1.9
v 0.7 2 -2.1
v 0.7 2 -3.8
v 0.7 2 -4
v 0.7 2.1 -1.9
v 0.7 2.1 -2.1
v 0.7 2.1 -3.8
v 0.7 2.1 -4
v 0.7 2.2 -2.1
v 0.7 2.2 -3.1
v 0.7 2.2 -3.8
v 0.7 2.2 -4
v 0.7 2.3 -1.9
v 0.7 2.3 -3.1
v 0.7 2.4 -1.9
v 0.7 2.4 -3.1
v 0.9 2 -3.1
v 0.9 2 -3.3
v 0.9 2.1 -3.1
v 0.9 2.1 -3.3
v 0.9 2.2 -3.1
v 0.9 2.2 -3.3
v 4 2 -3.1
v 4 2 -3.3
v 4 2 -3.8
v 4 2 -4
v 4 2.1 -3.1
v 4 2.1 -3.3
v 4 2.1 -3.8
v 4 2.1 -4
v 4 2.2 -3.3
v 4 2.2 -3.8
v 4 2.6 -3.1
v 4 2.6 -3.4
v 4 2.7 -3.4
v 4 2.7 -3.5
v 4 2.8 -3.5
v 4 2.8 -3.6
v 4 2.9 -3.6
v 4 2.9 -3.8
v 4 3 -3.8
v 4 3 -4
v 0 2 -1.9
v 0 2.1 -1.9
v 0 2.7 -1.9
v 0.1 2.3 -1.9
v 0.1 2.4 -1.9
v 0.1 2.7 -1.9
v 0.2 2 -1.9
v 0.2 2.1 -1.9
v 0.2 2.2 -1.9
v 0.5 2 -1.9
v 0.5 2.1 -1.9
v 0.5 2.2 -1.9
v 0.7 2 -1.9
v 0.7 2.1 -1.9
v 0.7 2.3 -1.9
v 0.7 2.4 -1.9
v 0.7 2 -3.1
v 0.7 2.1 -3.1
v 0.7 2.2 -3.1
v 0.7 2.3 -3.1
v 0.7 2.4 -3.1
v 0.8 2.3 -3.1
v 0.8 2.4 -3.1
v 0.9 2 -3.1
v 0.9 2.1 -3.1
v 0.9 2.2 -3.1
v 1.5 2.3 -3.1
v 1.5 2.4 -3.1
v 1.7 2.3 -3.1
v 1.7 2.4 -3.1
v 2.4 2.3 -3.1
v 2.4 2.4 -3.1
v 2.6 2.3 -3.1
v 2.6 2.4 -3.1
v 3.2 2.3 -3.1
v 3.2 2.4 -3.1
v 3.4 2.3 -3.1
v 3.4 2.4 -3.1
v 3.8 2 -3.1
v 3.8 2.1 -3.1
v 3.8 2.2 -3.1
v 3.9 2.3 -3.1
v 3.9 2.4 -3.1
v 3.9 2.6 -3.1
v 4 2 -3.1
v 4 2.1 -3.1
v 4 2.6 -3.1
v 3.9 2.6 -3.4
v 3.9 2.7 -3.4
v 4 2.6 -3.4
v 4 2.7 -3.4
v 3.9 2.7 -3.5
v 3.9 2.8 -3.5
v 4 2.7 -3.5
v 4 2.8 -3.5
v 0.1 2.4 -3.6
v 0.1 2.6 -3.6
v 0.7 2.4 -3.6
v 0.7 2.6 -3.6
v 0.8 2.4 -3.6
v 0.8 2.6 -3.6
v 1.5 2.4 -3.6
v 1.5 2.6 -3.6
v 1.7 2.4 -3.6
v 1.7 2.6 -3.6
v 2.4 2.4 -3.6
v 2.4 2.6 -3.6
v 2.6 2.4 -3.6
v 2.6 2.6 -3.6
v 3.2 2.4 -3.6
v 3.2 2.6 -3.6
v 3.4 2.4 -3.6
v 3.4 2.6 -3.6
v 3.9 2.4 -3.6
v 3.9 2.6 -3.6
v 3.9 2.8 -3.6
v 3.9 2.9 -3.6
v 4 2.8 -3.6
v 4 2.9 -3.6
v 0 2.7 -3.7
v 0 2.8 -3.7
v 0.1 2.6 -3.7
v 0.1 2.7 -3.7
v 0.1 2.8 -3.7
v 0.7 2.6 -3.7
v 0.7 2.8 -3.7
v 0.8 2.6 -3.7
v 0.8 2.8 -3.7
v 1.5 2.6 -3.7
v 1.5 2.8 -3.7
v 1.7 2.6 -3.7
v 1.7 2.8 -3.7
v 2.4 2.6 -3.7
v 2.4 2.8 -3.7
v 2.6 2.6 -3.7
v 2.6 2.8 -3.7
v 3.2 2.6 -3.7
v 3.2 2.8 -3.7
v 3.4 2.6 -3.7
v 3.4 2.8 -3.7
v 3.9 2.6 -3.7
v 3.9 2.8 -3.7
v 0 2 -3.8
v 0 2.1 -3.8
v 0 2.2 -3.8
v 0 2.8 -3.8
v 0 3 -3.8
v 0.1 2.8 -3.8
v 0.1 2.9 -3.8
v 0.2 2 -3.8
v 0.2 2.1 -3.8
v 0.2 2.2 -3.8
v 0.5 2 -3.8
v 0.5 2.1 -3.8
v 0.5 2.2 -3.8
v 0.7 2 -3.8
v 0.7 2.1 -3.8
v 0.7 2.2 -3.8
v 0.7 2.8 -3.8
v 0.7 2.9 -3.8
v 0.8 2.8 -3.8
v 0.8 2.9 -3.8
v 1.5 2.8 -3.8
v 1.5 2.9 -3.8
v 1.7 2.8 -3.8
v 1.7 2.9 -3.8
v 2.4 2.8 -3.8
v 2.4 2.9 -3.8
v 2.6 2.8 -3.8
v 2.6 2.9 -3.8
v 3.2 2.8 -3.8
v 3.2 2.9 -3.8
v 3.4 2.8 -3.8
v 3.4 2.9 -3.8
v 3.8 2 -3.8
v 3.8 2.1 -3.8
v 3.8 2.2 -3.8
v 3.9 2.8 -3.8
v 3.9 2.9 -3.8
v 4 2 -3.8
v 4 2.1 -3.8
v 4 2.2 -3.8
v 4 2.9 -3.8
v 4 3 -3.8
v 0 2 -2.1
v 0 2.1 -2.1
v 0 2.2 -2.1
v 0.2 2 -2.1
v 0.2 2.1 -2.1
v 0.2 2.2 -2.1
v 0.5 2 -2.1
v 0.5 2.1 -2.1
v 0.5 2.2 -2.1
v 0.7 2 -2.1
v 0.7 2.1 -2.1
v 0.7 2.2 -2.1
v 0.7 2 -3.3
v 0.7 2.1 -3.3
v 0.7 2.2 -3.3
v 0.9 2 -3.3
v 0.9 2.1 -3.3
v 0.9 2.2 -3.3
v 3.8 2 -3.3
v 3.8 2.1 -3.3
v 3.8 2.2 -3.3
v 4 2 -3.3
v 4 2.1 -3.3
v 4 2.2 -3.3
v 0 2 -4
v 0 2.1 -4
v 0 3 -4
v 0.2 2 -4
v 0.2 2.1 -4
v 0.2 2.2 -4
v 0.5 2 -4
v 0.5 2.1 -4
v 0.5 2.2 -4
v 0.7 2 -4
v 0.7 2.1 -4
v 0.7 2.2 -4
v 3.8 2 -4
v 3.8 2.1 -4
v 3.8 2.2 -4
v 4 2 -4
v 4 2.1 -4
v 4 3 -4
v 0 2 -1.9
v 0.2 2 -1.9
v 0.5 2 -1.9
v 0.7 2 -1.9
v 0 2 -2.1
v 0.2 2 -2.1
v 0.5 2 -2.1
v 0.7 2 -2.1
v 0.7 2 -3.1
v 0.9 2 -3.1
v 3.8 2 -3.1
v 4 2 -3.1
v 0.7 2 -3.3
v 0.9 2 -3.3
v 3.8 2 -3.3
v 4 2 -3.3
v 0 2 -3.8
v 0.2 2 -3.8
v 0.5 2 -3.8
v 0.7 2 -3.8
v 3.8 2 -3.8
v 4 2 -3.8
v 0 2 -4
v 0.2 2 -4
v 0.5 2 -4
v 0.7 2 -4
v 3.8 2 -4
v 4 2 -4
v 0.2 2.2 -1.9
v 0.5 2.2 -1.9
v 0 2.2 -2.1
v 0.2 2.2 -2.1
v 0.5 2.2 -2.1
v 0.7 2.2 -2.1
v 0.7 2.2 -3.1
v 0.9 2.2 -3.1
v 3.8 2.2 -3.1
v 0.7 2.2 -3.3
v 0.9 2.2 -3.3
v 3.8 2.2 -3.3
v 4 2.2 -3.3
v 0 2.2 -3.8
v 0.2 2.2 -3.8
v 0.5 2.2 -3.8
v 0.7 2.2 -3.8
v 3.8 2.2 -3.8
v 4 2.2 -3.8
v 0.2 2.2 -4
v 0.5 2.2 -4
v 0.7 2.2 -4
v 3.8 2.2 -4
v 0.1 2.4 -1.9
v 0.7 2.4 -1.9
v 0.7 2.4 -3.1
v 0.8 2.4 -3.1
v 1.5 2.4 -3.1
v 1.7 2.4 -3.1
v 2.4 2.4 -3.1
v 2.6 2.4 -3.1
v 3.2 2.4 -3.1
v 3.4 2.4 -3.1
v 3.9 2.4 -3.1
v 0.1 2.4 -3.6
v 0.7 2.4 -3.6
v 0.8 2.4 -3.6
v 1.5 2.4 -3.6
v 1.7 2.4 -3.6
v 2.4 2.4 -3.6
v 2.6 2.4 -3.6
v 3.2 2.4 -3.6
v 3.4 2.4 -3.6
v 3.9 2.4 -3.6
v 3.9 2.6 -3.1
v 4 2.6 -3.1
v 3.9 2.6 -3.4
v 4 2.6 -3.4
v 0.1 2.6 -3.6
v 0.7 2.6 -3.6
v 0.8 2.6 -3.6
v 1.5 2.6 -3.6
v 1.7 2.6 -3.6
v 2.4 2.6 -3.6
v 2.6 2.6 -3.6
v 3.2 2.6 -3.6
v 3.4 2.6 -3.6
v 3.9 2.6 -3.6
v 0.1 2.6 -3.7
v 0.7 2.6 -3.7
v 0.8 2.6 -3.7
v 1.5 2.6 -3.7
v 1.7 2.6 -3.7
v 2.4 2.6 -3.7
v 2.6 2.6 -3.7
v 3.2 2.6 -3.7
v 3.4 2.6 -3.7
v 3.9 2.6 -3.7
v 0 2.7 -1.9
v 0.1 2.7 -1.9
v 3.9 2.7 -3.4
v 4 2.7 -3.4
v 3.9 2.7 -3.5
v 4 2.7 -3.5
v 0 2.7 -3.7
v 0.1 2.7 -3.7
v 3.9 2.8 -3.5
v 4 2.8 -3.5
v 3.9 2.8 -3.6
v 4 2.8 -3.6
v 0 2.8 -3.7
v 0.1 2.8 -3.7
v 0.7 2.8 -3.7
v 0.8 2.8 -3.7
v 1.5 2.8 -3.7
v 1.7 2.8 -3.7
v 2.4 2.8 -3.7
v 2.6 2.8 -3.7
v 3.2 2.8 -3.7
v 3.4 2.8 -3.7
v 3.9 2.8 -3.7
v 0 2.8 -3.8
v 0.1 2.8 -3.8
v 0.7 2.8 -3.8
v 0.8 2.8 -3.8
v 1.5 2.8 -3.8
v 1.7 2.8 -3.8
v 2.4 2.8 -3.8
v 2.6 2.8 -3.8
v 3.2 2.8 -3.8
v 3.4 2.8 -3.8
v 3.9 2.8 -3.8
v 3.9 2.9 -3.6
v 4 2.9 -3.6
v 3.9 2.9 -3.8
v 4 2.9 -3.8
v 0 3 -3.8
v 4 3 -3.8
v 0 3 -4
v 4 3 -4

# faces
f 5/4/1 2/4/1 1/4/1
f 6/4/1 2/4/1 5/4/1
f 7/4/1 4/4/1 3/4/1
f 8/4/1 4/4/1 7/4/1
f 9/3/1 6/3/1 5/3/1
f 10/3/1 8/3/1 7/3/1
f 11/3/1 9/3/1 5/3/1
f 11/3/1 10/3/1 9/3/1
f 12/3/1 10/3/1 11/3/1
f 13/3/1 10/3/1 12/3/1
f 14/3/1 8/3/1 10/3/1
f 14/3/1 10/3/1 13/3/1
f 15/3/1 8/3/1 14/3/1
f 16/3/1 8/3/1 15/3/1
f 21/4/1 18/4/1 17/4/1
f 22/4/1 18/4/1 21/4/1
f 23/4/1 20/4/1 19/4/1
f 24/4/1 20/4/1 23/4/1
f 25/3/1 22/3/1 21/3/1
f 26/3/1 22/3/1 25/3/1
f 27/3/1 24/3/1 23/3/1
f 28/3/1 24/3/1 27/3/1
f 31/4/1 30/4/1 29/4/1
f 32/4/1 30/4/1 31/4/1
f 33/3/1 32/3/1 31/3/1
f 34/3/1 32/3/1 33/3/1
f 39/4/1 36/4/1 35/4/1
f 40/4/1 36/4/1 39/4/1
f 41/4/1 38/4/1 37/4/1
f 42/4/1 38/4/1 41/4/1
f 43/3/1 40/3/1 39/3/1
f 44/3/1 40/3/1 43/3/1
f 45/3/1 42/3/1 41/3/1
f 46/3/1 42/3/1 45/3/1
f 49/3/1 48/3/1 47/3/1
f 50/3/1 48/3/1 49/3/1
f 51/3/1 48/3/1 50/3/1
f 53/3/1 52/3/1 51/3/1
f 53/3/1 51/3/1 50/3/1
f 54/3/1 52/3/1 53/3/1
f 55/3/1 52/3/1 54/3/1
f 56/3/1 52/3/1 55/3/1
f 57/3/1 52/3/1 56/3/1
f 59/3/1 58/3/1 57/3/1
f 59/3/1 57/3/1 56/3/1
f 60/3/1 58/3/1 59/3/1
f 61/3/2 62/3/2 63/3/2
f 61/3/2 63/3/2 65/3/2
f 63/3/2 64/3/2 65/3/2
f 65/3/2 64/3/2 66/3/2
f 67/4/2 68/4/2 71/4/2
f 71/4/2 68/4/2 72/4/2
f 69/4/2 70/4/2 73/4/2
f 73/4/2 70/4/2 74/4/2
f 71/3/2 72/3/2 75/3/2
f 75/3/2 72/3/2 76/3/2
f 73/3/2 74/3/2 77/3/2
f 77/3/2 74/3/2 78/3/2
f 79/4/2 80/4/2 83/4/2
f 83/4/2 80/4/2 84/4/2
f 81/4/2 82/4/2 85/4/2
f 85/4/2 82/4/2 86/4/2
f 83/3/2 84/3/2 87/3/2
f 85/3/2 86/3/2 89/3/2
f 89/3/2 86/3/2 90/3/2
f 87/3/2 88/3/2 91/3/2
f 83/3/2 87/3/2 91/3/2
f 91/3/2 88/3/2 92/3/2
f 91/1/2 92/1/2 93/1/2
f 93/1/2 92/1/2 94/1/2
f 95/4/2 96/4/2 97/4/2
f 97/4/2 96/4/2 98/4/2
f 97/3/2 98/3/2 99/3/2
f 99/3/2 98/3/2 100/3/2
f 101/4/2 102/4/2 105/4/2
f 105/4/2 102/4/2 106/4/2
f 103/4/2 104/4/2 107/4/2
f 107/4/2 104/4/2 108/4/2
f 105/3/2 106/3/2 109/3/2
f 107/3/2 108/3/2 110/3/2
f 105/3/2 109/3/2 111/3/2
f 109/3/2 110/3/2 111/3/2
f 111/3/2 110/3/2 112/3/2
f 112/3/2 110/3/2 113/3/2
f 113/3/2 110/3/2 114/3/2
f 114/3/2 110/3/2 115/3/2
f 115/3/2 110/3/2 116/3/2
f 116/3/2 110/3/2 117/3/2
f 110/3/2 108/3/2 118/3/2
f 117/3/2 110/3/2 118/3/2
f 118/3/2 108/3/2 119/3/2
f 119/3/2 108/3/2 120/3/2
f 124/3/3 123/3/3 122/3/3
f 125/3/3 123/3/3 124/3/3
f 126/3/3 123/3/3 125/3/3
f 127/4/3 122/4/3 121/4/3
f 128/3/3 124/3/3 122/3/3
f 128/4/3 122/4/3 127/4/3
f 129/3/3 124/3/3 128/3/3
f 132/3/3 124/3/3 129/3/3
f 133/4/3 131/4/3 130/4/3
f 134/3/3 132/3/3 131/3/3
f 134/4/3 131/4/3 133/4/3
f 135/1/3 125/1/3 124/1/3
f 135/3/3 132/3/3 134/3/3
f 135/3/3 124/3/3 132/3/3
f 136/1/3 125/1/3 135/1/3
f 142/3/3 139/3/3 138/3/3
f 142/3/3 141/3/3 140/3/3
f 142/3/3 140/3/3 139/3/3
f 143/3/3 141/3/3 142/3/3
f 144/4/3 138/4/3 137/4/3
f 145/3/3 142/3/3 138/3/3
f 145/4/3 138/4/3 144/4/3
f 146/3/3 142/3/3 145/3/3
f 147/1/3 143/1/3 142/1/3
f 147/3/3 142/3/3 146/3/3
f 148/1/3 143/1/3 147/1/3
f 149/3/3 147/3/3 146/3/3
f 149/3/3 148/3/3 147/3/3
f 150/3/3 148/3/3 149/3/3
f 151/3/3 149/3/3 146/3/3
f 151/1/3 150/1/3 149/1/3
f 152/1/3 150/1/3 151/1/3
f 153/3/3 151/3/3 146/3/3
f 153/3/3 152/3/3 151/3/3
f 154/3/3 152/3/3 153/3/3
f 155/3/3 153/3/3 146/3/3
f 155/1/3 154/1/3 153/1/3
f 156/1/3 154/1/3 155/1/3
f 157/3/3 155/3/3 146/3/3
f 157/3/3 156/3/3 155/3/3
f 158/3/3 156/3/3 157/3/3
f 161/3/3 157/3/3 146/3/3
f 162/1/3 158/1/3 157/1/3
f 162/3/3 161/3/3 160/3/3
f 162/3/3 157/3/3 161/3/3
f 163/1/3 158/1/3 162/1/3
f 165/4/3 160/4/3 159/4/3
f 166/3/3 163/3/3 162/3/3
f 166/4/3 160/4/3 165/4/3
f 166/3/3 162/3/3 160/3/3
f 166/3/3 164/3/3 163/3/3
f 167/3/3 164/3/3 166/3/3
f 170/3/3 169/3/3 168/3/3
f 171/3/3 169/3/3 170/3/3
f 174/3/3 173/3/3 172/3/3
f 175/3/3 173/3/3 174/3/3
f 178/1/3 177/1/3 176/1/3
f 179/1/3 177/1/3 178/1/3
f 180/3/3 179/3/3 178/3/3
f 181/3/3 179/3/3 180/3/3
f 182/1/3 181/1/3 180/1/3
f 183/1/3 181/1/3 182/1/3
f 184/3/3 183/3/3 182/3/3
f 185/3/3 183/3/3 184/3/3
f 186/1/3 185/1/3 184/1/3
f 187/1/3 185/1/3 186/1/3
f 188/3/3 187/3/3 186/3/3
f 189/3/3 187/3/3 188/3/3
f 190/1/3 189/1/3 188/1/3
f 191/1/3 189/1/3 190/1/3
f 192/3/3 191/3/3 190/3/3
f 193/3/3 191/3/3 192/3/3
f 194/1/3 193/1/3 192/1/3
f 195/1/3 193/1/3 194/1/3
f 198/3/3 197/3/3 196/3/3
f 199/3/3 197/3/3 198/3/3
f 203/3/3 201/3/3 200/3/3
f 204/3/3 201/3/3 203/3/3
f 205/1/3 203/1/3 202/1/3
f 205/1/3 204/1/3 203/1/3
f 206/1/3 204/1/3 205/1/3
f 207/3/3 206/3/3 205/3/3
f 208/3/3 206/3/3 207/3/3
f 209/1/3 208/1/3 207/1/3
f 210/1/3 208/1/3 209/1/3
f 211/3/3 210/3/3 209/3/3
f 212/3/3 210/3/3 211/3/3
f 213/1/3 212/1/3 211/1/3
f 214/1/3 212/1/3 213/1/3
f 215/3/3 214/3/3 213/3/3
f 216/3/3 214/3/3 215/3/3
f 217/1/3 216/1/3 215/1/3
f 218/1/3 216/1/3 217/1/3
f 219/3/3 218/3/3 217/3/3
f 220/3/3 218/3/3 219/3/3
f 221/1/3 220/1/3 219/1/3
f 222/1/3 220/1/3 221/1/3
f 228/3/3 227/3/3 226/3/3
f 229/3/3 227/3/3 228/3/3
f 230/4/3 224/4/3 223/4/3
f 231/3/3 225/3/3 224/3/3
f 231/4/3 224/4/3 230/4/3
f 232/3/3 225/3/3 231/3/3
f 236/4/3 234/4/3 233/4/3
f 237/3/3 235/3/3 234/3/3
f 237/4/3 234/4/3 236/4/3
f 238/3/3 235/3/3 237/3/3
f 239/1/3 229/1/3 228/1/3
f 240/3/3 227/3/3 229/3/3
f 240/1/3 229/1/3 239/1/3
f 241/3/3 240/3/3 239/3/3
f 242/3/3 227/3/3 240/3/3
f 242/3/3 240/3/3 241/3/3
f 243/1/3 242/1/3 241/1/3
f 244/3/3 227/3/3 242/3/3
f 244/1/3 242/1/3 243/1/3
f 245/3/3 244/3/3 243/3/3
f 246/3/3 227/3/3 244/3/3
f 246/3/3 244/3/3 245/3/3
f 247/1/3 246/1/3 245/1/3
f 248/3/3 227/3/3 246/3/3
f 248/1/3 246/1/3 247/1/3
f 249/3/3 248/3/3 247/3/3
f 250/3/3 227/3/3 248/3/3
f 250/3/3 248/3/3 249/3/3
f 251/1/3 250/1/3 249/1/3
f 252/3/3 227/3/3 250/3/3
f 252/1/3 250/1/3 251/1/3
f 253/3/3 252/3/3 251/3/3
f 254/3/3 227/3/3 252/3/3
f 254/3/3 252/3/3 253/3/3
f 258/1/3 254/1/3 253/1/3
f 259/3/3 227/3/3 254/3/3
f 259/1/3 254/1/3 258/1/3
f 260/4/3 256/4/3 255/4/3
f 261/3/3 257/3/3 256/3/3
f 261/4/3 256/4/3 260/4/3
f 262/3/3 257/3/3 261/3/3
f 263/3/3 227/3/3 259/3/3
f 264/3/3 227/3/3 263/3/3
f 265/4/4 266/4/4 268/4/4
f 266/3/4 267/3/4 269/3/4
f 268/4/4 266/4/4 269/4/4
f 269/3/4 267/3/4 270/3/4
f 271/4/4 272/4/4 274/4/4
f 272/3/4 273/3/4 275/3/4
f 274/4/4 272/4/4 275/4/4
f 275/3/4 273/3/4 276/3/4
f 277/4/4 278/4/4 280/4/4
f 278/3/4 279/3/4 281/3/4
f 280/4/4 278/4/4 281/4/4
f 281/3/4 279/3/4 282/3/4
f 283/4/4 284/4/4 286/4/4
f 284/3/4 285/3/4 287/3/4
f 286/4/4 284/4/4 287/4/4
f 287/3/4 285/3/4 288/3/4
f 289/4/4 290/4/4 292/4/4
f 290/3/4 291/3/4 293/3/4
f 292/4/4 290/4/4 293/4/4
f 293/3/4 291/3/4 294/3/4
f 294/3/4 291/3/4 297/3/4
f 295/4/4 296/4/4 298/4/4
f 296/3/4 297/3/4 299/3/4
f 298/4/4 296/4/4 299/4/4
f 297/3/4 291/3/4 300/3/4
f 299/3/4 297/3/4 300/3/4
f 300/3/4 291/3/4 303/3/4
f 301/4/4 302/4/4 304/4/4
f 302/3/4 303/3/4 305/3/4
f 304/4/4 302/4/4 305/4/4
f 303/3/4 291/3/4 306/3/4
f 305/3/4 303/3/4 306/3/4
f 311/4/5 308/4/5 307/4/5
f 312/4/5 308/4/5 311/4/5
f 313/4/5 310/4/5 309/4/5
f 314/4/5 310/4/5 313/4/5
f 319/4/5 316/4/5 315/4/5
f 320/4/5 316/4/5 319/4/5
f 321/4/5 318/4/5 317/4/5
f 322/4/5 318/4/5 321/4/5
f 329/4/5 324/4/5 323/4/5
f 330/4/5 324/4/5 329/4/5
f 331/4/5 326/4/5 325/4/5
f 332/4/5 326/4/5 331/4/5
f 333/4/5 328/4/5 327/4/5
f 334/4/5 328/4/5 333/4/5
f 338/3/5 336/3/5 335/3/5
f 339/3/5 336/3/5 338/3/5
f 341/3/5 338/3/5 337/3/5
f 341/3/5 340/3/5 339/3/5
f 341/3/5 339/3/5 338/3/5
f 344/3/5 341/3/5 337/3/5
f 345/3/5 343/3/5 342/3/5
f 346/3/5 343/3/5 345/3/5
f 348/3/5 344/3/5 337/3/5
f 348/3/5 347/3/5 346/3/5
f 348/3/5 346/3/5 345/3/5
f 348/3/5 345/3/5 344/3/5
f 349/3/5 347/3/5 348/3/5
f 350/3/5 347/3/5 349/3/5
f 351/3/5 347/3/5 350/3/5
f 352/3/5 347/3/5 351/3/5
f 353/3/5 347/3/5 352/3/5
f 354/3/5 350/3/5 349/3/5
f 355/3/5 350/3/5 354/3/5
f 356/3/5 352/3/5 351/3/5
f 357/3/5 352/3/5 356/3/5
f 358/1/6 359/1/6 360/1/6
f 358/1/6 360/1/6 369/1/6
f 360/3/6 361/3/6 370/3/6
f 369/1/6 360/1/6 370/1/6
f 361/1/6 362/1/6 371/1/6
f 370/3/6 361/3/6 371/3/6
f 362/3/6 363/3/6 372/3/6
f 371/1/6 362/1/6 372/1/6
f 363/1/6 364/1/6 373/1/6
f 372/3/6 363/3/6 373/3/6
f 364/3/6 365/3/6 374/3/6
f 373/1/6 364/1/6 374/1/6
f 365/1/6 366/1/6 375/1/6
f 374/3/6 365/3/6 375/3/6
f 366/3/6 367/3/6 376/3/6
f 375/1/6 366/1/6 376/1/6
f 367/1/6 368/1/6 377/1/6
f 376/3/6 367/3/6 377/3/6
f 377/1/6 368/1/6 378/1/6
f 379/3/6 380/3/6 381/3/6
f 381/3/6 380/3/6 382/3/6
f 383/1/6 384/1/6 393/1/6
f 384/3/6 385/3/6 394/3/6
f 393/1/6 384/1/6 394/1/6
f 385/1/6 386/1/6 395/1/6
f 394/3/6 385/3/6 395/3/6
f 386/3/6 387/3/6 396/3/6
f 395/1/6 386/1/6 396/1/6
f 387/1/6 388/1/6 397/1/6
f 396/3/6 387/3/6 397/3/6
f 388/3/6 389/3/6 398/3/6
f 397/1/6 388/1/6 398/1/6
f 389/1/6 390/1/6 399/1/6
f 398/3/6 389/3/6 399/3/6
f 390/3/6 391/3/6 400/3/6
f 399/1/6 390/1/6 400/1/6
f 391/1/6 392/1/6 401/1/6
f 400/3/6 391/3/6 401/3/6
f 401/1/6 392/1/6 402/1/6
f 405/3/6 406/3/6 407/3/6
f 407/3/6 406/3/6 408/3/6
f 403/3/6 404/3/6 409/3/6
f 409/3/6 404/3/6 410/3/6
f 411/3/6 412/3/6 413/3/6
f 413/3/6 412/3/6 414/3/6
f 415/3/6 416/3/6 426/3/6
f 416/1/6 417/1/6 427/1/6
f 426/3/6 416/3/6 427/3/6
f 417/3/6 418/3/6 428/3/6
f 427/1/6 417/1/6 428/1/6
f 418/1/6 419/1/6 429/1/6
f 428/3/6 418/3/6 429/3/6
f 419/3/6 420/3/6 430/3/6
f 429/1/6 419/1/6 430/1/6
f 420/1/6 421/1/6 431/1/6
f 430/3/6 420/3/6 431/3/6
f 421/3/6 422/3/6 432/3/6
f 431/1/6 421/1/6 432/1/6
f 422/1/6 423/1/6 433/1/6
f 432/3/6 422/3/6 433/3/6
f 423/3/6 424/3/6 434/3/6
f 433/1/6 423/1/6 434/1/6
f 424/1/6 425/1/6 435/1/6
f 434/3/6 424/3/6 435/3/6
f 435/1/6 425/1/6 436/1/6
f 437/3/6 438/3/6 439/3/6
f 439/3/6 438/3/6 440/3/6
f 441/3/6 442/3/6 443/3/6
f 443/3/6 442/3/6 444/3/6
