# MagicaVoxel @ Ephtracy

# group
o 

# material
mtllib corgiDog.mtl
usemtl palette

# normals
vn -1 0 0
vn 1 0 0
vn 0 0 1
vn 0 0 -1
vn 0 -1 0
vn 0 1 0

# texcoords
vt 0.0566406 0.5
vt 0.205078 0.5
vt 0.373047 0.5
vt 0.841797 0.5
vt 0.958984 0.5
vt 0.994141 0.5

# verts
v 0.8 2.4 -2.7
v 0.8 2.4 -3
v 0.8 2.7 -1.2
v 0.8 2.7 -2.7
v 0.8 2.7 -3
v 0.8 2.7 -3.1
v 0.8 3.2 -3
v 0.8 3.2 -3.1
v 0.8 3.3 -1.2
v 0.8 3.3 -1.3
v 0.8 3.3 -2.5
v 0.8 3.3 -3
v 0.8 3.4 -1.3
v 0.8 3.4 -2.5
v 0.9 2 -0.7
v 0.9 2 -0.8
v 0.9 2 -1.2
v 0.9 2 -2.5
v 0.9 2 -2.6
v 0.9 2 -3
v 0.9 2.1 -0.7
v 0.9 2.1 -0.8
v 0.9 2.1 -2.5
v 0.9 2.1 -2.6
v 0.9 2.2 -0.8
v 0.9 2.2 -0.9
v 0.9 2.2 -2.6
v 0.9 2.2 -2.7
v 0.9 2.3 -1.2
v 0.9 2.3 -1.3
v 0.9 2.4 -0.8
v 0.9 2.4 -0.9
v 0.9 2.4 -1.2
v 0.9 2.4 -2.6
v 0.9 2.4 -2.7
v 0.9 2.4 -3
v 0.9 2.4 -3.1
v 0.9 2.5 -1.3
v 0.9 2.5 -1.4
v 0.9 2.6 -1.4
v 0.9 2.6 -2.6
v 0.9 2.6 -3.1
v 0.9 2.6 -3.2
v 0.9 2.7 -0.8
v 0.9 2.7 -0.9
v 0.9 2.7 -1.2
v 0.9 2.7 -2.6
v 0.9 2.7 -2.7
v 0.9 2.7 -3
v 0.9 2.7 -3.1
v 0.9 2.7 -3.2
v 0.9 3.2 -3
v 0.9 3.2 -3.1
v 0.9 3.3 -1.2
v 0.9 3.3 -1.3
v 0.9 3.3 -2.5
v 0.9 3.3 -3
v 0.9 3.3 -3.1
v 0.9 3.3 -3.2
v 0.9 3.4 -1.3
v 0.9 3.4 -2.5
v 0.9 3.4 -3
v 0.9 3.4 -3.1
v 0.9 3.5 -0.9
v 0.9 3.5 -1
v 0.9 3.5 -2.5
v 0.9 3.5 -3
v 0.9 3.6 -1
v 0.9 3.6 -2.5
v 0.9 4.1 -0.8
v 0.9 4.1 -1.1
v 0.9 4.3 -0.8
v 0.9 4.3 -1.1
v 1 3.3 -3.1
v 1 3.3 -3.2
v 1 3.4 -0.8
v 1 3.4 -0.9
v 1 3.4 -3
v 1 3.4 -3.1
v 1 3.4 -3.2
v 1 3.5 -0.9
v 1 3.5 -1
v 1 3.5 -2.5
v 1 3.5 -3
v 1 3.5 -3.1
v 1 3.6 -0.8
v 1 3.6 -0.9
v 1 3.6 -1
v 1 3.6 -2.5
v 1 3.6 -3
v 1 3.7 -1
v 1 3.7 -2.5
v 1 3.9 -0.8
v 1 3.9 -1
v 1 4 -0.8
v 1 4 -1.1
v 1 4.1 -0.8
v 1 4.1 -1.1
v 1 4.3 -0.8
v 1 4.3 -1.1
v 1 4.4 -0.8
v 1 4.4 -1.1
v 1.1 3.1 -0.8
v 1.1 3.1 -0.9
v 1.1 3.4 -0.8
v 1.1 3.4 -0.9
v 1.1 3.4 -3.1
v 1.1 3.4 -3.2
v 1.1 3.5 -3
v 1.1 3.5 -3.1
v 1.1 3.5 -3.2
v 1.1 3.6 -0.6
v 1.1 3.6 -0.8
v 1.1 3.6 -3
v 1.1 3.6 -3.1
v 1.1 3.7 -1
v 1.1 3.7 -2.3
v 1.1 3.8 -1.1
v 1.1 3.8 -2.3
v 1.1 3.9 -0.6
v 1.1 3.9 -0.8
v 1.1 3.9 -1
v 1.1 4 -0.8
v 1.1 4 -1.1
v 1.2 2.7 -3.2
v 1.2 2.7 -3.3
v 1.2 3 -0.8
v 1.2 3 -0.9
v 1.2 3.1 -0.8
v 1.2 3.1 -0.9
v 1.2 3.2 -0.7
v 1.2 3.2 -0.8
v 1.2 3.3 -3.2
v 1.2 3.3 -3.3
v 1.2 3.6 -0.7
v 1.2 3.6 -0.8
v 1.2 3.6 -2.5
v 1.2 3.6 -3
v 1.2 3.7 -2.5
v 1.2 3.7 -3
v 1.2 3.8 -1.1
v 1.2 3.8 -1.2
v 1.2 4.2 -0.8
v 1.2 4.2 -0.9
v 1.2 4.2 -1.1
v 1.2 4.2 -1.2
v 1.2 4.3 -0.8
v 1.2 4.3 -0.9
v 1.3 2.8 -3.3
v 1.3 2.8 -3.4
v 1.3 3.1 -0.7
v 1.3 3.1 -0.8
v 1.3 3.2 -0.7
v 1.3 3.2 -0.8
v 1.3 3.2 -3.3
v 1.3 3.2 -3.4
v 1.3 3.3 -0.5
v 1.3 3.3 -0.7
v 1.3 3.5 -3.1
v 1.3 3.5 -3.2
v 1.3 3.6 -0.5
v 1.3 3.6 -0.6
v 1.3 3.6 -0.7
v 1.3 3.6 -3
v 1.3 3.6 -3.1
v 1.3 3.7 -2.3
v 1.3 3.7 -2.7
v 1.3 3.7 -3
v 1.3 3.8 -1.2
v 1.3 3.8 -1.3
v 1.3 3.8 -2.3
v 1.3 3.8 -2.7
v 1.3 3.9 -0.8
v 1.3 3.9 -0.9
v 1.3 3.9 -2.9
v 1.3 3.9 -3
v 1.3 3.9 -3.1
v 1.3 3.9 -3.2
v 1.3 4 -2.8
v 1.3 4 -2.9
v 1.3 4 -3
v 1.3 4 -3.1
v 1.3 4.1 -1.2
v 1.3 4.1 -1.3
v 1.3 4.1 -2.7
v 1.3 4.1 -2.8
v 1.3 4.1 -2.9
v 1.3 4.1 -3
v 1.3 4.2 -0.8
v 1.3 4.2 -0.9
v 1.3 4.2 -2.7
v 1.3 4.2 -2.9
v 1.4 3.2 -0.6
v 1.4 3.2 -0.7
v 1.4 3.3 -0.6
v 1.4 3.3 -0.7
v 1.4 3.3 -3.2
v 1.4 3.3 -3.3
v 1.4 3.4 -0.4
v 1.4 3.4 -0.5
v 1.4 3.5 -0.4
v 1.4 3.5 -0.5
v 1.4 3.8 -1.3
v 1.4 3.8 -1.5
v 1.4 3.8 -3.2
v 1.4 3.8 -3.3
v 1.4 3.9 -1.4
v 1.4 3.9 -1.5
v 1.4 4 -1.3
v 1.4 4 -1.4
v 1.6 4 -0.8
v 1.6 4 -0.9
v 1.6 4.1 -0.9
v 1.6 4.1 -1
v 1.6 4.1 -1.2
v 1.6 4.2 -0.8
v 1.6 4.2 -1.2
v 1.7 2.4 -0.9
v 1.7 2.4 -1.2
v 1.7 2.6 -1.2
v 1.7 2.7 -1.1
v 1.7 2.7 -1.2
v 1.7 2.8 -0.9
v 1.7 2.8 -1.1
v 1.7 4.2 -0.8
v 1.7 4.2 -1.1
v 1.7 4.3 -0.8
v 1.7 4.3 -1.1
v 1.8 2 -0.7
v 1.8 2 -0.8
v 1.8 2 -1.2
v 1.8 2 -2.5
v 1.8 2 -2.6
v 1.8 2 -3
v 1.8 2.1 -0.7
v 1.8 2.1 -0.8
v 1.8 2.1 -2.5
v 1.8 2.1 -2.6
v 1.8 2.2 -0.8
v 1.8 2.2 -0.9
v 1.8 2.2 -2.6
v 1.8 2.2 -2.7
v 1.8 2.3 -1.2
v 1.8 2.3 -1.3
v 1.8 2.4 -0.8
v 1.8 2.4 -0.9
v 1.8 2.4 -1.2
v 1.8 2.4 -3
v 1.8 2.4 -3.1
v 1.8 2.5 -1.3
v 1.8 2.5 -1.4
v 1.8 2.6 -1.2
v 1.8 2.6 -1.4
v 1.8 2.6 -2.7
v 1.8 2.6 -3.1
v 1.8 2.7 -0.8
v 1.8 2.7 -0.9
v 1.8 3.9 -0.8
v 1.8 3.9 -0.9
v 1.8 4 -0.8
v 1.8 4 -0.9
v 1.8 4.3 -0.8
v 1.8 4.3 -1.1
v 1.8 4.4 -0.8
v 1.8 4.4 -1.1
v 1.9 2.4 -2.6
v 1.9 2.4 -2.7
v 1.9 2.6 -2.6
v 1.9 2.6 -2.7
v 1.9 4 -0.8
v 1.9 4 -0.9
v 1.9 4.1 -0.8
v 1.9 4.1 -0.9
v 2 4.1 -0.8
v 2 4.1 -0.9
v 2 4.3 -0.8
v 2 4.3 -0.9
v 1 4.1 -0.8
v 1 4.1 -0.9
v 1 4.3 -0.8
v 1 4.3 -0.9
v 1.1 2.4 -2.6
v 1.1 2.4 -2.7
v 1.1 2.6 -2.6
v 1.1 2.6 -2.7
v 1.1 4 -0.8
v 1.1 4 -0.9
v 1.1 4.1 -0.8
v 1.1 4.1 -0.9
v 1.2 2 -0.7
v 1.2 2 -0.8
v 1.2 2 -1.2
v 1.2 2 -2.5
v 1.2 2 -2.6
v 1.2 2 -3
v 1.2 2.1 -0.7
v 1.2 2.1 -0.8
v 1.2 2.1 -2.5
v 1.2 2.1 -2.6
v 1.2 2.2 -0.8
v 1.2 2.2 -0.9
v 1.2 2.2 -2.6
v 1.2 2.2 -2.7
v 1.2 2.3 -1.2
v 1.2 2.3 -1.3
v 1.2 2.4 -0.8
v 1.2 2.4 -0.9
v 1.2 2.4 -1.2
v 1.2 2.4 -3
v 1.2 2.4 -3.1
v 1.2 2.5 -1.3
v 1.2 2.5 -1.4
v 1.2 2.6 -1.2
v 1.2 2.6 -1.4
v 1.2 2.6 -2.7
v 1.2 2.6 -3.1
v 1.2 2.7 -0.8
v 1.2 2.7 -0.9
v 1.2 3.9 -0.8
v 1.2 3.9 -0.9
v 1.2 4 -0.8
v 1.2 4 -0.9
v 1.2 4.3 -0.8
v 1.2 4.3 -1.1
v 1.2 4.4 -0.8
v 1.2 4.4 -1.1
v 1.3 2.4 -0.9
v 1.3 2.4 -1.2
v 1.3 2.6 -1.2
v 1.3 2.7 -1.1
v 1.3 2.7 -1.2
v 1.3 2.8 -0.9
v 1.3 2.8 -1.1
v 1.3 4.2 -0.8
v 1.3 4.2 -1.1
v 1.3 4.3 -0.8
v 1.3 4.3 -1.1
v 1.4 4 -0.8
v 1.4 4 -0.9
v 1.4 4.1 -0.9
v 1.4 4.1 -1
v 1.4 4.1 -1.2
v 1.4 4.2 -0.8
v 1.4 4.2 -1.2
v 1.6 3.2 -0.6
v 1.6 3.2 -0.7
v 1.6 3.3 -0.6
v 1.6 3.3 -0.7
v 1.6 3.3 -3.2
v 1.6 3.3 -3.3
v 1.6 3.4 -0.4
v 1.6 3.4 -0.5
v 1.6 3.5 -0.4
v 1.6 3.5 -0.5
v 1.6 3.8 -1.3
v 1.6 3.8 -1.5
v 1.6 3.8 -3.2
v 1.6 3.8 -3.3
v 1.6 3.9 -1.4
v 1.6 3.9 -1.5
v 1.6 4 -1.3
v 1.6 4 -1.4
v 1.7 2.8 -3.3
v 1.7 2.8 -3.4
v 1.7 3.1 -0.7
v 1.7 3.1 -0.8
v 1.7 3.2 -0.7
v 1.7 3.2 -0.8
v 1.7 3.2 -3.3
v 1.7 3.2 -3.4
v 1.7 3.3 -0.5
v 1.7 3.3 -0.7
v 1.7 3.5 -3.1
v 1.7 3.5 -3.2
v 1.7 3.6 -0.5
v 1.7 3.6 -0.6
v 1.7 3.6 -0.7
v 1.7 3.6 -3
v 1.7 3.6 -3.1
v 1.7 3.7 -2.3
v 1.7 3.7 -2.7
v 1.7 3.7 -3
v 1.7 3.8 -1.2
v 1.7 3.8 -1.3
v 1.7 3.8 -2.3
v 1.7 3.8 -2.7
v 1.7 3.9 -0.8
v 1.7 3.9 -0.9
v 1.7 3.9 -2.9
v 1.7 3.9 -3
v 1.7 3.9 -3.1
v 1.7 3.9 -3.2
v 1.7 4 -2.8
v 1.7 4 -2.9
v 1.7 4 -3
v 1.7 4 -3.1
v 1.7 4.1 -1.2
v 1.7 4.1 -1.3
v 1.7 4.1 -2.7
v 1.7 4.1 -2.8
v 1.7 4.1 -2.9
v 1.7 4.1 -3
v 1.7 4.2 -0.8
v 1.7 4.2 -0.9
v 1.7 4.2 -2.7
v 1.7 4.2 -2.9
v 1.8 2.7 -3.2
v 1.8 2.7 -3.3
v 1.8 3 -0.8
v 1.8 3 -0.9
v 1.8 3.1 -0.8
v 1.8 3.1 -0.9
v 1.8 3.2 -0.7
v 1.8 3.2 -0.8
v 1.8 3.3 -3.2
v 1.8 3.3 -3.3
v 1.8 3.6 -0.7
v 1.8 3.6 -0.8
v 1.8 3.6 -2.4
v 1.8 3.6 -3
v 1.8 3.7 -2.4
v 1.8 3.7 -3
v 1.8 3.8 -1.1
v 1.8 3.8 -1.2
v 1.8 4.2 -0.8
v 1.8 4.2 -0.9
v 1.8 4.2 -1.1
v 1.8 4.2 -1.2
v 1.8 4.3 -0.8
v 1.8 4.3 -0.9
v 1.9 3.1 -0.8
v 1.9 3.1 -0.9
v 1.9 3.4 -0.8
v 1.9 3.4 -0.9
v 1.9 3.4 -3.1
v 1.9 3.4 -3.2
v 1.9 3.5 -3
v 1.9 3.5 -3.1
v 1.9 3.5 -3.2
v 1.9 3.6 -0.6
v 1.9 3.6 -0.8
v 1.9 3.6 -3
v 1.9 3.6 -3.1
v 1.9 3.7 -1
v 1.9 3.7 -2.3
v 1.9 3.8 -1.1
v 1.9 3.8 -2.3
v 1.9 3.9 -0.6
v 1.9 3.9 -0.8
v 1.9 3.9 -1
v 1.9 4 -0.8
v 1.9 4 -1.1
v 2 3.3 -3.1
v 2 3.3 -3.2
v 2 3.4 -0.8
v 2 3.4 -0.9
v 2 3.4 -3
v 2 3.4 -3.1
v 2 3.4 -3.2
v 2 3.5 -0.9
v 2 3.5 -1
v 2 3.5 -2.5
v 2 3.5 -3
v 2 3.5 -3.1
v 2 3.6 -0.8
v 2 3.6 -0.9
v 2 3.6 -1
v 2 3.6 -2.4
v 2 3.6 -2.5
v 2 3.6 -3
v 2 3.7 -1
v 2 3.7 -2.4
v 2 3.9 -0.8
v 2 3.9 -1
v 2 4 -0.8
v 2 4 -1.1
v 2 4.1 -0.8
v 2 4.1 -1.1
v 2 4.3 -0.8
v 2 4.3 -1.1
v 2 4.4 -0.8
v 2 4.4 -1.1
v 2.1 2 -0.7
v 2.1 2 -0.8
v 2.1 2 -1.2
v 2.1 2 -2.5
v 2.1 2 -2.6
v 2.1 2 -3
v 2.1 2.1 -0.7
v 2.1 2.1 -0.8
v 2.1 2.1 -2.5
v 2.1 2.1 -2.6
v 2.1 2.2 -0.8
v 2.1 2.2 -0.9
v 2.1 2.2 -2.6
v 2.1 2.2 -2.7
v 2.1 2.3 -1.2
v 2.1 2.3 -1.3
v 2.1 2.4 -0.8
v 2.1 2.4 -0.9
v 2.1 2.4 -1.2
v 2.1 2.4 -2.6
v 2.1 2.4 -2.7
v 2.1 2.4 -3
v 2.1 2.4 -3.1
v 2.1 2.5 -1.3
v 2.1 2.5 -1.4
v 2.1 2.6 -1.4
v 2.1 2.6 -2.6
v 2.1 2.6 -3.1
v 2.1 2.6 -3.2
v 2.1 2.7 -0.8
v 2.1 2.7 -0.9
v 2.1 2.7 -1.2
v 2.1 2.7 -2.6
v 2.1 2.7 -2.7
v 2.1 2.7 -3
v 2.1 2.7 -3.1
v 2.1 2.7 -3.2
v 2.1 3.2 -3
v 2.1 3.2 -3.1
v 2.1 3.3 -1.2
v 2.1 3.3 -1.3
v 2.1 3.3 -2.5
v 2.1 3.3 -3
v 2.1 3.3 -3.1
v 2.1 3.3 -3.2
v 2.1 3.4 -1.3
v 2.1 3.4 -2.5
v 2.1 3.4 -3
v 2.1 3.4 -3.1
v 2.1 3.5 -0.9
v 2.1 3.5 -1
v 2.1 3.5 -2.5
v 2.1 3.5 -3
v 2.1 3.6 -1
v 2.1 3.6 -2.5
v 2.1 4.1 -0.8
v 2.1 4.1 -1.1
v 2.1 4.3 -0.8
v 2.1 4.3 -1.1
v 2.2 2.4 -2.7
v 2.2 2.4 -3
v 2.2 2.7 -1.2
v 2.2 2.7 -2.7
v 2.2 2.7 -3
v 2.2 2.7 -3.1
v 2.2 3.2 -3
v 2.2 3.2 -3.1
v 2.2 3.3 -1.2
v 2.2 3.3 -1.3
v 2.2 3.3 -2.5
v 2.2 3.3 -3
v 2.2 3.4 -1.3
v 2.2 3.4 -2.5
v 1.4 3.4 -0.4
v 1.4 3.5 -0.4
v 1.6 3.4 -0.4
v 1.6 3.5 -0.4
v 1.3 3.3 -0.5
v 1.3 3.6 -0.5
v 1.4 3.4 -0.5
v 1.4 3.5 -0.5
v 1.6 3.4 -0.5
v 1.6 3.5 -0.5
v 1.7 3.3 -0.5
v 1.7 3.6 -0.5
v 1.1 3.6 -0.6
v 1.1 3.9 -0.6
v 1.3 3.6 -0.6
v 1.3 3.7 -0.6
v 1.3 3.8 -0.6
v 1.4 3.2 -0.6
v 1.4 3.3 -0.6
v 1.4 3.6 -0.6
v 1.4 3.7 -0.6
v 1.4 3.8 -0.6
v 1.4 3.9 -0.6
v 1.6 3.2 -0.6
v 1.6 3.3 -0.6
v 1.6 3.6 -0.6
v 1.6 3.7 -0.6
v 1.6 3.8 -0.6
v 1.6 3.9 -0.6
v 1.7 3.6 -0.6
v 1.7 3.7 -0.6
v 1.7 3.8 -0.6
v 1.9 3.6 -0.6
v 1.9 3.9 -0.6
v 0.9 2 -0.7
v 0.9 2.1 -0.7
v 1 2 -0.7
v 1 2.1 -0.7
v 1.1 2 -0.7
v 1.1 2.1 -0.7
v 1.2 2 -0.7
v 1.2 2.1 -0.7
v 1.2 3.2 -0.7
v 1.2 3.6 -0.7
v 1.3 3.1 -0.7
v 1.3 3.2 -0.7
v 1.3 3.3 -0.7
v 1.3 3.6 -0.7
v 1.4 3.2 -0.7
v 1.4 3.3 -0.7
v 1.6 3.2 -0.7
v 1.6 3.3 -0.7
v 1.7 3.1 -0.7
v 1.7 3.2 -0.7
v 1.7 3.3 -0.7
v 1.7 3.6 -0.7
v 1.8 2 -0.7
v 1.8 2.1 -0.7
v 1.8 3.2 -0.7
v 1.8 3.6 -0.7
v 1.9 2 -0.7
v 1.9 2.1 -0.7
v 2 2 -0.7
v 2 2.1 -0.7
v 2.1 2 -0.7
v 2.1 2.1 -0.7
v 0.9 2.1 -0.8
v 0.9 2.2 -0.8
v 0.9 2.4 -0.8
v 0.9 2.7 -0.8
v 0.9 4.1 -0.8
v 0.9 4.3 -0.8
v 1 2.1 -0.8
v 1 3.4 -0.8
v 1 3.6 -0.8
v 1 3.9 -0.8
v 1 4 -0.8
v 1 4.1 -0.8
v 1 4.3 -0.8
v 1 4.4 -0.8
v 1.1 2.1 -0.8
v 1.1 2.4 -0.8
v 1.1 2.7 -0.8
v 1.1 3.1 -0.8
v 1.1 3.4 -0.8
v 1.1 3.6 -0.8
v 1.1 3.9 -0.8
v 1.1 4 -0.8
v 1.1 4.1 -0.8
v 1.2 2.1 -0.8
v 1.2 2.2 -0.8
v 1.2 2.4 -0.8
v 1.2 2.7 -0.8
v 1.2 3 -0.8
v 1.2 3.1 -0.8
v 1.2 3.2 -0.8
v 1.2 3.6 -0.8
v 1.2 3.9 -0.8
v 1.2 4 -0.8
v 1.2 4.2 -0.8
v 1.2 4.3 -0.8
v 1.2 4.4 -0.8
v 1.3 3.1 -0.8
v 1.3 3.2 -0.8
v 1.3 3.9 -0.8
v 1.3 4.2 -0.8
v 1.3 4.3 -0.8
v 1.4 3.9 -0.8
v 1.4 4 -0.8
v 1.4 4.2 -0.8
v 1.6 3.9 -0.8
v 1.6 4 -0.8
v 1.6 4.2 -0.8
v 1.7 3.1 -0.8
v 1.7 3.2 -0.8
v 1.7 3.9 -0.8
v 1.7 4.2 -0.8
v 1.7 4.3 -0.8
v 1.8 2.1 -0.8
v 1.8 2.2 -0.8
v 1.8 2.4 -0.8
v 1.8 2.7 -0.8
v 1.8 3 -0.8
v 1.8 3.1 -0.8
v 1.8 3.2 -0.8
v 1.8 3.6 -0.8
v 1.8 3.9 -0.8
v 1.8 4 -0.8
v 1.8 4.2 -0.8
v 1.8 4.3 -0.8
v 1.8 4.4 -0.8
v 1.9 2.1 -0.8
v 1.9 2.4 -0.8
v 1.9 2.7 -0.8
v 1.9 3.1 -0.8
v 1.9 3.4 -0.8
v 1.9 3.6 -0.8
v 1.9 3.9 -0.8
v 1.9 4 -0.8
v 1.9 4.1 -0.8
v 2 2.1 -0.8
v 2 3.4 -0.8
v 2 3.6 -0.8
v 2 3.9 -0.8
v 2 4 -0.8
v 2 4.1 -0.8
v 2 4.3 -0.8
v 2 4.4 -0.8
v 2.1 2.1 -0.8
v 2.1 2.2 -0.8
v 2.1 2.4 -0.8
v 2.1 2.7 -0.8
v 2.1 4.1 -0.8
v 2.1 4.3 -0.8
v 0.9 2.2 -0.9
v 0.9 2.4 -0.9
v 0.9 2.7 -0.9
v 0.9 3.5 -0.9
v 1 3.4 -0.9
v 1 3.5 -0.9
v 1 4.1 -0.9
v 1 4.3 -0.9
v 1.1 2.4 -0.9
v 1.1 2.7 -0.9
v 1.1 3.1 -0.9
v 1.1 3.4 -0.9
v 1.1 4 -0.9
v 1.1 4.1 -0.9
v 1.2 2.2 -0.9
v 1.2 2.4 -0.9
v 1.2 2.7 -0.9
v 1.2 3 -0.9
v 1.2 3.1 -0.9
v 1.2 3.9 -0.9
v 1.2 4 -0.9
v 1.2 4.2 -0.9
v 1.2 4.3 -0.9
v 1.3 2.4 -0.9
v 1.3 2.8 -0.9
v 1.3 3.9 -0.9
v 1.3 4.2 -0.9
v 1.4 4 -0.9
v 1.4 4.1 -0.9
v 1.6 4 -0.9
v 1.6 4.1 -0.9
v 1.7 2.4 -0.9
v 1.7 2.8 -0.9
v 1.7 3.9 -0.9
v 1.7 4.2 -0.9
v 1.8 2.2 -0.9
v 1.8 2.4 -0.9
v 1.8 2.7 -0.9
v 1.8 3 -0.9
v 1.8 3.1 -0.9
v 1.8 3.9 -0.9
v 1.8 4 -0.9
v 1.8 4.2 -0.9
v 1.8 4.3 -0.9
v 1.9 2.4 -0.9
v 1.9 2.7 -0.9
v 1.9 3.1 -0.9
v 1.9 3.4 -0.9
v 1.9 4 -0.9
v 1.9 4.1 -0.9
v 2 3.4 -0.9
v 2 3.5 -0.9
v 2 4.1 -0.9
v 2 4.3 -0.9
v 2.1 2.2 -0.9
v 2.1 2.4 -0.9
v 2.1 2.7 -0.9
v 2.1 3.5 -0.9
v 0.9 3.5 -1
v 0.9 3.6 -1
v 1 3.5 -1
v 1 3.6 -1
v 2 3.5 -1
v 2 3.6 -1
v 2.1 3.5 -1
v 2.1 3.6 -1
v 1.3 2.7 -1.1
v 1.3 2.8 -1.1
v 1.7 2.7 -1.1
v 1.7 2.8 -1.1
v 0.8 2.7 -1.2
v 0.8 3.3 -1.2
v 0.9 2.7 -1.2
v 0.9 3.3 -1.2
v 1.3 2.6 -1.2
v 1.3 2.7 -1.2
v 1.7 2.6 -1.2
v 1.7 2.7 -1.2
v 2.1 2.7 -1.2
v 2.1 3.3 -1.2
v 2.2 2.7 -1.2
v 2.2 3.3 -1.2
v 0.8 3.3 -1.3
v 0.8 3.4 -1.3
v 0.9 3.3 -1.3
v 0.9 3.4 -1.3
v 2.1 3.3 -1.3
v 2.1 3.4 -1.3
v 2.2 3.3 -1.3
v 2.2 3.4 -1.3
v 0.9 2 -2.5
v 0.9 2.1 -2.5
v 1 2 -2.5
v 1 2.1 -2.5
v 1.1 2 -2.5
v 1.1 2.1 -2.5
v 1.2 2 -2.5
v 1.2 2.1 -2.5
v 1.8 2 -2.5
v 1.8 2.1 -2.5
v 1.9 2 -2.5
v 1.9 2.1 -2.5
v 2 2 -2.5
v 2 2.1 -2.5
v 2.1 2 -2.5
v 2.1 2.1 -2.5
v 0.9 2.1 -2.6
v 0.9 2.2 -2.6
v 0.9 2.4 -2.6
v 0.9 2.6 -2.6
v 1 2.1 -2.6
v 1.1 2.1 -2.6
v 1.1 2.4 -2.6
v 1.1 2.6 -2.6
v 1.2 2.1 -2.6
v 1.2 2.2 -2.6
v 1.8 2.1 -2.6
v 1.8 2.2 -2.6
v 1.9 2.1 -2.6
v 1.9 2.4 -2.6
v 1.9 2.6 -2.6
v 2 2.1 -2.6
v 2.1 2.1 -2.6
v 2.1 2.2 -2.6
v 2.1 2.4 -2.6
v 2.1 2.6 -2.6
v 0.8 2.4 -2.7
v 0.8 2.7 -2.7
v 0.9 2.2 -2.7
v 0.9 2.4 -2.7
v 0.9 2.7 -2.7
v 1.1 2.4 -2.7
v 1.1 2.6 -2.7
v 1.2 2.2 -2.7
v 1.2 2.6 -2.7
v 1.3 4.1 -2.7
v 1.3 4.2 -2.7
v 1.7 4.1 -2.7
v 1.7 4.2 -2.7
v 1.8 2.2 -2.7
v 1.8 2.6 -2.7
v 1.9 2.4 -2.7
v 1.9 2.6 -2.7
v 2.1 2.2 -2.7
v 2.1 2.4 -2.7
v 2.1 2.7 -2.7
v 2.2 2.4 -2.7
v 2.2 2.7 -2.7
v 1.3 4 -2.8
v 1.3 4.1 -2.8
v 1.7 4 -2.8
v 1.7 4.1 -2.8
v 1.3 3.9 -2.9
v 1.3 4 -2.9
v 1.7 3.9 -2.9
v 1.7 4 -2.9
v 1.3 3.7 -3
v 1.3 3.9 -3
v 1.7 3.7 -3
v 1.7 3.9 -3
v 1 3.7 -1
v 1 3.9 -1
v 1.1 3.7 -1
v 1.1 3.9 -1
v 1.9 3.7 -1
v 1.9 3.9 -1
v 2 3.7 -1
v 2 3.9 -1
v 0.9 4.1 -1.1
v 0.9 4.3 -1.1
v 1 4 -1.1
v 1 4.1 -1.1
v 1 4.3 -1.1
v 1 4.4 -1.1
v 1.1 3.8 -1.1
v 1.1 4 -1.1
v 1.2 3.8 -1.1
v 1.2 4.2 -1.1
v 1.2 4.3 -1.1
v 1.2 4.4 -1.1
v 1.3 4.2 -1.1
v 1.3 4.3 -1.1
v 1.7 4.2 -1.1
v 1.7 4.3 -1.1
v 1.8 3.8 -1.1
v 1.8 4.2 -1.1
v 1.8 4.3 -1.1
v 1.8 4.4 -1.1
v 1.9 3.8 -1.1
v 1.9 4 -1.1
v 2 4 -1.1
v 2 4.1 -1.1
v 2 4.3 -1.1
v 2 4.4 -1.1
v 2.1 4.1 -1.1
v 2.1 4.3 -1.1
v 0.9 2 -1.2
v 0.9 2.3 -1.2
v 1.2 2 -1.2
v 1.2 2.3 -1.2
v 1.2 2.4 -1.2
v 1.2 2.6 -1.2
v 1.2 3.8 -1.2
v 1.2 4.2 -1.2
v 1.3 2.4 -1.2
v 1.3 2.6 -1.2
v 1.3 3.8 -1.2
v 1.3 4.1 -1.2
v 1.4 4.1 -1.2
v 1.4 4.2 -1.2
v 1.6 4.1 -1.2
v 1.6 4.2 -1.2
v 1.7 2.4 -1.2
v 1.7 2.6 -1.2
v 1.7 3.8 -1.2
v 1.7 4.1 -1.2
v 1.8 2 -1.2
v 1.8 2.3 -1.2
v 1.8 2.4 -1.2
v 1.8 2.6 -1.2
v 1.8 3.8 -1.2
v 1.8 4.2 -1.2
v 2.1 2 -1.2
v 2.1 2.3 -1.2
v 0.9 2.3 -1.3
v 0.9 2.5 -1.3
v 1.2 2.3 -1.3
v 1.2 2.5 -1.3
v 1.3 3.8 -1.3
v 1.3 4.1 -1.3
v 1.4 3.8 -1.3
v 1.4 4 -1.3
v 1.6 3.8 -1.3
v 1.6 4 -1.3
v 1.7 3.8 -1.3
v 1.7 4.1 -1.3
v 1.8 2.3 -1.3
v 1.8 2.5 -1.3
v 2.1 2.3 -1.3
v 2.1 2.5 -1.3
v 0.9 2.5 -1.4
v 0.9 2.6 -1.4
v 1.2 2.5 -1.4
v 1.2 2.6 -1.4
v 1.4 3.9 -1.4
v 1.4 4 -1.4
v 1.6 3.9 -1.4
v 1.6 4 -1.4
v 1.8 2.5 -1.4
v 1.8 2.6 -1.4
v 2.1 2.5 -1.4
v 2.1 2.6 -1.4
v 1.4 3.8 -1.5
v 1.4 3.9 -1.5
v 1.6 3.8 -1.5
v 1.6 3.9 -1.5
v 1.1 3.7 -2.3
v 1.1 3.8 -2.3
v 1.3 3.7 -2.3
v 1.3 3.8 -2.3
v 1.7 3.7 -2.3
v 1.7 3.8 -2.3
v 1.9 3.7 -2.3
v 1.9 3.8 -2.3
v 1.8 3.6 -2.4
v 1.8 3.7 -2.4
v 2 3.6 -2.4
v 2 3.7 -2.4
v 0.8 3.3 -2.5
v 0.8 3.4 -2.5
v 0.9 3.3 -2.5
v 0.9 3.4 -2.5
v 0.9 3.5 -2.5
v 0.9 3.6 -2.5
v 1 3.5 -2.5
v 1 3.6 -2.5
v 1 3.7 -2.5
v 1.2 3.6 -2.5
v 1.2 3.7 -2.5
v 2 3.5 -2.5
v 2 3.6 -2.5
v 2.1 3.3 -2.5
v 2.1 3.4 -2.5
v 2.1 3.5 -2.5
v 2.1 3.6 -2.5
v 2.2 3.3 -2.5
v 2.2 3.4 -2.5
v 1.3 3.7 -2.7
v 1.3 3.8 -2.7
v 1.7 3.7 -2.7
v 1.7 3.8 -2.7
v 1.3 4.1 -2.9
v 1.3 4.2 -2.9
v 1.7 4.1 -2.9
v 1.7 4.2 -2.9
v 0.8 2.4 -3
v 0.8 2.7 -3
v 0.8 3.2 -3
v 0.8 3.3 -3
v 0.9 2 -3
v 0.9 2.4 -3
v 0.9 2.7 -3
v 0.9 3.2 -3
v 0.9 3.3 -3
v 0.9 3.4 -3
v 0.9 3.5 -3
v 1 3.4 -3
v 1 3.5 -3
v 1 3.6 -3
v 1.1 3.5 -3
v 1.1 3.6 -3
v 1.2 2 -3
v 1.2 2.4 -3
v 1.2 3.6 -3
v 1.2 3.7 -3
v 1.3 3.6 -3
v 1.3 3.7 -3
v 1.3 4 -3
v 1.3 4.1 -3
v 1.7 3.6 -3
v 1.7 3.7 -3
v 1.7 4 -3
v 1.7 4.1 -3
v 1.8 2 -3
v 1.8 2.4 -3
v 1.8 3.6 -3
v 1.8 3.7 -3
v 1.9 3.5 -3
v 1.9 3.6 -3
v 2 3.4 -3
v 2 3.5 -3
v 2 3.6 -3
v 2.1 2 -3
v 2.1 2.4 -3
v 2.1 2.7 -3
v 2.1 3.2 -3
v 2.1 3.3 -3
v 2.1 3.4 -3
v 2.1 3.5 -3
v 2.2 2.4 -3
v 2.2 2.7 -3
v 2.2 3.2 -3
v 2.2 3.3 -3
v 0.8 2.7 -3.1
v 0.8 3.2 -3.1
v 0.9 2.4 -3.1
v 0.9 2.6 -3.1
v 0.9 2.7 -3.1
v 0.9 3.2 -3.1
v 0.9 3.3 -3.1
v 0.9 3.4 -3.1
v 1 3.3 -3.1
v 1 3.4 -3.1
v 1 3.5 -3.1
v 1.1 3.4 -3.1
v 1.1 3.5 -3.1
v 1.1 3.6 -3.1
v 1.2 2.4 -3.1
v 1.2 2.6 -3.1
v 1.3 3.5 -3.1
v 1.3 3.6 -3.1
v 1.3 3.9 -3.1
v 1.3 4 -3.1
v 1.7 3.5 -3.1
v 1.7 3.6 -3.1
v 1.7 3.9 -3.1
v 1.7 4 -3.1
v 1.8 2.4 -3.1
v 1.8 2.6 -3.1
v 1.9 3.4 -3.1
v 1.9 3.5 -3.1
v 1.9 3.6 -3.1
v 2 3.3 -3.1
v 2 3.4 -3.1
v 2 3.5 -3.1
v 2.1 2.4 -3.1
v 2.1 2.6 -3.1
v 2.1 2.7 -3.1
v 2.1 3.2 -3.1
v 2.1 3.3 -3.1
v 2.1 3.4 -3.1
v 2.2 2.7 -3.1
v 2.2 3.2 -3.1
v 0.9 2.6 -3.2
v 0.9 2.7 -3.2
v 0.9 3.3 -3.2
v 1 3.3 -3.2
v 1 3.4 -3.2
v 1.1 3.4 -3.2
v 1.1 3.5 -3.2
v 1.2 2.7 -3.2
v 1.2 3.3 -3.2
v 1.3 3.5 -3.2
v 1.3 3.9 -3.2
v 1.4 3.3 -3.2
v 1.4 3.8 -3.2
v 1.6 3.3 -3.2
v 1.6 3.8 -3.2
v 1.7 3.5 -3.2
v 1.7 3.9 -3.2
v 1.8 2.7 -3.2
v 1.8 3.3 -3.2
v 1.9 3.4 -3.2
v 1.9 3.5 -3.2
v 2 3.3 -3.2
v 2 3.4 -3.2
v 2.1 2.6 -3.2
v 2.1 2.7 -3.2
v 2.1 3.3 -3.2
v 1.2 2.7 -3.3
v 1.2 3.3 -3.3
v 1.3 2.8 -3.3
v 1.3 3.2 -3.3
v 1.4 3.3 -3.3
v 1.4 3.8 -3.3
v 1.6 3.3 -3.3
v 1.6 3.8 -3.3
v 1.7 2.8 -3.3
v 1.7 3.2 -3.3
v 1.8 2.7 -3.3
v 1.8 3.3 -3.3
v 1.3 2.8 -3.4
v 1.3 3.2 -3.4
v 1.7 2.8 -3.4
v 1.7 3.2 -3.4
v 0.9 2 -0.7
v 1 2 -0.7
v 1.1 2 -0.7
v 1.2 2 -0.7
v 1.8 2 -0.7
v 1.9 2 -0.7
v 2 2 -0.7
v 2.1 2 -0.7
v 0.9 2 -0.8
v 1 2 -0.8
v 1.1 2 -0.8
v 1.2 2 -0.8
v 1.8 2 -0.8
v 1.9 2 -0.8
v 2 2 -0.8
v 2.1 2 -0.8
v 0.9 2 -1.2
v 1.2 2 -1.2
v 1.8 2 -1.2
v 2.1 2 -1.2
v 0.9 2 -2.5
v 1 2 -2.5
v 1.1 2 -2.5
v 1.2 2 -2.5
v 1.8 2 -2.5
v 1.9 2 -2.5
v 2 2 -2.5
v 2.1 2 -2.5
v 0.9 2 -2.6
v 1 2 -2.6
v 1.1 2 -2.6
v 1.2 2 -2.6
v 1.8 2 -2.6
v 1.9 2 -2.6
v 2 2 -2.6
v 2.1 2 -2.6
v 0.9 2 -3
v 1.2 2 -3
v 1.8 2 -3
v 2.1 2 -3
v 0.9 2.3 -1.2
v 1.2 2.3 -1.2
v 1.8 2.3 -1.2
v 2.1 2.3 -1.2
v 0.9 2.3 -1.3
v 1.2 2.3 -1.3
v 1.8 2.3 -1.3
v 2.1 2.3 -1.3
v 0.9 2.4 -0.8
v 1.1 2.4 -0.8
v 1.2 2.4 -0.8
v 1.8 2.4 -0.8
v 1.9 2.4 -0.8
v 2.1 2.4 -0.8
v 0.9 2.4 -0.9
v 1.1 2.4 -0.9
v 1.2 2.4 -0.9
v 1.3 2.4 -0.9
v 1.7 2.4 -0.9
v 1.8 2.4 -0.9
v 1.9 2.4 -0.9
v 2.1 2.4 -0.9
v 1.2 2.4 -1.2
v 1.3 2.4 -1.2
v 1.7 2.4 -1.2
v 1.8 2.4 -1.2
v 0.9 2.4 -2.6
v 1.1 2.4 -2.6
v 1.9 2.4 -2.6
v 2.1 2.4 -2.6
v 0.8 2.4 -2.7
v 0.9 2.4 -2.7
v 1.1 2.4 -2.7
v 1.9 2.4 -2.7
v 2.1 2.4 -2.7
v 2.2 2.4 -2.7
v 0.8 2.4 -3
v 0.9 2.4 -3
v 1.2 2.4 -3
v 1.8 2.4 -3
v 2.1 2.4 -3
v 2.2 2.4 -3
v 0.9 2.4 -3.1
v 1.2 2.4 -3.1
v 1.8 2.4 -3.1
v 2.1 2.4 -3.1
v 0.9 2.5 -1.3
v 1.2 2.5 -1.3
v 1.8 2.5 -1.3
v 2.1 2.5 -1.3
v 0.9 2.5 -1.4
v 1.2 2.5 -1.4
v 1.8 2.5 -1.4
v 2.1 2.5 -1.4
v 1.2 2.6 -1.2
v 1.3 2.6 -1.2
v 1.7 2.6 -1.2
v 1.8 2.6 -1.2
v 0.9 2.6 -1.4
v 1.2 2.6 -1.4
v 1.8 2.6 -1.4
v 2.1 2.6 -1.4
v 0.9 2.6 -2.6
v 1.1 2.6 -2.6
v 1.9 2.6 -2.6
v 2.1 2.6 -2.6
v 1.1 2.6 -2.7
v 1.2 2.6 -2.7
v 1.8 2.6 -2.7
v 1.9 2.6 -2.7
v 0.9 2.6 -3.1
v 1.2 2.6 -3.1
v 1.8 2.6 -3.1
v 2.1 2.6 -3.1
v 0.9 2.6 -3.2
v 2.1 2.6 -3.2
v 1.3 2.7 -1.1
v 1.7 2.7 -1.1
v 0.8 2.7 -1.2
v 0.9 2.7 -1.2
v 1.3 2.7 -1.2
v 1.7 2.7 -1.2
v 2.1 2.7 -1.2
v 2.2 2.7 -1.2
v 0.9 2.7 -2.6
v 2.1 2.7 -2.6
v 0.8 2.7 -2.7
v 0.9 2.7 -2.7
v 2.1 2.7 -2.7
v 2.2 2.7 -2.7
v 0.8 2.7 -3
v 0.9 2.7 -3
v 2.1 2.7 -3
v 2.2 2.7 -3
v 0.8 2.7 -3.1
v 0.9 2.7 -3.1
v 2.1 2.7 -3.1
v 2.2 2.7 -3.1
v 1.2 2.7 -3.2
v 1.8 2.7 -3.2
v 1.2 2.7 -3.3
v 1.8 2.7 -3.3
v 1.3 2.8 -0.9
v 1.7 2.8 -0.9
v 1.3 2.8 -1.1
v 1.7 2.8 -1.1
v 1.3 2.8 -3.3
v 1.7 2.8 -3.3
v 1.3 2.8 -3.4
v 1.7 2.8 -3.4
v 1.2 3 -0.8
v 1.8 3 -0.8
v 1.2 3 -0.9
v 1.8 3 -0.9
v 1.3 3.1 -0.7
v 1.7 3.1 -0.7
v 1.1 3.1 -0.8
v 1.2 3.1 -0.8
v 1.3 3.1 -0.8
v 1.7 3.1 -0.8
v 1.8 3.1 -0.8
v 1.9 3.1 -0.8
v 1.1 3.1 -0.9
v 1.2 3.1 -0.9
v 1.8 3.1 -0.9
v 1.9 3.1 -0.9
v 1.4 3.2 -0.6
v 1.6 3.2 -0.6
v 1.2 3.2 -0.7
v 1.3 3.2 -0.7
v 1.4 3.2 -0.7
v 1.6 3.2 -0.7
v 1.7 3.2 -0.7
v 1.8 3.2 -0.7
v 1.2 3.2 -0.8
v 1.3 3.2 -0.8
v 1.7 3.2 -0.8
v 1.8 3.2 -0.8
v 1.3 3.3 -0.5
v 1.7 3.3 -0.5
v 1.4 3.3 -0.6
v 1.6 3.3 -0.6
v 1.3 3.3 -0.7
v 1.4 3.3 -0.7
v 1.6 3.3 -0.7
v 1.7 3.3 -0.7
v 1.4 3.4 -0.4
v 1.6 3.4 -0.4
v 1.4 3.4 -0.5
v 1.6 3.4 -0.5
v 1 3.4 -0.8
v 1.1 3.4 -0.8
v 1.9 3.4 -0.8
v 2 3.4 -0.8
v 1 3.4 -0.9
v 1.1 3.4 -0.9
v 1.9 3.4 -0.9
v 2 3.4 -0.9
v 1.1 3.6 -0.6
v 1.3 3.6 -0.6
v 1.7 3.6 -0.6
v 1.9 3.6 -0.6
v 1.2 3.6 -0.7
v 1.3 3.6 -0.7
v 1.7 3.6 -0.7
v 1.8 3.6 -0.7
v 1.1 3.6 -0.8
v 1.2 3.6 -0.8
v 1.8 3.6 -0.8
v 1.9 3.6 -0.8
v 1.3 3.9 -2.9
v 1.7 3.9 -2.9
v 1.3 3.9 -3
v 1.7 3.9 -3
v 1 4 -0.8
v 1.1 4 -0.8
v 1.9 4 -0.8
v 2 4 -0.8
v 1 4 -1.1
v 1.1 4 -1.1
v 1.9 4 -1.1
v 2 4 -1.1
v 1.3 4 -2.8
v 1.7 4 -2.8
v 1.3 4 -2.9
v 1.7 4 -2.9
v 0.9 4.1 -0.8
v 1 4.1 -0.8
v 2 4.1 -0.8
v 2.1 4.1 -0.8
v 0.9 4.1 -1.1
v 1 4.1 -1.1
v 2 4.1 -1.1
v 2.1 4.1 -1.1
v 1.3 4.1 -2.7
v 1.7 4.1 -2.7
v 1.3 4.1 -2.8
v 1.7 4.1 -2.8
v 1.2 4.2 -0.8
v 1.3 4.2 -0.8
v 1.7 4.2 -0.8
v 1.8 4.2 -0.8
v 1.2 4.2 -0.9
v 1.3 4.2 -0.9
v 1.7 4.2 -0.9
v 1.8 4.2 -0.9
v 1 4.3 -0.8
v 1.2 4.3 -0.8
v 1.8 4.3 -0.8
v 2 4.3 -0.8
v 1 4.3 -0.9
v 1.2 4.3 -0.9
v 1.8 4.3 -0.9
v 2 4.3 -0.9
v 0.9 2.1 -0.7
v 1 2.1 -0.7
v 1.1 2.1 -0.7
v 1.2 2.1 -0.7
v 1.8 2.1 -0.7
v 1.9 2.1 -0.7
v 2 2.1 -0.7
v 2.1 2.1 -0.7
v 0.9 2.1 -0.8
v 1 2.1 -0.8
v 1.1 2.1 -0.8
v 1.2 2.1 -0.8
v 1.8 2.1 -0.8
v 1.9 2.1 -0.8
v 2 2.1 -0.8
v 2.1 2.1 -0.8
v 0.9 2.1 -2.5
v 1 2.1 -2.5
v 1.1 2.1 -2.5
v 1.2 2.1 -2.5
v 1.8 2.1 -2.5
v 1.9 2.1 -2.5
v 2 2.1 -2.5
v 2.1 2.1 -2.5
v 0.9 2.1 -2.6
v 1 2.1 -2.6
v 1.1 2.1 -2.6
v 1.2 2.1 -2.6
v 1.8 2.1 -2.6
v 1.9 2.1 -2.6
v 2 2.1 -2.6
v 2.1 2.1 -2.6
v 0.9 2.2 -0.8
v 1.2 2.2 -0.8
v 1.8 2.2 -0.8
v 2.1 2.2 -0.8
v 0.9 2.2 -0.9
v 1.2 2.2 -0.9
v 1.8 2.2 -0.9
v 2.1 2.2 -0.9
v 0.9 2.2 -2.6
v 1.2 2.2 -2.6
v 1.8 2.2 -2.6
v 2.1 2.2 -2.6
v 0.9 2.2 -2.7
v 1.2 2.2 -2.7
v 1.8 2.2 -2.7
v 2.1 2.2 -2.7
v 0.9 2.7 -0.8
v 1.1 2.7 -0.8
v 1.2 2.7 -0.8
v 1.8 2.7 -0.8
v 1.9 2.7 -0.8
v 2.1 2.7 -0.8
v 0.9 2.7 -0.9
v 1.1 2.7 -0.9
v 1.2 2.7 -0.9
v 1.8 2.7 -0.9
v 1.9 2.7 -0.9
v 2.1 2.7 -0.9
v 0.8 3.2 -3
v 0.9 3.2 -3
v 2.1 3.2 -3
v 2.2 3.2 -3
v 0.8 3.2 -3.1
v 0.9 3.2 -3.1
v 2.1 3.2 -3.1
v 2.2 3.2 -3.1
v 1.3 3.2 -3.3
v 1.7 3.2 -3.3
v 1.3 3.2 -3.4
v 1.7 3.2 -3.4
v 0.8 3.3 -1.2
v 0.9 3.3 -1.2
v 2.1 3.3 -1.2
v 2.2 3.3 -1.2
v 0.8 3.3 -1.3
v 0.9 3.3 -1.3
v 2.1 3.3 -1.3
v 2.2 3.3 -1.3
v 0.8 3.3 -2.5
v 0.9 3.3 -2.5
v 2.1 3.3 -2.5
v 2.2 3.3 -2.5
v 0.8 3.3 -3
v 0.9 3.3 -3
v 2.1 3.3 -3
v 2.2 3.3 -3
v 0.9 3.3 -3.1
v 1 3.3 -3.1
v 2 3.3 -3.1
v 2.1 3.3 -3.1
v 0.9 3.3 -3.2
v 1 3.3 -3.2
v 1.2 3.3 -3.2
v 1.4 3.3 -3.2
v 1.6 3.3 -3.2
v 1.8 3.3 -3.2
v 2 3.3 -3.2
v 2.1 3.3 -3.2
v 1.2 3.3 -3.3
v 1.4 3.3 -3.3
v 1.6 3.3 -3.3
v 1.8 3.3 -3.3
v 0.8 3.4 -1.3
v 0.9 3.4 -1.3
v 2.1 3.4 -1.3
v 2.2 3.4 -1.3
v 0.8 3.4 -2.5
v 0.9 3.4 -2.5
v 2.1 3.4 -2.5
v 2.2 3.4 -2.5
v 0.9 3.4 -3
v 1 3.4 -3
v 2 3.4 -3
v 2.1 3.4 -3
v 0.9 3.4 -3.1
v 1 3.4 -3.1
v 1.1 3.4 -3.1
v 1.9 3.4 -3.1
v 2 3.4 -3.1
v 2.1 3.4 -3.1
v 1 3.4 -3.2
v 1.1 3.4 -3.2
v 1.9 3.4 -3.2
v 2 3.4 -3.2
v 1.4 3.5 -0.4
v 1.6 3.5 -0.4
v 1.4 3.5 -0.5
v 1.6 3.5 -0.5
v 0.9 3.5 -0.9
v 1 3.5 -0.9
v 2 3.5 -0.9
v 2.1 3.5 -0.9
v 0.9 3.5 -1
v 1 3.5 -1
v 2 3.5 -1
v 2.1 3.5 -1
v 0.9 3.5 -2.5
v 1 3.5 -2.5
v 2 3.5 -2.5
v 2.1 3.5 -2.5
v 0.9 3.5 -3
v 1 3.5 -3
v 1.1 3.5 -3
v 1.9 3.5 -3
v 2 3.5 -3
v 2.1 3.5 -3
v 1 3.5 -3.1
v 1.1 3.5 -3.1
v 1.3 3.5 -3.1
v 1.7 3.5 -3.1
v 1.9 3.5 -3.1
v 2 3.5 -3.1
v 1.1 3.5 -3.2
v 1.3 3.5 -3.2
v 1.7 3.5 -3.2
v 1.9 3.5 -3.2
v 1.3 3.6 -0.5
v 1.7 3.6 -0.5
v 1.3 3.6 -0.6
v 1.4 3.6 -0.6
v 1.6 3.6 -0.6
v 1.7 3.6 -0.6
v 0.9 3.6 -1
v 1 3.6 -1
v 2 3.6 -1
v 2.1 3.6 -1
v 1.8 3.6 -2.4
v 2 3.6 -2.4
v 0.9 3.6 -2.5
v 1 3.6 -2.5
v 1.2 3.6 -2.5
v 2 3.6 -2.5
v 2.1 3.6 -2.5
v 1 3.6 -3
v 1.1 3.6 -3
v 1.2 3.6 -3
v 1.3 3.6 -3
v 1.7 3.6 -3
v 1.8 3.6 -3
v 1.9 3.6 -3
v 2 3.6 -3
v 1.1 3.6 -3.1
v 1.3 3.6 -3.1
v 1.7 3.6 -3.1
v 1.9 3.6 -3.1
v 1 3.7 -1
v 1.1 3.7 -1
v 1.9 3.7 -1
v 2 3.7 -1
v 1.1 3.7 -2.3
v 1.3 3.7 -2.3
v 1.7 3.7 -2.3
v 1.9 3.7 -2.3
v 1.8 3.7 -2.4
v 2 3.7 -2.4
v 1 3.7 -2.5
v 1.2 3.7 -2.5
v 1.3 3.7 -2.7
v 1.7 3.7 -2.7
v 1.2 3.7 -3
v 1.3 3.7 -3
v 1.7 3.7 -3
v 1.8 3.7 -3
v 1.1 3.8 -1.1
v 1.2 3.8 -1.1
v 1.8 3.8 -1.1
v 1.9 3.8 -1.1
v 1.2 3.8 -1.2
v 1.3 3.8 -1.2
v 1.7 3.8 -1.2
v 1.8 3.8 -1.2
v 1.3 3.8 -1.3
v 1.4 3.8 -1.3
v 1.6 3.8 -1.3
v 1.7 3.8 -1.3
v 1.4 3.8 -1.5
v 1.6 3.8 -1.5
v 1.1 3.8 -2.3
v 1.3 3.8 -2.3
v 1.7 3.8 -2.3
v 1.9 3.8 -2.3
v 1.3 3.8 -2.7
v 1.7 3.8 -2.7
v 1.4 3.8 -3.2
v 1.6 3.8 -3.2
v 1.4 3.8 -3.3
v 1.6 3.8 -3.3
v 1.1 3.9 -0.6
v 1.4 3.9 -0.6
v 1.6 3.9 -0.6
v 1.9 3.9 -0.6
v 1 3.9 -0.8
v 1.1 3.9 -0.8
v 1.2 3.9 -0.8
v 1.3 3.9 -0.8
v 1.4 3.9 -0.8
v 1.6 3.9 -0.8
v 1.7 3.9 -0.8
v 1.8 3.9 -0.8
v 1.9 3.9 -0.8
v 2 3.9 -0.8
v 1.2 3.9 -0.9
v 1.3 3.9 -0.9
v 1.7 3.9 -0.9
v 1.8 3.9 -0.9
v 1 3.9 -1
v 1.1 3.9 -1
v 1.9 3.9 -1
v 2 3.9 -1
v 1.4 3.9 -1.4
v 1.6 3.9 -1.4
v 1.4 3.9 -1.5
v 1.6 3.9 -1.5
v 1.3 3.9 -3.1
v 1.7 3.9 -3.1
v 1.3 3.9 -3.2
v 1.7 3.9 -3.2
v 1.1 4 -0.8
v 1.2 4 -0.8
v 1.4 4 -0.8
v 1.6 4 -0.8
v 1.8 4 -0.8
v 1.9 4 -0.8
v 1.1 4 -0.9
v 1.2 4 -0.9
v 1.4 4 -0.9
v 1.6 4 -0.9
v 1.8 4 -0.9
v 1.9 4 -0.9
v 1.4 4 -1.3
v 1.6 4 -1.3
v 1.4 4 -1.4
v 1.6 4 -1.4
v 1.3 4 -3
v 1.7 4 -3
v 1.3 4 -3.1
v 1.7 4 -3.1
v 1 4.1 -0.8
v 1.1 4.1 -0.8
v 1.9 4.1 -0.8
v 2 4.1 -0.8
v 1 4.1 -0.9
v 1.1 4.1 -0.9
v 1.4 4.1 -0.9
v 1.6 4.1 -0.9
v 1.9 4.1 -0.9
v 2 4.1 -0.9
v 1.4 4.1 -1
v 1.6 4.1 -1
v 1.3 4.1 -1.2
v 1.4 4.1 -1.2
v 1.6 4.1 -1.2
v 1.7 4.1 -1.2
v 1.3 4.1 -1.3
v 1.7 4.1 -1.3
v 1.3 4.1 -2.9
v 1.7 4.1 -2.9
v 1.3 4.1 -3
v 1.7 4.1 -3
v 1.3 4.2 -0.8
v 1.4 4.2 -0.8
v 1.6 4.2 -0.8
v 1.7 4.2 -0.8
v 1.2 4.2 -1.1
v 1.3 4.2 -1.1
v 1.7 4.2 -1.1
v 1.8 4.2 -1.1
v 1.2 4.2 -1.2
v 1.4 4.2 -1.2
v 1.6 4.2 -1.2
v 1.8 4.2 -1.2
v 1.3 4.2 -2.7
v 1.7 4.2 -2.7
v 1.3 4.2 -2.9
v 1.7 4.2 -2.9
v 0.9 4.3 -0.8
v 1 4.3 -0.8
v 1.2 4.3 -0.8
v 1.3 4.3 -0.8
v 1.7 4.3 -0.8
v 1.8 4.3 -0.8
v 2 4.3 -0.8
v 2.1 4.3 -0.8
v 0.9 4.3 -1.1
v 1 4.3 -1.1
v 1.2 4.3 -1.1
v 1.3 4.3 -1.1
v 1.7 4.3 -1.1
v 1.8 4.3 -1.1
v 2 4.3 -1.1
v 2.1 4.3 -1.1
v 1 4.4 -0.8
v 1.2 4.4 -0.8
v 1.8 4.4 -0.8
v 2 4.4 -0.8
v 1 4.4 -1.1
v 1.2 4.4 -1.1
v 1.8 4.4 -1.1
v 2 4.4 -1.1

# faces
f 4/3/1 2/3/1 1/3/1
f 5/3/1 2/3/1 4/3/1
f 7/3/1 4/3/1 3/3/1
f 7/3/1 6/3/1 5/3/1
f 7/3/1 5/3/1 4/3/1
f 8/3/1 6/3/1 7/3/1
f 9/3/1 7/3/1 3/3/1
f 10/3/1 7/3/1 9/3/1
f 11/3/1 7/3/1 10/3/1
f 12/3/1 7/3/1 11/3/1
f 13/3/1 11/3/1 10/3/1
f 14/3/1 11/3/1 13/3/1
f 21/6/1 16/6/1 15/6/1
f 22/5/1 17/5/1 16/5/1
f 22/6/1 16/6/1 21/6/1
f 23/6/1 19/6/1 18/6/1
f 24/5/1 20/5/1 19/5/1
f 24/6/1 19/6/1 23/6/1
f 25/5/1 17/5/1 22/5/1
f 26/5/1 17/5/1 25/5/1
f 27/5/1 20/5/1 24/5/1
f 28/5/1 20/5/1 27/5/1
f 29/5/1 17/5/1 26/5/1
f 32/5/1 29/5/1 26/5/1
f 32/5/1 30/5/1 29/5/1
f 33/5/1 30/5/1 32/5/1
f 35/5/1 20/5/1 28/5/1
f 36/5/1 20/5/1 35/5/1
f 38/5/1 30/5/1 33/5/1
f 40/5/1 39/5/1 38/5/1
f 41/3/1 35/3/1 34/3/1
f 42/5/1 37/5/1 36/5/1
f 44/3/1 32/3/1 31/3/1
f 44/3/1 33/3/1 32/3/1
f 45/3/1 33/3/1 44/3/1
f 46/5/1 41/5/1 40/5/1
f 46/3/1 33/3/1 45/3/1
f 46/5/1 40/5/1 38/5/1
f 46/5/1 38/5/1 33/5/1
f 47/3/1 35/3/1 41/3/1
f 47/5/1 41/5/1 46/5/1
f 48/3/1 35/3/1 47/3/1
f 49/5/1 43/5/1 42/5/1
f 49/5/1 42/5/1 36/5/1
f 50/5/1 43/5/1 49/5/1
f 51/5/1 43/5/1 50/5/1
f 53/3/1 51/3/1 50/3/1
f 54/3/1 46/3/1 45/3/1
f 57/3/1 53/3/1 52/3/1
f 58/3/1 51/3/1 53/3/1
f 58/3/1 53/3/1 57/3/1
f 59/3/1 51/3/1 58/3/1
f 60/3/1 55/3/1 54/3/1
f 61/3/1 57/3/1 56/3/1
f 61/3/1 58/3/1 57/3/1
f 62/3/1 58/3/1 61/3/1
f 63/3/1 58/3/1 62/3/1
f 64/3/1 60/3/1 54/3/1
f 64/3/1 54/3/1 45/3/1
f 64/3/1 62/3/1 61/3/1
f 64/3/1 61/3/1 60/3/1
f 65/3/1 62/3/1 64/3/1
f 66/3/1 62/3/1 65/3/1
f 67/3/1 62/3/1 66/3/1
f 68/3/1 66/3/1 65/3/1
f 69/3/1 66/3/1 68/3/1
f 72/3/1 71/3/1 70/3/1
f 73/3/1 71/3/1 72/3/1
f 79/3/1 75/3/1 74/3/1
f 80/3/1 75/3/1 79/3/1
f 81/5/1 77/5/1 76/5/1
f 84/3/1 79/3/1 78/3/1
f 85/3/1 79/3/1 84/3/1
f 86/5/1 81/5/1 76/5/1
f 87/3/1 82/3/1 81/3/1
f 87/5/1 81/5/1 86/5/1
f 88/3/1 82/3/1 87/3/1
f 89/3/1 84/3/1 83/3/1
f 90/3/1 84/3/1 89/3/1
f 91/3/1 88/3/1 87/3/1
f 91/3/1 87/3/1 86/3/1
f 91/3/1 89/3/1 88/3/1
f 92/3/1 89/3/1 91/3/1
f 93/3/1 91/3/1 86/3/1
f 94/3/1 91/3/1 93/3/1
f 97/3/1 96/3/1 95/3/1
f 98/3/1 96/3/1 97/3/1
f 101/3/1 100/3/1 99/3/1
f 102/3/1 100/3/1 101/3/1
f 105/5/1 104/5/1 103/5/1
f 106/5/1 104/5/1 105/5/1
f 110/3/1 108/3/1 107/3/1
f 111/3/1 108/3/1 110/3/1
f 114/3/1 110/3/1 109/3/1
f 115/3/1 110/3/1 114/3/1
f 118/3/1 117/3/1 116/3/1
f 119/3/1 117/3/1 118/3/1
f 120/3/1 113/3/1 112/3/1
f 121/3/1 113/3/1 120/3/1
f 122/3/1 118/3/1 116/3/1
f 123/3/1 122/3/1 121/3/1
f 124/3/1 118/3/1 122/3/1
f 124/3/1 122/3/1 123/3/1
f 129/5/1 128/5/1 127/5/1
f 130/5/1 128/5/1 129/5/1
f 133/5/1 126/5/1 125/5/1
f 134/5/1 126/5/1 133/5/1
f 135/5/1 132/5/1 131/5/1
f 136/5/1 132/5/1 135/5/1
f 139/3/1 138/3/1 137/3/1
f 140/3/1 138/3/1 139/3/1
f 145/3/1 142/3/1 141/3/1
f 146/3/1 142/3/1 145/3/1
f 147/3/1 144/3/1 143/3/1
f 148/3/1 144/3/1 147/3/1
f 153/5/1 152/5/1 151/5/1
f 154/5/1 152/5/1 153/5/1
f 155/5/1 150/5/1 149/5/1
f 156/5/1 150/5/1 155/5/1
f 161/5/1 158/5/1 157/5/1
f 162/5/1 158/5/1 161/5/1
f 163/5/1 158/5/1 162/5/1
f 165/3/1 160/3/1 159/3/1
f 168/3/1 165/3/1 164/3/1
f 171/3/1 167/3/1 166/3/1
f 172/3/1 167/3/1 171/3/1
f 176/3/1 165/3/1 168/3/1
f 177/3/1 160/3/1 165/3/1
f 177/3/1 165/3/1 176/3/1
f 178/3/1 160/3/1 177/3/1
f 180/3/1 176/3/1 175/3/1
f 180/3/1 177/3/1 176/3/1
f 181/3/1 177/3/1 180/3/1
f 182/3/1 177/3/1 181/3/1
f 183/3/1 170/3/1 169/3/1
f 184/3/1 170/3/1 183/3/1
f 186/3/1 180/3/1 179/3/1
f 186/3/1 181/3/1 180/3/1
f 187/3/1 181/3/1 186/3/1
f 188/3/1 181/3/1 187/3/1
f 189/3/1 174/3/1 173/3/1
f 190/3/1 174/3/1 189/3/1
f 191/3/1 187/3/1 186/3/1
f 191/3/1 186/3/1 185/3/1
f 192/3/1 187/3/1 191/3/1
f 195/4/1 194/4/1 193/4/1
f 196/4/1 194/4/1 195/4/1
f 201/6/1 200/6/1 199/6/1
f 202/6/1 200/6/1 201/6/1
f 205/5/1 198/5/1 197/5/1
f 206/5/1 198/5/1 205/5/1
f 207/3/1 204/3/1 203/3/1
f 208/3/1 204/3/1 207/3/1
f 209/3/1 207/3/1 203/3/1
f 210/3/1 207/3/1 209/3/1
f 213/3/1 212/3/1 211/3/1
f 216/3/1 213/3/1 211/3/1
f 216/3/1 215/3/1 214/3/1
f 216/3/1 214/3/1 213/3/1
f 217/3/1 215/3/1 216/3/1
f 220/5/1 219/5/1 218/5/1
f 221/5/1 220/5/1 218/5/1
f 222/5/1 220/5/1 221/5/1
f 223/5/1 221/5/1 218/5/1
f 224/5/1 221/5/1 223/5/1
f 227/3/1 226/3/1 225/3/1
f 228/3/1 226/3/1 227/3/1
f 235/6/1 230/6/1 229/6/1
f 236/5/1 231/5/1 230/5/1
f 236/6/1 230/6/1 235/6/1
f 237/6/1 233/6/1 232/6/1
f 238/5/1 234/5/1 233/5/1
f 238/6/1 233/6/1 237/6/1
f 239/5/1 231/5/1 236/5/1
f 240/5/1 231/5/1 239/5/1
f 241/5/1 234/5/1 238/5/1
f 242/5/1 234/5/1 241/5/1
f 243/5/1 231/5/1 240/5/1
f 246/5/1 243/5/1 240/5/1
f 246/5/1 244/5/1 243/5/1
f 247/5/1 244/5/1 246/5/1
f 248/5/1 234/5/1 242/5/1
f 250/5/1 244/5/1 247/5/1
f 252/5/1 250/5/1 247/5/1
f 252/5/1 251/5/1 250/5/1
f 253/5/1 251/5/1 252/5/1
f 254/5/1 249/5/1 248/5/1
f 254/5/1 248/5/1 242/5/1
f 255/5/1 249/5/1 254/5/1
f 256/5/1 246/5/1 245/5/1
f 257/5/1 246/5/1 256/5/1
f 260/3/1 259/3/1 258/3/1
f 261/3/1 259/3/1 260/3/1
f 264/3/1 263/3/1 262/3/1
f 265/3/1 263/3/1 264/3/1
f 268/3/1 267/3/1 266/3/1
f 269/3/1 267/3/1 268/3/1
f 272/3/1 271/3/1 270/3/1
f 273/3/1 271/3/1 272/3/1
f 276/3/1 275/3/1 274/3/1
f 277/3/1 275/3/1 276/3/1
f 278/3/2 279/3/2 280/3/2
f 280/3/2 279/3/2 281/3/2
f 282/3/2 283/3/2 284/3/2
f 284/3/2 283/3/2 285/3/2
f 286/3/2 287/3/2 288/3/2
f 288/3/2 287/3/2 289/3/2
f 290/6/2 291/6/2 296/6/2
f 291/5/2 292/5/2 297/5/2
f 296/6/2 291/6/2 297/6/2
f 293/6/2 294/6/2 298/6/2
f 294/5/2 295/5/2 299/5/2
f 298/6/2 294/6/2 299/6/2
f 297/5/2 292/5/2 300/5/2
f 300/5/2 292/5/2 301/5/2
f 299/5/2 295/5/2 302/5/2
f 302/5/2 295/5/2 303/5/2
f 301/5/2 292/5/2 304/5/2
f 301/5/2 304/5/2 307/5/2
f 304/5/2 305/5/2 307/5/2
f 307/5/2 305/5/2 308/5/2
f 303/5/2 295/5/2 309/5/2
f 308/5/2 305/5/2 311/5/2
f 308/5/2 311/5/2 313/5/2
f 311/5/2 312/5/2 313/5/2
f 313/5/2 312/5/2 314/5/2
f 309/5/2 310/5/2 315/5/2
f 303/5/2 309/5/2 315/5/2
f 315/5/2 310/5/2 316/5/2
f 306/5/2 307/5/2 317/5/2
f 317/5/2 307/5/2 318/5/2
f 319/3/2 320/3/2 321/3/2
f 321/3/2 320/3/2 322/3/2
f 323/3/2 324/3/2 325/3/2
f 325/3/2 324/3/2 326/3/2
f 327/5/2 328/5/2 329/5/2
f 327/5/2 329/5/2 330/5/2
f 330/5/2 329/5/2 331/5/2
f 327/5/2 330/5/2 332/5/2
f 332/5/2 330/5/2 333/5/2
f 334/3/2 335/3/2 336/3/2
f 336/3/2 335/3/2 337/3/2
f 338/3/2 339/3/2 340/3/2
f 338/3/2 340/3/2 343/3/2
f 341/3/2 342/3/2 343/3/2
f 340/3/2 341/3/2 343/3/2
f 343/3/2 342/3/2 344/3/2
f 345/4/2 346/4/2 347/4/2
f 347/4/2 346/4/2 348/4/2
f 351/6/2 352/6/2 353/6/2
f 353/6/2 352/6/2 354/6/2
f 349/5/2 350/5/2 357/5/2
f 357/5/2 350/5/2 358/5/2
f 355/3/2 356/3/2 359/3/2
f 359/3/2 356/3/2 360/3/2
f 355/3/2 359/3/2 361/3/2
f 361/3/2 359/3/2 362/3/2
f 365/5/2 366/5/2 367/5/2
f 367/5/2 366/5/2 368/5/2
f 363/5/2 364/5/2 369/5/2
f 369/5/2 364/5/2 370/5/2
f 371/5/2 372/5/2 375/5/2
f 375/5/2 372/5/2 376/5/2
f 376/5/2 372/5/2 377/5/2
f 373/3/2 374/3/2 379/3/2
f 378/3/2 379/3/2 382/3/2
f 380/3/2 381/3/2 385/3/2
f 385/3/2 381/3/2 386/3/2
f 382/3/2 379/3/2 390/3/2
f 379/3/2 374/3/2 391/3/2
f 390/3/2 379/3/2 391/3/2
f 391/3/2 374/3/2 392/3/2
f 389/3/2 390/3/2 394/3/2
f 390/3/2 391/3/2 394/3/2
f 394/3/2 391/3/2 395/3/2
f 395/3/2 391/3/2 396/3/2
f 383/3/2 384/3/2 397/3/2
f 397/3/2 384/3/2 398/3/2
f 393/3/2 394/3/2 400/3/2
f 394/3/2 395/3/2 400/3/2
f 400/3/2 395/3/2 401/3/2
f 401/3/2 395/3/2 402/3/2
f 387/3/2 388/3/2 403/3/2
f 403/3/2 388/3/2 404/3/2
f 400/3/2 401/3/2 405/3/2
f 399/3/2 400/3/2 405/3/2
f 405/3/2 401/3/2 406/3/2
f 409/5/2 410/5/2 411/5/2
f 411/5/2 410/5/2 412/5/2
f 407/5/2 408/5/2 415/5/2
f 415/5/2 408/5/2 416/5/2
f 413/5/2 414/5/2 417/5/2
f 417/5/2 414/5/2 418/5/2
f 419/3/2 420/3/2 421/3/2
f 421/3/2 420/3/2 422/3/2
f 423/3/2 424/3/2 427/3/2
f 427/3/2 424/3/2 428/3/2
f 425/3/2 426/3/2 429/3/2
f 429/3/2 426/3/2 430/3/2
f 431/5/2 432/5/2 433/5/2
f 433/5/2 432/5/2 434/5/2
f 435/3/2 436/3/2 438/3/2
f 438/3/2 436/3/2 439/3/2
f 437/3/2 438/3/2 442/3/2
f 442/3/2 438/3/2 443/3/2
f 444/3/2 445/3/2 446/3/2
f 446/3/2 445/3/2 447/3/2
f 440/3/2 441/3/2 448/3/2
f 448/3/2 441/3/2 449/3/2
f 444/3/2 446/3/2 450/3/2
f 449/3/2 450/3/2 451/3/2
f 450/3/2 446/3/2 452/3/2
f 451/3/2 450/3/2 452/3/2
f 453/3/2 454/3/2 458/3/2
f 458/3/2 454/3/2 459/3/2
f 455/5/2 456/5/2 460/5/2
f 457/3/2 458/3/2 463/3/2
f 463/3/2 458/3/2 464/3/2
f 455/5/2 460/5/2 465/5/2
f 460/3/2 461/3/2 466/3/2
f 465/5/2 460/5/2 466/5/2
f 466/3/2 461/3/2 467/3/2
f 462/3/2 463/3/2 469/3/2
f 469/3/2 463/3/2 470/3/2
f 467/3/2 468/3/2 471/3/2
f 465/3/2 466/3/2 471/3/2
f 466/3/2 467/3/2 471/3/2
f 471/3/2 468/3/2 472/3/2
f 465/3/2 471/3/2 473/3/2
f 473/3/2 471/3/2 474/3/2
f 475/3/2 476/3/2 477/3/2
f 477/3/2 476/3/2 478/3/2
f 479/3/2 480/3/2 481/3/2
f 481/3/2 480/3/2 482/3/2
f 483/6/2 484/6/2 489/6/2
f 484/5/2 485/5/2 490/5/2
f 489/6/2 484/6/2 490/6/2
f 486/6/2 487/6/2 491/6/2
f 487/5/2 488/5/2 492/5/2
f 491/6/2 487/6/2 492/6/2
f 490/5/2 485/5/2 493/5/2
f 493/5/2 485/5/2 494/5/2
f 492/5/2 488/5/2 495/5/2
f 495/5/2 488/5/2 496/5/2
f 494/5/2 485/5/2 497/5/2
f 494/5/2 497/5/2 500/5/2
f 497/5/2 498/5/2 500/5/2
f 500/5/2 498/5/2 501/5/2
f 496/5/2 488/5/2 503/5/2
f 503/5/2 488/5/2 504/5/2
f 501/5/2 498/5/2 506/5/2
f 506/5/2 507/5/2 508/5/2
f 502/3/2 503/3/2 509/3/2
f 504/5/2 505/5/2 510/5/2
f 499/3/2 500/3/2 512/3/2
f 500/3/2 501/3/2 512/3/2
f 512/3/2 501/3/2 513/3/2
f 508/5/2 509/5/2 514/5/2
f 513/3/2 501/3/2 514/3/2
f 506/5/2 508/5/2 514/5/2
f 501/5/2 506/5/2 514/5/2
f 509/3/2 503/3/2 515/3/2
f 514/5/2 509/5/2 515/5/2
f 515/3/2 503/3/2 516/3/2
f 510/5/2 511/5/2 517/5/2
f 504/5/2 510/5/2 517/5/2
f 517/5/2 511/5/2 518/5/2
f 518/5/2 511/5/2 519/5/2
f 518/3/2 519/3/2 521/3/2
f 513/3/2 514/3/2 522/3/2
f 520/3/2 521/3/2 525/3/2
f 521/3/2 519/3/2 526/3/2
f 525/3/2 521/3/2 526/3/2
f 526/3/2 519/3/2 527/3/2
f 522/3/2 523/3/2 528/3/2
f 524/3/2 525/3/2 529/3/2
f 525/3/2 526/3/2 529/3/2
f 529/3/2 526/3/2 530/3/2
f 530/3/2 526/3/2 531/3/2
f 522/3/2 528/3/2 532/3/2
f 513/3/2 522/3/2 532/3/2
f 529/3/2 530/3/2 532/3/2
f 528/3/2 529/3/2 532/3/2
f 532/3/2 530/3/2 533/3/2
f 533/3/2 530/3/2 534/3/2
f 534/3/2 530/3/2 535/3/2
f 533/3/2 534/3/2 536/3/2
f 536/3/2 534/3/2 537/3/2
f 538/3/2 539/3/2 540/3/2
f 540/3/2 539/3/2 541/3/2
f 542/3/2 543/3/2 545/3/2
f 545/3/2 543/3/2 546/3/2
f 544/3/2 545/3/2 548/3/2
f 546/3/2 547/3/2 548/3/2
f 545/3/2 546/3/2 548/3/2
f 548/3/2 547/3/2 549/3/2
f 544/3/2 548/3/2 550/3/2
f 550/3/2 548/3/2 551/3/2
f 551/3/2 548/3/2 552/3/2
f 552/3/2 548/3/2 553/3/2
f 551/3/2 552/3/2 554/3/2
f 554/3/2 552/3/2 555/3/2
f 558/6/3 557/6/3 556/6/3
f 559/6/3 557/6/3 558/6/3
f 562/5/3 561/5/3 560/5/3
f 563/5/3 561/5/3 562/5/3
f 564/5/3 562/5/3 560/5/3
f 565/5/3 561/5/3 563/5/3
f 566/5/3 564/5/3 560/5/3
f 566/5/3 565/5/3 564/5/3
f 567/5/3 561/5/3 565/5/3
f 567/5/3 565/5/3 566/5/3
f 570/3/3 569/3/3 568/3/3
f 571/3/3 569/3/3 570/3/3
f 572/3/3 569/3/3 571/3/3
f 575/3/3 571/3/3 570/3/3
f 576/6/3 572/6/3 571/6/3
f 576/3/3 571/3/3 575/3/3
f 577/3/3 569/3/3 572/3/3
f 577/6/3 572/6/3 576/6/3
f 578/3/3 569/3/3 577/3/3
f 579/4/3 574/4/3 573/4/3
f 580/4/3 574/4/3 579/4/3
f 581/5/3 576/5/3 575/5/3
f 581/5/3 577/5/3 576/5/3
f 581/5/3 578/5/3 577/5/3
f 582/5/3 578/5/3 581/5/3
f 583/5/3 578/5/3 582/5/3
f 584/5/3 578/5/3 583/5/3
f 585/3/3 582/3/3 581/3/3
f 586/6/3 583/6/3 582/6/3
f 586/3/3 582/3/3 585/3/3
f 587/3/3 584/3/3 583/3/3
f 587/6/3 583/6/3 586/6/3
f 588/3/3 586/3/3 585/3/3
f 588/3/3 587/3/3 586/3/3
f 589/3/3 584/3/3 587/3/3
f 589/3/3 587/3/3 588/3/3
f 592/6/3 591/6/3 590/6/3
f 593/6/3 591/6/3 592/6/3
f 594/5/3 593/5/3 592/5/3
f 595/5/3 593/5/3 594/5/3
f 596/6/3 595/6/3 594/6/3
f 597/6/3 595/6/3 596/6/3
f 601/5/3 599/5/3 598/5/3
f 602/5/3 599/5/3 601/5/3
f 603/5/3 599/5/3 602/5/3
f 604/5/3 601/5/3 600/5/3
f 604/5/3 602/5/3 601/5/3
f 605/5/3 602/5/3 604/5/3
f 606/5/3 604/5/3 600/5/3
f 608/5/3 606/5/3 600/5/3
f 608/5/3 607/5/3 606/5/3
f 609/5/3 607/5/3 608/5/3
f 610/5/3 607/5/3 609/5/3
f 614/5/3 610/5/3 609/5/3
f 614/5/3 611/5/3 610/5/3
f 615/5/3 611/5/3 614/5/3
f 616/6/3 613/6/3 612/6/3
f 617/6/3 613/6/3 616/6/3
f 618/5/3 617/5/3 616/5/3
f 619/5/3 617/5/3 618/5/3
f 620/6/3 619/6/3 618/6/3
f 621/6/3 619/6/3 620/6/3
f 628/5/3 623/5/3 622/5/3
f 633/3/3 627/3/3 626/3/3
f 634/3/3 627/3/3 633/3/3
f 636/5/3 623/5/3 628/5/3
f 637/3/3 625/3/3 624/3/3
f 638/3/3 625/3/3 637/3/3
f 640/5/3 630/5/3 629/5/3
f 641/3/3 631/3/3 630/3/3
f 641/5/3 630/5/3 640/5/3
f 642/3/3 631/3/3 641/3/3
f 643/3/3 633/3/3 632/3/3
f 644/3/3 633/3/3 643/3/3
f 645/5/3 623/5/3 636/5/3
f 646/5/3 623/5/3 645/5/3
f 647/5/3 638/5/3 637/5/3
f 648/5/3 638/5/3 647/5/3
f 650/5/3 640/5/3 639/5/3
f 650/5/3 641/5/3 640/5/3
f 651/5/3 641/5/3 650/5/3
f 652/5/3 641/5/3 651/5/3
f 653/3/3 643/3/3 642/3/3
f 654/3/3 643/3/3 653/3/3
f 656/3/3 635/3/3 634/3/3
f 657/3/3 635/3/3 656/3/3
f 658/5/3 651/5/3 650/5/3
f 658/5/3 650/5/3 649/5/3
f 659/5/3 651/5/3 658/5/3
f 661/3/3 656/3/3 655/3/3
f 662/3/3 656/3/3 661/3/3
f 663/3/3 661/3/3 660/3/3
f 664/3/3 661/3/3 663/3/3
f 665/3/3 661/3/3 664/3/3
f 666/5/3 664/5/3 663/5/3
f 667/5/3 664/5/3 666/5/3
f 669/5/3 658/5/3 649/5/3
f 671/3/3 668/3/3 667/3/3
f 671/3/3 667/3/3 666/3/3
f 672/3/3 668/3/3 671/3/3
f 678/5/3 670/5/3 669/5/3
f 678/5/3 669/5/3 649/5/3
f 679/5/3 670/5/3 678/5/3
f 680/5/3 670/5/3 679/5/3
f 684/3/3 673/3/3 672/3/3
f 685/3/3 673/3/3 684/3/3
f 687/5/3 675/5/3 674/5/3
f 688/5/3 677/5/3 676/5/3
f 689/5/3 677/5/3 688/5/3
f 690/5/3 681/5/3 680/5/3
f 690/5/3 680/5/3 679/5/3
f 691/5/3 681/5/3 690/5/3
f 692/5/3 681/5/3 691/5/3
f 693/3/3 683/3/3 682/3/3
f 694/3/3 683/3/3 693/3/3
f 696/5/3 675/5/3 687/5/3
f 697/5/3 692/5/3 691/5/3
f 698/3/3 693/3/3 692/3/3
f 698/5/3 692/5/3 697/5/3
f 699/3/3 693/3/3 698/3/3
f 700/3/3 695/3/3 694/3/3
f 701/3/3 695/3/3 700/3/3
f 702/3/3 686/3/3 685/3/3
f 703/3/3 686/3/3 702/3/3
f 704/5/3 675/5/3 696/5/3
f 705/5/3 675/5/3 704/5/3
f 706/3/3 689/3/3 688/3/3
f 707/3/3 689/3/3 706/3/3
f 708/3/3 702/3/3 701/3/3
f 709/3/3 702/3/3 708/3/3
f 714/3/3 713/3/3 712/3/3
f 715/3/3 713/3/3 714/3/3
f 718/5/3 711/5/3 710/5/3
f 719/3/3 714/3/3 712/3/3
f 720/3/3 714/3/3 719/3/3
f 721/3/3 714/3/3 720/3/3
f 723/1/3 717/1/3 716/1/3
f 724/5/3 718/5/3 710/5/3
f 725/5/3 718/5/3 724/5/3
f 726/5/3 720/5/3 719/5/3
f 727/5/3 720/5/3 726/5/3
f 728/5/3 720/5/3 727/5/3
f 730/1/3 723/1/3 722/1/3
f 731/1/3 717/1/3 723/1/3
f 731/1/3 723/1/3 730/1/3
f 732/1/3 717/1/3 731/1/3
f 733/5/3 726/5/3 725/5/3
f 733/5/3 727/5/3 726/5/3
f 734/5/3 727/5/3 733/5/3
f 735/1/3 730/1/3 729/1/3
f 735/1/3 731/1/3 730/1/3
f 736/1/3 731/1/3 735/1/3
f 739/5/3 738/5/3 737/5/3
f 740/5/3 738/5/3 739/5/3
f 742/5/3 727/5/3 734/5/3
f 746/5/3 742/5/3 741/5/3
f 747/5/3 742/5/3 746/5/3
f 748/5/3 727/5/3 742/5/3
f 748/5/3 742/5/3 747/5/3
f 750/1/3 744/1/3 743/1/3
f 751/1/3 744/1/3 750/1/3
f 752/1/3 744/1/3 751/1/3
f 754/5/3 746/5/3 745/5/3
f 755/5/3 749/5/3 748/5/3
f 755/5/3 748/5/3 747/5/3
f 756/5/3 749/5/3 755/5/3
f 758/1/3 752/1/3 751/1/3
f 758/1/3 753/1/3 752/1/3
f 759/1/3 753/1/3 758/1/3
f 760/3/3 757/3/3 756/3/3
f 760/3/3 756/3/3 755/3/3
f 762/1/3 753/1/3 759/1/3
f 763/1/3 753/1/3 762/1/3
f 764/5/3 754/5/3 745/5/3
f 765/5/3 754/5/3 764/5/3
f 766/3/3 761/3/3 760/3/3
f 766/3/3 760/3/3 755/3/3
f 767/3/3 761/3/3 766/3/3
f 770/3/3 769/3/3 768/3/3
f 771/3/3 769/3/3 770/3/3
f 774/3/3 773/3/3 772/3/3
f 775/3/3 773/3/3 774/3/3
f 778/5/3 777/5/3 776/5/3
f 779/5/3 777/5/3 778/5/3
f 782/3/3 781/3/3 780/3/3
f 783/3/3 781/3/3 782/3/3
f 786/5/3 785/5/3 784/5/3
f 787/5/3 785/5/3 786/5/3
f 790/3/3 789/3/3 788/3/3
f 791/3/3 789/3/3 790/3/3
f 794/3/3 793/3/3 792/3/3
f 795/3/3 793/3/3 794/3/3
f 798/3/3 797/3/3 796/3/3
f 799/3/3 797/3/3 798/3/3
f 802/6/3 801/6/3 800/6/3
f 803/6/3 801/6/3 802/6/3
f 804/5/3 803/5/3 802/5/3
f 805/5/3 803/5/3 804/5/3
f 806/6/3 805/6/3 804/6/3
f 807/6/3 805/6/3 806/6/3
f 810/6/3 809/6/3 808/6/3
f 811/6/3 809/6/3 810/6/3
f 812/5/3 811/5/3 810/5/3
f 813/5/3 811/5/3 812/5/3
f 814/6/3 813/6/3 812/6/3
f 815/6/3 813/6/3 814/6/3
f 820/5/3 817/5/3 816/5/3
f 821/5/3 817/5/3 820/5/3
f 822/3/3 819/3/3 818/3/3
f 823/3/3 819/3/3 822/3/3
f 824/5/3 817/5/3 821/5/3
f 825/5/3 817/5/3 824/5/3
f 828/5/3 827/5/3 826/5/3
f 831/5/3 827/5/3 828/5/3
f 832/5/3 827/5/3 831/5/3
f 833/5/3 827/5/3 832/5/3
f 834/3/3 830/3/3 829/3/3
f 835/3/3 830/3/3 834/3/3
f 839/3/3 837/3/3 836/3/3
f 840/3/3 837/3/3 839/3/3
f 841/5/3 839/5/3 838/5/3
f 843/5/3 841/5/3 838/5/3
f 843/5/3 842/5/3 841/5/3
f 844/5/3 842/5/3 843/5/3
f 847/3/3 846/3/3 845/3/3
f 848/3/3 846/3/3 847/3/3
f 851/5/3 850/5/3 849/5/3
f 852/5/3 850/5/3 851/5/3
f 853/5/3 851/5/3 849/5/3
f 854/5/3 851/5/3 853/5/3
f 856/3/3 855/3/3 854/3/3
f 857/3/3 855/3/3 856/3/3
f 860/3/3 859/3/3 858/3/3
f 861/3/3 859/3/3 860/3/3
f 864/3/3 863/3/3 862/3/3
f 865/3/3 863/3/3 864/3/3
f 868/3/3 867/3/3 866/3/3
f 869/3/3 867/3/3 868/3/3
f 870/3/4 871/3/4 872/3/4
f 872/3/4 871/3/4 873/3/4
f 874/3/4 875/3/4 876/3/4
f 876/3/4 875/3/4 877/3/4
f 878/3/4 879/3/4 881/3/4
f 881/3/4 879/3/4 882/3/4
f 880/3/4 881/3/4 885/3/4
f 882/3/4 883/3/4 885/3/4
f 881/3/4 882/3/4 885/3/4
f 884/3/4 885/3/4 886/3/4
f 885/3/4 883/3/4 887/3/4
f 886/3/4 885/3/4 887/3/4
f 887/3/4 883/3/4 888/3/4
f 888/3/4 883/3/4 889/3/4
f 887/3/4 888/3/4 890/3/4
f 890/3/4 888/3/4 891/3/4
f 892/3/4 893/3/4 895/3/4
f 895/3/4 893/3/4 896/3/4
f 895/3/4 896/3/4 898/3/4
f 896/3/4 897/3/4 898/3/4
f 894/3/4 895/3/4 898/3/4
f 898/3/4 897/3/4 899/3/4
f 899/3/4 897/3/4 900/3/4
f 900/3/4 897/3/4 901/3/4
f 901/3/4 897/3/4 902/3/4
f 902/3/4 897/3/4 903/3/4
f 901/3/4 902/3/4 904/3/4
f 904/3/4 902/3/4 905/3/4
f 906/5/4 907/5/4 908/5/4
f 908/5/4 907/5/4 909/5/4
f 910/5/4 911/5/4 914/5/4
f 914/5/4 911/5/4 915/5/4
f 912/3/4 913/3/4 916/3/4
f 916/3/4 913/3/4 917/3/4
f 917/3/4 913/3/4 918/3/4
f 918/3/4 913/3/4 919/3/4
f 920/3/4 921/3/4 925/3/4
f 922/5/4 923/5/4 928/5/4
f 928/5/4 923/5/4 929/5/4
f 924/3/4 925/3/4 930/3/4
f 925/3/4 921/3/4 931/3/4
f 930/3/4 925/3/4 931/3/4
f 926/5/4 927/5/4 932/5/4
f 932/5/4 927/5/4 933/5/4
f 934/5/4 935/5/4 936/5/4
f 936/5/4 935/5/4 937/5/4
f 938/3/4 939/3/4 940/3/4
f 940/3/4 939/3/4 941/3/4
f 941/3/4 939/3/4 943/3/4
f 942/3/4 943/3/4 944/3/4
f 943/3/4 939/3/4 945/3/4
f 944/3/4 943/3/4 945/3/4
f 946/5/4 947/5/4 948/5/4
f 948/5/4 947/5/4 949/5/4
f 950/5/4 951/5/4 952/5/4
f 952/5/4 951/5/4 953/5/4
f 954/3/4 955/3/4 956/3/4
f 956/3/4 955/3/4 957/3/4
f 958/5/4 959/5/4 960/5/4
f 960/5/4 959/5/4 961/5/4
f 962/3/4 963/3/4 964/3/4
f 964/3/4 963/3/4 965/3/4
f 966/3/4 967/3/4 968/3/4
f 968/3/4 967/3/4 969/3/4
f 970/3/4 971/3/4 972/3/4
f 972/3/4 971/3/4 973/3/4
f 974/3/4 975/3/4 976/3/4
f 976/3/4 975/3/4 977/3/4
f 978/3/4 979/3/4 980/3/4
f 980/3/4 979/3/4 981/3/4
f 982/3/4 983/3/4 984/3/4
f 984/3/4 983/3/4 985/3/4
f 985/3/4 986/3/4 987/3/4
f 987/3/4 986/3/4 988/3/4
f 989/3/4 990/3/4 993/3/4
f 993/3/4 990/3/4 994/3/4
f 991/3/4 992/3/4 995/3/4
f 995/3/4 992/3/4 996/3/4
f 997/3/4 998/3/4 999/3/4
f 999/3/4 998/3/4 1000/3/4
f 1001/3/4 1002/3/4 1003/3/4
f 1003/3/4 1002/3/4 1004/3/4
f 1005/3/4 1006/3/4 1010/3/4
f 1010/3/4 1006/3/4 1011/3/4
f 1007/3/4 1008/3/4 1012/3/4
f 1012/3/4 1008/3/4 1013/3/4
f 1014/3/4 1015/3/4 1016/3/4
f 1016/3/4 1015/3/4 1017/3/4
f 1017/3/4 1018/3/4 1019/3/4
f 1019/3/4 1018/3/4 1020/3/4
f 1009/5/4 1010/5/4 1021/5/4
f 1021/5/4 1010/5/4 1022/5/4
f 1023/3/4 1024/3/4 1025/3/4
f 1025/3/4 1024/3/4 1026/3/4
f 1027/3/4 1028/3/4 1031/3/4
f 1031/3/4 1028/3/4 1032/3/4
f 1029/3/4 1030/3/4 1035/3/4
f 1035/3/4 1030/3/4 1036/3/4
f 1037/3/4 1038/3/4 1040/3/4
f 1040/3/4 1038/3/4 1041/3/4
f 1033/5/4 1034/5/4 1042/5/4
f 1042/5/4 1034/5/4 1043/5/4
f 1039/3/4 1040/3/4 1047/3/4
f 1047/3/4 1040/3/4 1048/3/4
f 1043/3/4 1044/3/4 1049/3/4
f 1049/3/4 1044/3/4 1050/3/4
f 1045/3/4 1046/3/4 1051/3/4
f 1051/3/4 1046/3/4 1052/3/4
f 1053/3/4 1054/3/4 1057/3/4
f 1057/3/4 1054/3/4 1058/3/4
f 1059/3/4 1060/3/4 1061/3/4
f 1061/3/4 1060/3/4 1062/3/4
f 1062/3/4 1063/3/4 1064/3/4
f 1064/3/4 1063/3/4 1065/3/4
f 1055/5/4 1056/5/4 1067/5/4
f 1067/5/4 1056/5/4 1068/5/4
f 1065/3/4 1066/3/4 1069/3/4
f 1069/3/4 1066/3/4 1070/3/4
f 1071/3/4 1072/3/4 1075/3/4
f 1075/3/4 1072/3/4 1076/3/4
f 1073/3/4 1074/3/4 1080/3/4
f 1080/3/4 1074/3/4 1081/3/4
f 1079/3/4 1080/3/4 1083/3/4
f 1083/3/4 1080/3/4 1084/3/4
f 1077/5/4 1078/5/4 1085/5/4
f 1085/5/4 1078/5/4 1086/5/4
f 1082/3/4 1083/3/4 1089/3/4
f 1089/3/4 1083/3/4 1090/3/4
f 1087/3/4 1088/3/4 1091/3/4
f 1091/3/4 1088/3/4 1092/3/4
f 1094/3/4 1095/3/4 1096/3/4
f 1096/3/4 1097/3/4 1098/3/4
f 1093/5/4 1094/5/4 1100/5/4
f 1098/3/4 1099/3/4 1100/3/4
f 1096/3/4 1098/3/4 1100/3/4
f 1094/3/4 1096/3/4 1100/3/4
f 1100/3/4 1099/3/4 1101/3/4
f 1101/3/4 1099/3/4 1102/3/4
f 1101/3/4 1102/3/4 1104/3/4
f 1102/3/4 1103/3/4 1104/3/4
f 1104/3/4 1103/3/4 1105/3/4
f 1105/3/4 1103/3/4 1107/3/4
f 1106/3/4 1107/3/4 1108/3/4
f 1107/3/4 1103/3/4 1109/3/4
f 1108/3/4 1107/3/4 1109/3/4
f 1093/5/4 1100/5/4 1110/5/4
f 1106/3/4 1108/3/4 1111/3/4
f 1111/3/4 1108/3/4 1112/3/4
f 1110/3/4 1111/3/4 1112/3/4
f 1112/3/4 1108/3/4 1113/3/4
f 1110/3/4 1112/3/4 1114/3/4
f 1114/3/4 1112/3/4 1115/3/4
f 1093/5/4 1110/5/4 1116/5/4
f 1110/3/4 1114/3/4 1117/3/4
f 1116/5/4 1110/5/4 1117/5/4
f 1117/3/4 1114/3/4 1118/3/4
f 1119/5/4 1120/5/4 1121/5/4
f 1121/5/4 1120/5/4 1122/5/4
f 1122/5/4 1120/5/4 1123/5/4
f 1122/5/4 1123/5/4 1125/5/4
f 1123/5/4 1124/5/4 1125/5/4
f 1125/5/4 1124/5/4 1126/5/4
f 1119/5/4 1121/5/4 1127/5/4
f 1122/5/4 1125/5/4 1128/5/4
f 1119/5/4 1127/5/4 1129/5/4
f 1127/5/4 1128/5/4 1129/5/4
f 1128/5/4 1125/5/4 1130/5/4
f 1129/5/4 1128/5/4 1130/5/4
f 1131/5/4 1132/5/4 1133/5/4
f 1133/5/4 1132/5/4 1134/5/4
f 1143/6/5 1136/6/5 1135/6/5
f 1144/5/5 1137/5/5 1136/5/5
f 1144/6/5 1136/6/5 1143/6/5
f 1145/6/5 1138/6/5 1137/6/5
f 1145/5/5 1137/5/5 1144/5/5
f 1146/6/5 1138/6/5 1145/6/5
f 1147/6/5 1140/6/5 1139/6/5
f 1148/5/5 1141/5/5 1140/5/5
f 1148/6/5 1140/6/5 1147/6/5
f 1149/6/5 1142/6/5 1141/6/5
f 1149/5/5 1141/5/5 1148/5/5
f 1150/6/5 1142/6/5 1149/6/5
f 1151/5/5 1144/5/5 1143/5/5
f 1151/5/5 1146/5/5 1145/5/5
f 1151/5/5 1145/5/5 1144/5/5
f 1152/5/5 1146/5/5 1151/5/5
f 1153/5/5 1148/5/5 1147/5/5
f 1153/5/5 1150/5/5 1149/5/5
f 1153/5/5 1149/5/5 1148/5/5
f 1154/5/5 1150/5/5 1153/5/5
f 1163/6/5 1156/6/5 1155/6/5
f 1164/5/5 1157/5/5 1156/5/5
f 1164/6/5 1156/6/5 1163/6/5
f 1165/6/5 1158/6/5 1157/6/5
f 1165/5/5 1157/5/5 1164/5/5
f 1166/6/5 1158/6/5 1165/6/5
f 1167/6/5 1160/6/5 1159/6/5
f 1168/5/5 1161/5/5 1160/5/5
f 1168/6/5 1160/6/5 1167/6/5
f 1169/6/5 1162/6/5 1161/6/5
f 1169/5/5 1161/5/5 1168/5/5
f 1170/6/5 1162/6/5 1169/6/5
f 1171/5/5 1164/5/5 1163/5/5
f 1171/5/5 1166/5/5 1165/5/5
f 1171/5/5 1165/5/5 1164/5/5
f 1172/5/5 1166/5/5 1171/5/5
f 1173/5/5 1168/5/5 1167/5/5
f 1173/5/5 1170/5/5 1169/5/5
f 1173/5/5 1169/5/5 1168/5/5
f 1174/5/5 1170/5/5 1173/5/5
f 1179/5/5 1176/5/5 1175/5/5
f 1180/5/5 1176/5/5 1179/5/5
f 1181/5/5 1178/5/5 1177/5/5
f 1182/5/5 1178/5/5 1181/5/5
f 1189/3/5 1184/3/5 1183/3/5
f 1190/5/5 1185/5/5 1184/5/5
f 1190/3/5 1184/3/5 1189/3/5
f 1191/5/5 1185/5/5 1190/5/5
f 1194/5/5 1187/5/5 1186/5/5
f 1195/3/5 1188/3/5 1187/3/5
f 1195/5/5 1187/5/5 1194/5/5
f 1196/3/5 1188/3/5 1195/3/5
f 1197/5/5 1192/5/5 1191/5/5
f 1198/5/5 1192/5/5 1197/5/5
f 1199/5/5 1194/5/5 1193/5/5
f 1200/5/5 1194/5/5 1199/5/5
f 1206/3/5 1202/3/5 1201/3/5
f 1207/3/5 1202/3/5 1206/3/5
f 1208/3/5 1204/3/5 1203/3/5
f 1209/3/5 1204/3/5 1208/3/5
f 1211/3/5 1206/3/5 1205/3/5
f 1212/3/5 1206/3/5 1211/3/5
f 1215/3/5 1210/3/5 1209/3/5
f 1216/3/5 1210/3/5 1215/3/5
f 1217/5/5 1213/5/5 1212/5/5
f 1218/5/5 1213/5/5 1217/5/5
f 1219/5/5 1215/5/5 1214/5/5
f 1220/5/5 1215/5/5 1219/5/5
f 1225/5/5 1222/5/5 1221/5/5
f 1226/5/5 1222/5/5 1225/5/5
f 1227/5/5 1224/5/5 1223/5/5
f 1228/5/5 1224/5/5 1227/5/5
f 1234/5/5 1230/5/5 1229/5/5
f 1234/5/5 1232/5/5 1231/5/5
f 1234/5/5 1231/5/5 1230/5/5
f 1235/5/5 1232/5/5 1234/5/5
f 1237/5/5 1234/5/5 1233/5/5
f 1237/5/5 1236/5/5 1235/5/5
f 1237/5/5 1235/5/5 1234/5/5
f 1238/5/5 1236/5/5 1237/5/5
f 1239/5/5 1236/5/5 1238/5/5
f 1240/5/5 1236/5/5 1239/5/5
f 1241/5/5 1239/5/5 1238/5/5
f 1242/5/5 1239/5/5 1241/5/5
f 1243/5/5 1239/5/5 1242/5/5
f 1244/5/5 1239/5/5 1243/5/5
f 1246/5/5 1243/5/5 1242/5/5
f 1247/5/5 1243/5/5 1246/5/5
f 1249/5/5 1247/5/5 1246/5/5
f 1249/5/5 1248/5/5 1247/5/5
f 1249/5/5 1246/5/5 1245/5/5
f 1250/5/5 1248/5/5 1249/5/5
f 1255/5/5 1252/5/5 1251/5/5
f 1256/5/5 1252/5/5 1255/5/5
f 1259/3/5 1254/3/5 1253/3/5
f 1260/3/5 1258/3/5 1257/3/5
f 1261/3/5 1259/3/5 1253/3/5
f 1262/3/5 1259/3/5 1261/3/5
f 1263/3/5 1258/3/5 1260/3/5
f 1264/3/5 1258/3/5 1263/3/5
f 1269/3/5 1266/3/5 1265/3/5
f 1270/3/5 1266/3/5 1269/3/5
f 1271/3/5 1268/3/5 1267/3/5
f 1272/3/5 1268/3/5 1271/3/5
f 1275/5/5 1274/5/5 1273/5/5
f 1276/5/5 1274/5/5 1275/5/5
f 1279/5/5 1278/5/5 1277/5/5
f 1280/5/5 1278/5/5 1279/5/5
f 1283/5/5 1282/5/5 1281/5/5
f 1284/5/5 1282/5/5 1283/5/5
f 1287/5/5 1286/5/5 1285/5/5
f 1288/5/5 1286/5/5 1287/5/5
f 1293/5/5 1290/5/5 1289/5/5
f 1294/5/5 1290/5/5 1293/5/5
f 1297/5/5 1292/5/5 1291/5/5
f 1298/5/5 1292/5/5 1297/5/5
f 1299/5/5 1296/5/5 1295/5/5
f 1300/5/5 1296/5/5 1299/5/5
f 1305/4/5 1302/4/5 1301/4/5
f 1306/4/5 1302/4/5 1305/4/5
f 1309/5/5 1304/5/5 1303/5/5
f 1310/5/5 1304/5/5 1309/5/5
f 1311/5/5 1308/5/5 1307/5/5
f 1312/5/5 1308/5/5 1311/5/5
f 1315/5/5 1314/5/5 1313/5/5
f 1316/5/5 1314/5/5 1315/5/5
f 1317/5/5 1315/5/5 1313/5/5
f 1318/5/5 1315/5/5 1317/5/5
f 1319/5/5 1314/5/5 1316/5/5
f 1320/5/5 1314/5/5 1319/5/5
f 1323/6/5 1322/6/5 1321/6/5
f 1324/6/5 1322/6/5 1323/6/5
f 1329/5/5 1326/5/5 1325/5/5
f 1330/5/5 1326/5/5 1329/5/5
f 1331/5/5 1328/5/5 1327/5/5
f 1332/5/5 1328/5/5 1331/5/5
f 1337/3/5 1334/3/5 1333/3/5
f 1338/3/5 1334/3/5 1337/3/5
f 1339/3/5 1336/3/5 1335/3/5
f 1340/3/5 1336/3/5 1339/3/5
f 1341/3/5 1337/3/5 1333/3/5
f 1342/3/5 1337/3/5 1341/3/5
f 1343/3/5 1336/3/5 1340/3/5
f 1344/3/5 1336/3/5 1343/3/5
f 1347/3/5 1346/3/5 1345/3/5
f 1348/3/5 1346/3/5 1347/3/5
f 1353/3/5 1350/3/5 1349/3/5
f 1354/3/5 1350/3/5 1353/3/5
f 1355/3/5 1352/3/5 1351/3/5
f 1356/3/5 1352/3/5 1355/3/5
f 1359/3/5 1358/3/5 1357/3/5
f 1360/3/5 1358/3/5 1359/3/5
f 1365/3/5 1362/3/5 1361/3/5
f 1366/3/5 1362/3/5 1365/3/5
f 1367/3/5 1364/3/5 1363/3/5
f 1368/3/5 1364/3/5 1367/3/5
f 1371/3/5 1370/3/5 1369/3/5
f 1372/3/5 1370/3/5 1371/3/5
f 1377/3/5 1374/3/5 1373/3/5
f 1378/3/5 1374/3/5 1377/3/5
f 1379/3/5 1376/3/5 1375/3/5
f 1380/3/5 1376/3/5 1379/3/5
f 1385/3/5 1382/3/5 1381/3/5
f 1386/3/5 1382/3/5 1385/3/5
f 1387/3/5 1384/3/5 1383/3/5
f 1388/3/5 1384/3/5 1387/3/5
f 1389/6/6 1390/6/6 1397/6/6
f 1390/5/6 1391/5/6 1398/5/6
f 1397/6/6 1390/6/6 1398/6/6
f 1391/6/6 1392/6/6 1399/6/6
f 1398/5/6 1391/5/6 1399/5/6
f 1399/6/6 1392/6/6 1400/6/6
f 1393/6/6 1394/6/6 1401/6/6
f 1394/5/6 1395/5/6 1402/5/6
f 1401/6/6 1394/6/6 1402/6/6
f 1395/6/6 1396/6/6 1403/6/6
f 1402/5/6 1395/5/6 1403/5/6
f 1403/6/6 1396/6/6 1404/6/6
f 1405/6/6 1406/6/6 1413/6/6
f 1406/5/6 1407/5/6 1414/5/6
f 1413/6/6 1406/6/6 1414/6/6
f 1407/6/6 1408/6/6 1415/6/6
f 1414/5/6 1407/5/6 1415/5/6
f 1415/6/6 1408/6/6 1416/6/6
f 1409/6/6 1410/6/6 1417/6/6
f 1410/5/6 1411/5/6 1418/5/6
f 1417/6/6 1410/6/6 1418/6/6
f 1411/6/6 1412/6/6 1419/6/6
f 1418/5/6 1411/5/6 1419/5/6
f 1419/6/6 1412/6/6 1420/6/6
f 1421/5/6 1422/5/6 1425/5/6
f 1425/5/6 1422/5/6 1426/5/6
f 1423/5/6 1424/5/6 1427/5/6
f 1427/5/6 1424/5/6 1428/5/6
f 1429/5/6 1430/5/6 1433/5/6
f 1433/5/6 1430/5/6 1434/5/6
f 1431/5/6 1432/5/6 1435/5/6
f 1435/5/6 1432/5/6 1436/5/6
f 1437/3/6 1438/3/6 1443/3/6
f 1438/5/6 1439/5/6 1444/5/6
f 1443/3/6 1438/3/6 1444/3/6
f 1444/5/6 1439/5/6 1445/5/6
f 1440/5/6 1441/5/6 1446/5/6
f 1441/3/6 1442/3/6 1447/3/6
f 1446/5/6 1441/5/6 1447/5/6
f 1447/3/6 1442/3/6 1448/3/6
f 1449/3/6 1450/3/6 1453/3/6
f 1453/3/6 1450/3/6 1454/3/6
f 1451/3/6 1452/3/6 1455/3/6
f 1455/3/6 1452/3/6 1456/3/6
f 1457/5/6 1458/5/6 1459/5/6
f 1459/5/6 1458/5/6 1460/5/6
f 1461/3/6 1462/3/6 1465/3/6
f 1465/3/6 1462/3/6 1466/3/6
f 1463/3/6 1464/3/6 1467/3/6
f 1467/3/6 1464/3/6 1468/3/6
f 1469/3/6 1470/3/6 1473/3/6
f 1473/3/6 1470/3/6 1474/3/6
f 1471/3/6 1472/3/6 1475/3/6
f 1475/3/6 1472/3/6 1476/3/6
f 1477/3/6 1478/3/6 1481/3/6
f 1481/3/6 1478/3/6 1482/3/6
f 1479/3/6 1480/3/6 1487/3/6
f 1487/3/6 1480/3/6 1488/3/6
f 1483/5/6 1484/5/6 1489/5/6
f 1489/5/6 1484/5/6 1490/5/6
f 1485/5/6 1486/5/6 1491/5/6
f 1491/5/6 1486/5/6 1492/5/6
f 1493/3/6 1494/3/6 1497/3/6
f 1497/3/6 1494/3/6 1498/3/6
f 1495/3/6 1496/3/6 1499/3/6
f 1499/3/6 1496/3/6 1500/3/6
f 1501/3/6 1502/3/6 1505/3/6
f 1505/3/6 1502/3/6 1506/3/6
f 1503/3/6 1504/3/6 1509/3/6
f 1509/3/6 1504/3/6 1510/3/6
f 1506/3/6 1507/3/6 1511/3/6
f 1511/3/6 1507/3/6 1512/3/6
f 1508/3/6 1509/3/6 1513/3/6
f 1513/3/6 1509/3/6 1514/3/6
f 1515/6/6 1516/6/6 1517/6/6
f 1517/6/6 1516/6/6 1518/6/6
f 1519/3/6 1520/3/6 1523/3/6
f 1523/3/6 1520/3/6 1524/3/6
f 1521/3/6 1522/3/6 1525/3/6
f 1525/3/6 1522/3/6 1526/3/6
f 1527/3/6 1528/3/6 1531/3/6
f 1531/3/6 1528/3/6 1532/3/6
f 1529/3/6 1530/3/6 1535/3/6
f 1535/3/6 1530/3/6 1536/3/6
f 1532/3/6 1533/3/6 1537/3/6
f 1537/3/6 1533/3/6 1538/3/6
f 1534/3/6 1535/3/6 1541/3/6
f 1541/3/6 1535/3/6 1542/3/6
f 1538/3/6 1539/3/6 1543/3/6
f 1543/3/6 1539/3/6 1544/3/6
f 1540/3/6 1541/3/6 1545/3/6
f 1545/3/6 1541/3/6 1546/3/6
f 1547/5/6 1548/5/6 1549/5/6
f 1549/5/6 1548/5/6 1550/5/6
f 1550/5/6 1548/5/6 1551/5/6
f 1551/5/6 1548/5/6 1552/5/6
f 1555/3/6 1556/3/6 1558/3/6
f 1553/3/6 1554/3/6 1559/3/6
f 1559/3/6 1554/3/6 1560/3/6
f 1557/3/6 1558/3/6 1562/3/6
f 1558/3/6 1556/3/6 1562/3/6
f 1562/3/6 1556/3/6 1563/3/6
f 1560/3/6 1561/3/6 1564/3/6
f 1564/3/6 1561/3/6 1565/3/6
f 1565/3/6 1561/3/6 1566/3/6
f 1557/3/6 1562/3/6 1569/3/6
f 1569/3/6 1562/3/6 1570/3/6
f 1570/3/6 1562/3/6 1571/3/6
f 1566/3/6 1567/3/6 1572/3/6
f 1565/3/6 1566/3/6 1572/3/6
f 1572/3/6 1567/3/6 1573/3/6
f 1569/3/6 1570/3/6 1574/3/6
f 1568/3/6 1569/3/6 1574/3/6
f 1574/3/6 1570/3/6 1575/3/6
f 1576/3/6 1577/3/6 1580/3/6
f 1578/3/6 1579/3/6 1583/3/6
f 1582/3/6 1583/3/6 1584/3/6
f 1583/3/6 1579/3/6 1585/3/6
f 1584/3/6 1583/3/6 1585/3/6
f 1580/3/6 1581/3/6 1586/3/6
f 1576/3/6 1580/3/6 1586/3/6
f 1586/3/6 1581/3/6 1587/3/6
f 1587/3/6 1581/3/6 1588/3/6
f 1582/3/6 1584/3/6 1589/3/6
f 1587/3/6 1588/3/6 1590/3/6
f 1588/3/6 1589/3/6 1590/3/6
f 1590/3/6 1589/3/6 1591/3/6
f 1589/3/6 1584/3/6 1592/3/6
f 1591/3/6 1589/3/6 1592/3/6
f 1592/3/6 1584/3/6 1593/3/6
f 1594/3/6 1595/3/6 1598/3/6
f 1596/3/6 1597/3/6 1601/3/6
f 1598/3/6 1599/3/6 1602/3/6
f 1600/3/6 1601/3/6 1605/3/6
f 1602/3/6 1603/3/6 1606/3/6
f 1604/3/6 1605/3/6 1607/3/6
f 1602/3/6 1606/3/6 1608/3/6
f 1606/3/6 1607/3/6 1608/3/6
f 1594/3/6 1598/3/6 1608/3/6
f 1598/3/6 1602/3/6 1608/3/6
f 1608/3/6 1607/3/6 1609/3/6
f 1607/3/6 1605/3/6 1610/3/6
f 1609/3/6 1607/3/6 1610/3/6
f 1605/3/6 1601/3/6 1610/3/6
f 1601/3/6 1597/3/6 1611/3/6
f 1610/3/6 1601/3/6 1611/3/6
f 1609/3/6 1610/3/6 1612/3/6
f 1612/3/6 1610/3/6 1613/3/6
f 1614/5/6 1615/5/6 1616/5/6
f 1616/5/6 1615/5/6 1617/5/6
f 1618/3/6 1619/3/6 1623/3/6
f 1623/3/6 1619/3/6 1624/3/6
f 1624/3/6 1619/3/6 1625/3/6
f 1619/5/6 1620/5/6 1626/5/6
f 1625/3/6 1619/3/6 1626/3/6
f 1620/3/6 1621/3/6 1627/3/6
f 1626/5/6 1620/5/6 1627/5/6
f 1627/3/6 1621/3/6 1628/3/6
f 1628/3/6 1621/3/6 1629/3/6
f 1629/3/6 1621/3/6 1630/3/6
f 1624/3/6 1625/3/6 1632/3/6
f 1632/3/6 1625/3/6 1633/3/6
f 1628/3/6 1629/3/6 1634/3/6
f 1634/3/6 1629/3/6 1635/3/6
f 1622/3/6 1623/3/6 1636/3/6
f 1636/3/6 1623/3/6 1637/3/6
f 1630/3/6 1631/3/6 1638/3/6
f 1638/3/6 1631/3/6 1639/3/6
f 1640/3/6 1641/3/6 1642/3/6
f 1642/3/6 1641/3/6 1643/3/6
f 1644/3/6 1645/3/6 1646/3/6
f 1646/3/6 1645/3/6 1647/3/6
f 1648/3/6 1649/3/6 1654/3/6
f 1654/3/6 1649/3/6 1655/3/6
f 1650/5/6 1651/5/6 1656/5/6
f 1656/5/6 1651/5/6 1657/5/6
f 1652/3/6 1653/3/6 1658/3/6
f 1658/3/6 1653/3/6 1659/3/6
f 1660/3/6 1661/3/6 1662/3/6
f 1662/3/6 1661/3/6 1663/3/6
f 1664/3/6 1665/3/6 1666/3/6
f 1666/3/6 1665/3/6 1667/3/6
f 1668/3/6 1669/3/6 1672/3/6
f 1672/3/6 1669/3/6 1673/3/6
f 1670/3/6 1671/3/6 1676/3/6
f 1676/3/6 1671/3/6 1677/3/6
f 1674/5/6 1675/5/6 1678/5/6
f 1678/5/6 1675/5/6 1679/5/6
f 1678/3/6 1679/3/6 1681/3/6
f 1681/3/6 1679/3/6 1682/3/6
f 1681/3/6 1682/3/6 1684/3/6
f 1682/3/6 1683/3/6 1684/3/6
f 1680/3/6 1681/3/6 1684/3/6
f 1684/3/6 1683/3/6 1685/3/6
f 1686/3/6 1687/3/6 1688/3/6
f 1688/3/6 1687/3/6 1689/3/6
f 1690/3/6 1691/3/6 1695/3/6
f 1692/3/6 1693/3/6 1696/3/6
f 1694/3/6 1695/3/6 1698/3/6
f 1695/3/6 1691/3/6 1699/3/6
f 1698/3/6 1695/3/6 1699/3/6
f 1696/3/6 1697/3/6 1700/3/6
f 1692/3/6 1696/3/6 1700/3/6
f 1700/3/6 1697/3/6 1701/3/6
f 1702/3/6 1703/3/6 1704/3/6
f 1704/3/6 1703/3/6 1705/3/6
f 1706/3/6 1707/3/6 1714/3/6
f 1714/3/6 1707/3/6 1715/3/6
f 1708/3/6 1709/3/6 1716/3/6
f 1716/3/6 1709/3/6 1717/3/6
f 1710/3/6 1711/3/6 1718/3/6
f 1718/3/6 1711/3/6 1719/3/6
f 1712/3/6 1713/3/6 1720/3/6
f 1720/3/6 1713/3/6 1721/3/6
f 1722/3/6 1723/3/6 1726/3/6
f 1726/3/6 1723/3/6 1727/3/6
f 1724/3/6 1725/3/6 1728/3/6
f 1728/3/6 1725/3/6 1729/3/6
